simulation/qsim/neander_top.msim.vcd
$comment
	File created using the following command:
		vcd file neander_top.msim.vcd -direction
$end
$date
	Fri Oct 13 10:48:20 2023
$end
$version
	ModelSim Version 10.5b
$end
$timescale
	1ps
$end

$scope module neander_top_vlg_vec_tst $end
$var reg 1 ! mclk $end
$var wire 1 " AC_out [7] $end
$var wire 1 # AC_out [6] $end
$var wire 1 $ AC_out [5] $end
$var wire 1 % AC_out [4] $end
$var wire 1 & AC_out [3] $end
$var wire 1 ' AC_out [2] $end
$var wire 1 ( AC_out [1] $end
$var wire 1 ) AC_out [0] $end
$var wire 1 * cargaPC $end
$var wire 1 + incPC $end
$var wire 1 , INSTR_time [2] $end
$var wire 1 - INSTR_time [1] $end
$var wire 1 . INSTR_time [0] $end
$var wire 1 / PC_out [7] $end
$var wire 1 0 PC_out [6] $end
$var wire 1 1 PC_out [5] $end
$var wire 1 2 PC_out [4] $end
$var wire 1 3 PC_out [3] $end
$var wire 1 4 PC_out [2] $end
$var wire 1 5 PC_out [1] $end
$var wire 1 6 PC_out [0] $end
$var wire 1 7 RDM_out [7] $end
$var wire 1 8 RDM_out [6] $end
$var wire 1 9 RDM_out [5] $end
$var wire 1 : RDM_out [4] $end
$var wire 1 ; RDM_out [3] $end
$var wire 1 < RDM_out [2] $end
$var wire 1 = RDM_out [1] $end
$var wire 1 > RDM_out [0] $end
$var wire 1 ? REM_out [7] $end
$var wire 1 @ REM_out [6] $end
$var wire 1 A REM_out [5] $end
$var wire 1 B REM_out [4] $end
$var wire 1 C REM_out [3] $end
$var wire 1 D REM_out [2] $end
$var wire 1 E REM_out [1] $end
$var wire 1 F REM_out [0] $end
$var wire 1 G RI_out [7] $end
$var wire 1 H RI_out [6] $end
$var wire 1 I RI_out [5] $end
$var wire 1 J RI_out [4] $end
$var wire 1 K RI_out [3] $end
$var wire 1 L RI_out [2] $end
$var wire 1 M RI_out [1] $end
$var wire 1 N RI_out [0] $end
$var wire 1 O sampler $end

$scope module i1 $end
$var wire 1 P gnd $end
$var wire 1 Q vcc $end
$var wire 1 R unknown $end
$var tri1 1 S devclrn $end
$var tri1 1 T devpor $end
$var tri1 1 U devoe $end
$var wire 1 V INSTR_time[0]~output_o $end
$var wire 1 W INSTR_time[1]~output_o $end
$var wire 1 X INSTR_time[2]~output_o $end
$var wire 1 Y AC_out[0]~output_o $end
$var wire 1 Z AC_out[1]~output_o $end
$var wire 1 [ AC_out[2]~output_o $end
$var wire 1 \ AC_out[3]~output_o $end
$var wire 1 ] AC_out[4]~output_o $end
$var wire 1 ^ AC_out[5]~output_o $end
$var wire 1 _ AC_out[6]~output_o $end
$var wire 1 ` AC_out[7]~output_o $end
$var wire 1 a PC_out[0]~output_o $end
$var wire 1 b PC_out[1]~output_o $end
$var wire 1 c PC_out[2]~output_o $end
$var wire 1 d PC_out[3]~output_o $end
$var wire 1 e PC_out[4]~output_o $end
$var wire 1 f PC_out[5]~output_o $end
$var wire 1 g PC_out[6]~output_o $end
$var wire 1 h PC_out[7]~output_o $end
$var wire 1 i REM_out[0]~output_o $end
$var wire 1 j REM_out[1]~output_o $end
$var wire 1 k REM_out[2]~output_o $end
$var wire 1 l REM_out[3]~output_o $end
$var wire 1 m REM_out[4]~output_o $end
$var wire 1 n REM_out[5]~output_o $end
$var wire 1 o REM_out[6]~output_o $end
$var wire 1 p REM_out[7]~output_o $end
$var wire 1 q RDM_out[0]~output_o $end
$var wire 1 r RDM_out[1]~output_o $end
$var wire 1 s RDM_out[2]~output_o $end
$var wire 1 t RDM_out[3]~output_o $end
$var wire 1 u RDM_out[4]~output_o $end
$var wire 1 v RDM_out[5]~output_o $end
$var wire 1 w RDM_out[6]~output_o $end
$var wire 1 x RDM_out[7]~output_o $end
$var wire 1 y RI_out[0]~output_o $end
$var wire 1 z RI_out[1]~output_o $end
$var wire 1 { RI_out[2]~output_o $end
$var wire 1 | RI_out[3]~output_o $end
$var wire 1 } RI_out[4]~output_o $end
$var wire 1 ~ RI_out[5]~output_o $end
$var wire 1 !! RI_out[6]~output_o $end
$var wire 1 "! RI_out[7]~output_o $end
$var wire 1 #! incPC~output_o $end
$var wire 1 $! cargaPC~output_o $end
$var wire 1 %! mclk~input_o $end
$var wire 1 &! TIMER|qs[0]~2_combout $end
$var wire 1 '! TIMER|qs[0]~feeder_combout $end
$var wire 1 (! TIMER|qs[1]~0_combout $end
$var wire 1 )! TIMER|qs[2]~1_combout $end
$var wire 1 *! TIMER|qs[2]~feeder_combout $end
$var wire 1 +! TIMER_DECODER|Mux5~combout $end
$var wire 1 ,! CU|carga_RDM~combout $end
$var wire 1 -! CU|carga_RDM~clkctrl_outclk $end
$var wire 1 .! CU|carga_REM~1_combout $end
$var wire 1 /! TIMER_DECODER|Mux6~0_combout $end
$var wire 1 0! CU|carga_REM~combout $end
$var wire 1 1! CU|carga_REM~clkctrl_outclk $end
$var wire 1 2! CU|carga_AC~combout $end
$var wire 1 3! CU|carga_PC~combout $end
$var wire 1 4! CU|carga_PC~clkctrl_outclk $end
$var wire 1 5! REG_PC|count[0]~8_combout $end
$var wire 1 6! CU|sel~0_combout $end
$var wire 1 7! MULTIPLEX|y[1]~1_combout $end
$var wire 1 8! MULTIPLEX|y[2]~2_combout $end
$var wire 1 9! MULTIPLEX|y[0]~0_combout $end
$var wire 1 :! MEM|Mux2~0_combout $end
$var wire 1 ;! CU|inc_PC~0_combout $end
$var wire 1 <! CU|inc_PC~combout $end
$var wire 1 =! REG_PC|count[0]~9 $end
$var wire 1 >! REG_PC|count[1]~10_combout $end
$var wire 1 ?! REG_PC|count[1]~11 $end
$var wire 1 @! REG_PC|count[2]~12_combout $end
$var wire 1 A! ~GND~combout $end
$var wire 1 B! REG_PC|count[2]~13 $end
$var wire 1 C! REG_PC|count[3]~14_combout $end
$var wire 1 D! MULTIPLEX|y[3]~3_combout $end
$var wire 1 E! MEM|Mux0~0_combout $end
$var wire 1 F! REG_RI|q[5]~feeder_combout $end
$var wire 1 G! CU|goto_t0~0_combout $end
$var wire 1 H! CU|carga_AC~clkctrl_outclk $end
$var wire 1 I! REG_AC|q[0]~feeder_combout $end
$var wire 1 J! REG_AC|q[1]~feeder_combout $end
$var wire 1 K! REG_AC|q[5]~feeder_combout $end
$var wire 1 L! REG_PC|count[3]~15 $end
$var wire 1 M! REG_PC|count[4]~16_combout $end
$var wire 1 N! REG_PC|count[4]~17 $end
$var wire 1 O! REG_PC|count[5]~18_combout $end
$var wire 1 P! REG_PC|count[5]~19 $end
$var wire 1 Q! REG_PC|count[6]~20_combout $end
$var wire 1 R! REG_PC|count[6]~21 $end
$var wire 1 S! REG_PC|count[7]~22_combout $end
$var wire 1 T! TIMER_DECODER|Mux5~clkctrl_outclk $end
$var wire 1 U! REG_RI|q[0]~feeder_combout $end
$var wire 1 V! REG_RI|q[1]~feeder_combout $end
$var wire 1 W! REG_REM|q [7] $end
$var wire 1 X! REG_REM|q [6] $end
$var wire 1 Y! REG_REM|q [5] $end
$var wire 1 Z! REG_REM|q [4] $end
$var wire 1 [! REG_REM|q [3] $end
$var wire 1 \! REG_REM|q [2] $end
$var wire 1 ]! REG_REM|q [1] $end
$var wire 1 ^! REG_REM|q [0] $end
$var wire 1 _! REG_RDM|q [7] $end
$var wire 1 `! REG_RDM|q [6] $end
$var wire 1 a! REG_RDM|q [5] $end
$var wire 1 b! REG_RDM|q [4] $end
$var wire 1 c! REG_RDM|q [3] $end
$var wire 1 d! REG_RDM|q [2] $end
$var wire 1 e! REG_RDM|q [1] $end
$var wire 1 f! REG_RDM|q [0] $end
$var wire 1 g! REG_RI|q [7] $end
$var wire 1 h! REG_RI|q [6] $end
$var wire 1 i! REG_RI|q [5] $end
$var wire 1 j! REG_RI|q [4] $end
$var wire 1 k! REG_RI|q [3] $end
$var wire 1 l! REG_RI|q [2] $end
$var wire 1 m! REG_RI|q [1] $end
$var wire 1 n! REG_RI|q [0] $end
$var wire 1 o! TIMER|qs [2] $end
$var wire 1 p! TIMER|qs [1] $end
$var wire 1 q! TIMER|qs [0] $end
$var wire 1 r! REG_PC|count [7] $end
$var wire 1 s! REG_PC|count [6] $end
$var wire 1 t! REG_PC|count [5] $end
$var wire 1 u! REG_PC|count [4] $end
$var wire 1 v! REG_PC|count [3] $end
$var wire 1 w! REG_PC|count [2] $end
$var wire 1 x! REG_PC|count [1] $end
$var wire 1 y! REG_PC|count [0] $end
$var wire 1 z! REG_AC|q [7] $end
$var wire 1 {! REG_AC|q [6] $end
$var wire 1 |! REG_AC|q [5] $end
$var wire 1 }! REG_AC|q [4] $end
$var wire 1 ~! REG_AC|q [3] $end
$var wire 1 !" REG_AC|q [2] $end
$var wire 1 "" REG_AC|q [1] $end
$var wire 1 #" REG_AC|q [0] $end
$upscope $end
$upscope $end
$enddefinitions $end
#0
$dumpvars
0!
x)
x(
0'
0&
0%
x$
0#
0"
x*
x+
x.
x-
x,
x6
x5
x4
x3
x2
x1
x0
x/
x>
x=
0<
0;
0:
x9
08
07
xF
xE
xD
xC
0B
0A
0@
0?
xN
xM
0L
0K
0J
xI
0H
0G
xO
0P
1Q
xR
1S
1T
1U
xV
xW
xX
xY
xZ
0[
0\
0]
x^
0_
0`
xa
xb
xc
xd
xe
xf
xg
xh
xi
xj
xk
xl
0m
0n
0o
0p
xq
xr
0s
0t
0u
xv
0w
0x
xy
xz
0{
0|
0}
x~
0!!
0"!
x#!
x$!
0%!
x&!
x'!
x(!
x)!
x*!
x+!
x,!
x-!
x.!
x/!
x0!
x1!
x2!
x3!
x4!
x5!
x6!
x7!
x8!
x9!
x:!
x;!
x<!
x=!
x>!
x?!
x@!
0A!
xB!
xC!
xD!
xE!
xF!
xG!
xH!
xI!
xJ!
xK!
xL!
xM!
xN!
xO!
xP!
xQ!
xR!
xS!
xT!
xU!
xV!
0^!
0]!
0\!
0[!
zZ!
zY!
zX!
zW!
0f!
ze!
zd!
zc!
zb!
0a!
z`!
z_!
0n!
0m!
zl!
zk!
zj!
0i!
zh!
zg!
0q!
0p!
0o!
0y!
0x!
0w!
0v!
0u!
0t!
0s!
0r!
0#"
0""
z!"
z~!
z}!
0|!
z{!
zz!
$end
#497
02!
#578
0F!
#630
0+!
#637
0/!
#641
0G!
#660
0N!
#661
0R!
#662
0B!
#669
0=!
#702
0)!
#706
15!
#726
0D!
#735
0.!
#740
0,!
#788
1P!
#792
1?!
#799
1L!
#842
08!
#871
06!
#915
07!
#1024
1E!
#1029
0:!
#1072
09!
#1083
10!
#1097
0O!
#1098
0S!
#1099
0C!
#1106
0>!
#1138
0*!
#1225
0Q!
#1229
0@!
#1236
0M!
#1239
03!
#1462
1&!
#1501
0I!
#1502
0J!
#1686
0K!
#1988
0(!
#1997
0V!
#1999
0U!
#2193
0-!
#2326
0H!
#2462
0;!
#2638
11!
#2692
0T!
#2693
1'!
#2847
04!
#3040
0z
0M
#3063
0Z
0(
#3067
0<!
#3070
0y
0N
#3369
0Y
0)
#3806
0^
0$
#3864
0e
02
#4058
0g
00
#4080
0c
04
#4083
0b
05
#4139
0~
0h
0I
0/
#4291
0V
0.
#4303
0a
06
#4336
0l
0C
#4338
0f
01
#4341
0X
0,
#4479
0d
03
#4539
0q
0r
0>
0=
#4550
0i
0F
#4578
0j
0E
#4686
0k
0D
#4847
0v
09
#5043
0W
0-
#5219
0$!
0*
#7422
0#!
0+
#10000
1!
0O
#10545
1%!
#12798
1q!
#13195
00!
#13461
1,!
#14189
0&!
#14718
1(!
#14787
01!
#14868
1-!
#15165
1;!
#15472
0'!
#15748
1<!
#16739
1a!
#17081
1V
1.
#17267
1F!
#18362
1K!
#20000
0!
1O
#20148
1#!
1+
#20718
0%!
#21628
1v
19
#30000
1!
0O
#30545
1%!
#32798
1p!
0q!
#33283
10!
#33330
0;!
#33336
0(!
#33338
1/!
#33341
1G!
#33453
1)!
#33500
0,!
#33553
1+!
#33756
00!
#33887
1*!
#34152
13!
#34260
1&!
#34314
0p!
#34488
0G!
#34636
1i!
#34944
0+!
#34951
0/!
#34953
0-!
#35082
0)!
#35397
10!
#35491
1'!
#35518
0*!
#35553
03!
#35711
0<!
#36952
11!
#37089
0V
0.
#38804
1~
1I
#40000
0!
1O
#40066
0#!
0+
#40718
0%!
#50000
1!
0O
#50545
1%!
#52798
1q!
#53195
00!
#53461
1,!
#54189
0&!
#54718
1(!
#54787
01!
#54868
1-!
#55165
1;!
#55472
0'!
#55748
1<!
#57081
1V
1.
#60000
0!
1O
#60148
1#!
1+
#60718
0%!
#70000
1!
0O
#70545
1%!
#72798
1p!
0q!
#73283
10!
#73330
0;!
#73336
1.!
0(!
#73338
1/!
#73453
1)!
#73500
0,!
#73553
1+!
#73756
00!
#73887
1*!
#74152
13!
#74260
1&!
#74796
1(!
#74915
0)!
#74953
0-!
#75351
0*!
#75491
1'!
#75544
1T!
#75707
14!
#77089
0V
0.
#77558
1y!
#77826
1W
1-
#78049
19!
#78153
1$!
1*
#78201
05!
#78278
1=!
#78733
1>!
#80000
0!
1O
#80718
0%!
#81905
1a
16
#90000
1!
0O
#90545
1%!
#92798
1q!
#93205
10!
#93478
0+!
#94087
03!
#94189
0&!
#94245
0<!
#94708
0(!
#94760
11!
#94850
1)!
#95284
1*!
#95472
0'!
#95540
0T!
#95695
04!
#96623
1^!
#97081
1V
1.
#97350
0E!
#97360
1:!
#98067
0$!
0*
#98600
0#!
0+
#100000
0!
1O
#100718
0%!
#101228
1i
1F
#110000
1!
0O
#110545
1%!
#112798
0p!
1o!
0q!
#113273
00!
#113438
1(!
#113544
1,!
#113591
16!
#114173
09!
#114260
1&!
#114786
0(!
#114865
01!
#114951
1-!
#115491
1'!
#116822
1f!
0a!
#117089
0V
0.
#117156
1X
1,
#117400
0F!
#117691
17!
#117813
19!
#117841
0W
0-
#118237
1I!
#118238
1J!
#118508
0K!
#118737
1V!
#118739
1U!
#120000
0!
1O
#120718
0%!
#121402
1q
1r
1>
1=
#121669
0v
09
#130000
1!
0O
#130545
1%!
#132798
1q!
#133205
10!
#133455
0,!
#134189
0&!
#134718
1(!
#134760
11!
#134908
0-!
#135472
0'!
#136623
1]!
#137081
1V
1.
#137600
0:!
#140000
0!
1O
#140718
0%!
#141238
1j
1E
#150000
1!
0O
#150545
1%!
#152798
1p!
0q!
#153273
00!
#153334
0.!
#153336
0(!
#153457
0)!
#153529
06!
#153544
1,!
#153893
0*!
#154117
07!
#154260
1&!
#154796
1(!
#154865
01!
#154925
1)!
#154951
1-!
#155247
1;!
#155359
1*!
#155491
1'!
#155830
1<!
#156822
0f!
#157089
0V
0.
#157826
1W
1-
#158323
0I!
#158324
0J!
#158819
0V!
#158821
0U!
#160000
0!
1O
#160230
1#!
1+
#160718
0%!
#161361
0q
0r
0>
0=
#170000
1!
0O
#170545
1%!
#172798
1q!
#173406
12!
#173455
0,!
#173730
13!
#174189
0&!
#174708
0(!
#174840
0)!
#174908
0-!
#175178
0;!
#175208
1H!
#175276
0*!
#175285
14!
#175472
0'!
#177081
1V
1.
#177136
0y!
1x!
#177512
17!
#177701
09!
#177729
0?!
#177731
1$!
1*
#177782
0>!
#177805
0=!
#177842
15!
#177863
1?!
#178260
1>!
#180000
0!
1O
#180718
0%!
#181241
1b
15
#181439
0a
06
#190000
1!
0O
#190545
1%!
#192798
0p!
0o!
0q!
#193295
02!
#193427
1;!
#193435
0/!
#193438
1(!
#193633
03!
#193881
10!
#194260
1&!
#194786
0(!
#195124
0H!
#195241
04!
#195260
0;!
#195436
11!
#195491
1'!
#195865
0<!
#197089
0V
0.
#197139
0X
0,
#197299
0^!
#197613
0$!
0*
#197841
0W
0-
#200000
0!
1O
#200220
0#!
0+
#200718
0%!
#201849
0i
0F
#210000
1!
0O
#210545
1%!
#212798
1q!
#213195
00!
#213461
1,!
#214189
0&!
#214718
1(!
#214787
01!
#214868
1-!
#215165
1;!
#215472
0'!
#215748
1<!
#217081
1V
1.
#220000
0!
1O
#220148
1#!
1+
#220718
0%!
#230000
1!
0O
#230545
1%!
#232798
1p!
0q!
#233283
10!
#233330
0;!
#233336
1.!
0(!
#233338
1/!
#233453
1)!
#233500
0,!
#233553
1+!
#233756
00!
#233887
1*!
#234152
13!
#234260
1&!
#234636
0i!
#234796
1(!
#234915
0)!
#234953
0-!
#235351
0*!
#235371
0.!
#235491
1'!
#235544
1T!
#235707
14!
#237089
0V
0.
#237558
1y!
#237826
1W
1-
#238049
19!
#238153
1$!
1*
#238201
05!
#238278
1=!
#238336
0?!
#238715
0>!
#238775
0~
0I
#238791
1@!
#240000
0!
1O
#240718
0%!
#241905
1a
16
#250000
1!
0O
#250545
1%!
#252798
1q!
#253478
0+!
#254087
03!
#254189
0&!
#254245
0<!
#254432
1G!
#254708
0(!
#254850
1)!
#255284
1*!
#255405
0q!
0p!
#255472
0'!
#255540
0T!
#255695
04!
#256034
1;!
#256042
0/!
#256045
1(!
#256046
0G!
#256173
0)!
#256488
10!
#256609
0*!
#256617
1<!
#256867
1&!
#257393
0(!
#257867
0;!
#258043
11!
#258067
0$!
0*
#258098
1'!
#258472
0<!
#259906
1^!
#260000
0!
1O
#260448
0W
0-
#260718
0%!
#262827
0#!
0+
#264511
1i
1F
#270000
1!
0O
#270545
1%!
#272798
1q!
#273195
00!
#273461
1,!
#274189
0&!
#274718
1(!
#274787
01!
#274868
1-!
#275165
1;!
#275472
0'!
#275748
1<!
#277081
1V
1.
#280000
0!
1O
#280148
1#!
1+
#280718
0%!
#290000
1!
0O
#290545
1%!
#292798
1p!
0q!
#293283
10!
#293330
0;!
#293336
0(!
#293338
1/!
#293341
1G!
#293453
1)!
#293500
0,!
#293553
1+!
#293756
00!
#293887
1*!
#294152
13!
#294260
1&!
#294314
0p!
#294488
0G!
#294944
0+!
#294951
0/!
#294953
0-!
#295082
0)!
#295397
10!
#295491
1'!
#295518
0*!
#295553
03!
#295711
0<!
#296952
11!
#297089
0V
0.
#300000
0!
1O
#300066
0#!
0+
#300718
0%!
#310000
1!
0O
#310545
1%!
#312798
1q!
#313195
00!
#313461
1,!
#314189
0&!
#314718
1(!
#314787
01!
#314868
1-!
#315165
1;!
#315472
0'!
#315748
1<!
#317081
1V
1.
#320000
0!
1O
#320148
1#!
1+
#320718
0%!
#330000
1!
0O
#330545
1%!
#332798
1p!
0q!
#333283
10!
#333330
0;!
#333336
0(!
#333338
1/!
#333341
1G!
#333453
1)!
#333500
0,!
#333553
1+!
#333756
00!
#333887
1*!
#334152
13!
#334260
1&!
#334314
0p!
#334488
0G!
#334944
0+!
#334951
0/!
#334953
0-!
#335082
0)!
#335397
10!
#335491
1'!
#335518
0*!
#335553
03!
#335711
0<!
#336952
11!
#337089
0V
0.
#340000
0!
1O
#340066
0#!
0+
#340718
0%!
#350000
1!
0O
#350545
1%!
#352798
1q!
#353195
00!
#353461
1,!
#354189
0&!
#354718
1(!
#354787
01!
#354868
1-!
#355165
1;!
#355472
0'!
#355748
1<!
#357081
1V
1.
#360000
0!
1O
#360148
1#!
1+
#360718
0%!
#370000
1!
0O
#370545
1%!
#372798
1p!
0q!
#373283
10!
#373330
0;!
#373336
0(!
#373338
1/!
#373341
1G!
#373453
1)!
#373500
0,!
#373553
1+!
#373756
00!
#373887
1*!
#374152
13!
#374260
1&!
#374314
0p!
#374488
0G!
#374944
0+!
#374951
0/!
#374953
0-!
#375082
0)!
#375397
10!
#375491
1'!
#375518
0*!
#375553
03!
#375711
0<!
#376952
11!
#377089
0V
0.
#380000
0!
1O
#380066
0#!
0+
#380718
0%!
#390000
1!
0O
#390545
1%!
#392798
1q!
#393195
00!
#393461
1,!
#394189
0&!
#394718
1(!
#394787
01!
#394868
1-!
#395165
1;!
#395472
0'!
#395748
1<!
#397081
1V
1.
#400000
0!
1O
#400148
1#!
1+
#400718
0%!
#410000
1!
0O
#410545
1%!
#412798
1p!
0q!
#413283
10!
#413330
0;!
#413336
0(!
#413338
1/!
#413341
1G!
#413453
1)!
#413500
0,!
#413553
1+!
#413756
00!
#413887
1*!
#414152
13!
#414260
1&!
#414314
0p!
#414488
0G!
#414944
0+!
#414951
0/!
#414953
0-!
#415082
0)!
#415397
10!
#415491
1'!
#415518
0*!
#415553
03!
#415711
0<!
#416952
11!
#417089
0V
0.
#420000
0!
1O
#420066
0#!
0+
#420718
0%!
#430000
1!
0O
#430545
1%!
#432798
1q!
#433195
00!
#433461
1,!
#434189
0&!
#434718
1(!
#434787
01!
#434868
1-!
#435165
1;!
#435472
0'!
#435748
1<!
#437081
1V
1.
#440000
0!
1O
#440148
1#!
1+
#440718
0%!
#450000
1!
0O
#450545
1%!
#452798
1p!
0q!
#453283
10!
#453330
0;!
#453336
0(!
#453338
1/!
#453341
1G!
#453453
1)!
#453500
0,!
#453553
1+!
#453756
00!
#453887
1*!
#454152
13!
#454260
1&!
#454314
0p!
#454488
0G!
#454944
0+!
#454951
0/!
#454953
0-!
#455082
0)!
#455397
10!
#455491
1'!
#455518
0*!
#455553
03!
#455711
0<!
#456952
11!
#457089
0V
0.
#460000
0!
1O
#460066
0#!
0+
#460718
0%!
#470000
1!
0O
#470545
1%!
#472798
1q!
#473195
00!
#473461
1,!
#474189
0&!
#474718
1(!
#474787
01!
#474868
1-!
#475165
1;!
#475472
0'!
#475748
1<!
#477081
1V
1.
#480000
0!
1O
#480148
1#!
1+
#480718
0%!
#490000
1!
0O
#490545
1%!
#492798
1p!
0q!
#493283
10!
#493330
0;!
#493336
0(!
#493338
1/!
#493341
1G!
#493453
1)!
#493500
0,!
#493553
1+!
#493756
00!
#493887
1*!
#494152
13!
#494260
1&!
#494314
0p!
#494488
0G!
#494944
0+!
#494951
0/!
#494953
0-!
#495082
0)!
#495397
10!
#495491
1'!
#495518
0*!
#495553
03!
#495711
0<!
#496952
11!
#497089
0V
0.
#500000
0!
1O
#500066
0#!
0+
#500718
0%!
#510000
1!
0O
#510545
1%!
#512798
1q!
#513195
00!
#513461
1,!
#514189
0&!
#514718
1(!
#514787
01!
#514868
1-!
#515165
1;!
#515472
0'!
#515748
1<!
#517081
1V
1.
#520000
0!
1O
#520148
1#!
1+
#520718
0%!
#530000
1!
0O
#530545
1%!
#532798
1p!
0q!
#533283
10!
#533330
0;!
#533336
0(!
#533338
1/!
#533341
1G!
#533453
1)!
#533500
0,!
#533553
1+!
#533756
00!
#533887
1*!
#534152
13!
#534260
1&!
#534314
0p!
#534488
0G!
#534944
0+!
#534951
0/!
#534953
0-!
#535082
0)!
#535397
10!
#535491
1'!
#535518
0*!
#535553
03!
#535711
0<!
#536952
11!
#537089
0V
0.
#540000
0!
1O
#540066
0#!
0+
#540718
0%!
#550000
1!
0O
#550545
1%!
#552798
1q!
#553195
00!
#553461
1,!
#554189
0&!
#554718
1(!
#554787
01!
#554868
1-!
#555165
1;!
#555472
0'!
#555748
1<!
#557081
1V
1.
#560000
0!
1O
#560148
1#!
1+
#560718
0%!
#570000
1!
0O
#570545
1%!
#572798
1p!
0q!
#573283
10!
#573330
0;!
#573336
0(!
#573338
1/!
#573341
1G!
#573453
1)!
#573500
0,!
#573553
1+!
#573756
00!
#573887
1*!
#574152
13!
#574260
1&!
#574314
0p!
#574488
0G!
#574944
0+!
#574951
0/!
#574953
0-!
#575082
0)!
#575397
10!
#575491
1'!
#575518
0*!
#575553
03!
#575711
0<!
#576952
11!
#577089
0V
0.
#580000
0!
1O
#580066
0#!
0+
#580718
0%!
#590000
1!
0O
#590545
1%!
#592798
1q!
#593195
00!
#593461
1,!
#594189
0&!
#594718
1(!
#594787
01!
#594868
1-!
#595165
1;!
#595472
0'!
#595748
1<!
#597081
1V
1.
#600000
0!
1O
#600148
1#!
1+
#600718
0%!
#610000
1!
0O
#610545
1%!
#612798
1p!
0q!
#613283
10!
#613330
0;!
#613336
0(!
#613338
1/!
#613341
1G!
#613453
1)!
#613500
0,!
#613553
1+!
#613756
00!
#613887
1*!
#614152
13!
#614260
1&!
#614314
0p!
#614488
0G!
#614944
0+!
#614951
0/!
#614953
0-!
#615082
0)!
#615397
10!
#615491
1'!
#615518
0*!
#615553
03!
#615711
0<!
#616952
11!
#617089
0V
0.
#620000
0!
1O
#620066
0#!
0+
#620718
0%!
#630000
1!
0O
#630545
1%!
#632798
1q!
#633195
00!
#633461
1,!
#634189
0&!
#634718
1(!
#634787
01!
#634868
1-!
#635165
1;!
#635472
0'!
#635748
1<!
#637081
1V
1.
#640000
0!
1O
#640148
1#!
1+
#640718
0%!
#650000
1!
0O
#650545
1%!
#652798
1p!
0q!
#653283
10!
#653330
0;!
#653336
0(!
#653338
1/!
#653341
1G!
#653453
1)!
#653500
0,!
#653553
1+!
#653756
00!
#653887
1*!
#654152
13!
#654260
1&!
#654314
0p!
#654488
0G!
#654944
0+!
#654951
0/!
#654953
0-!
#655082
0)!
#655397
10!
#655491
1'!
#655518
0*!
#655553
03!
#655711
0<!
#656952
11!
#657089
0V
0.
#660000
0!
1O
#660066
0#!
0+
#660718
0%!
#670000
1!
0O
#670545
1%!
#672798
1q!
#673195
00!
#673461
1,!
#674189
0&!
#674718
1(!
#674787
01!
#674868
1-!
#675165
1;!
#675472
0'!
#675748
1<!
#677081
1V
1.
#680000
0!
1O
#680148
1#!
1+
#680718
0%!
#690000
1!
0O
#690545
1%!
#692798
1p!
0q!
#693283
10!
#693330
0;!
#693336
0(!
#693338
1/!
#693341
1G!
#693453
1)!
#693500
0,!
#693553
1+!
#693756
00!
#693887
1*!
#694152
13!
#694260
1&!
#694314
0p!
#694488
0G!
#694944
0+!
#694951
0/!
#694953
0-!
#695082
0)!
#695397
10!
#695491
1'!
#695518
0*!
#695553
03!
#695711
0<!
#696952
11!
#697089
0V
0.
#700000
0!
1O
#700066
0#!
0+
#700718
0%!
#710000
1!
0O
#710545
1%!
#712798
1q!
#713195
00!
#713461
1,!
#714189
0&!
#714718
1(!
#714787
01!
#714868
1-!
#715165
1;!
#715472
0'!
#715748
1<!
#717081
1V
1.
#720000
0!
1O
#720148
1#!
1+
#720718
0%!
#730000
1!
0O
#730545
1%!
#732798
1p!
0q!
#733283
10!
#733330
0;!
#733336
0(!
#733338
1/!
#733341
1G!
#733453
1)!
#733500
0,!
#733553
1+!
#733756
00!
#733887
1*!
#734152
13!
#734260
1&!
#734314
0p!
#734488
0G!
#734944
0+!
#734951
0/!
#734953
0-!
#735082
0)!
#735397
10!
#735491
1'!
#735518
0*!
#735553
03!
#735711
0<!
#736952
11!
#737089
0V
0.
#740000
0!
1O
#740066
0#!
0+
#740718
0%!
#750000
1!
0O
#750545
1%!
#752798
1q!
#753195
00!
#753461
1,!
#754189
0&!
#754718
1(!
#754787
01!
#754868
1-!
#755165
1;!
#755472
0'!
#755748
1<!
#757081
1V
1.
#760000
0!
1O
#760148
1#!
1+
#760718
0%!
#770000
1!
0O
#770545
1%!
#772798
1p!
0q!
#773283
10!
#773330
0;!
#773336
0(!
#773338
1/!
#773341
1G!
#773453
1)!
#773500
0,!
#773553
1+!
#773756
00!
#773887
1*!
#774152
13!
#774260
1&!
#774314
0p!
#774488
0G!
#774944
0+!
#774951
0/!
#774953
0-!
#775082
0)!
#775397
10!
#775491
1'!
#775518
0*!
#775553
03!
#775711
0<!
#776952
11!
#777089
0V
0.
#780000
0!
1O
#780066
0#!
0+
#780718
0%!
#790000
1!
0O
#790545
1%!
#792798
1q!
#793195
00!
#793461
1,!
#794189
0&!
#794718
1(!
#794787
01!
#794868
1-!
#795165
1;!
#795472
0'!
#795748
1<!
#797081
1V
1.
#800000
0!
1O
#800148
1#!
1+
#800718
0%!
#810000
1!
0O
#810545
1%!
#812798
1p!
0q!
#813283
10!
#813330
0;!
#813336
0(!
#813338
1/!
#813341
1G!
#813453
1)!
#813500
0,!
#813553
1+!
#813756
00!
#813887
1*!
#814152
13!
#814260
1&!
#814314
0p!
#814488
0G!
#814944
0+!
#814951
0/!
#814953
0-!
#815082
0)!
#815397
10!
#815491
1'!
#815518
0*!
#815553
03!
#815711
0<!
#816952
11!
#817089
0V
0.
#820000
0!
1O
#820066
0#!
0+
#820718
0%!
#830000
1!
0O
#830545
1%!
#832798
1q!
#833195
00!
#833461
1,!
#834189
0&!
#834718
1(!
#834787
01!
#834868
1-!
#835165
1;!
#835472
0'!
#835748
1<!
#837081
1V
1.
#840000
0!
1O
#840148
1#!
1+
#840718
0%!
#850000
1!
0O
#850545
1%!
#852798
1p!
0q!
#853283
10!
#853330
0;!
#853336
0(!
#853338
1/!
#853341
1G!
#853453
1)!
#853500
0,!
#853553
1+!
#853756
00!
#853887
1*!
#854152
13!
#854260
1&!
#854314
0p!
#854488
0G!
#854944
0+!
#854951
0/!
#854953
0-!
#855082
0)!
#855397
10!
#855491
1'!
#855518
0*!
#855553
03!
#855711
0<!
#856952
11!
#857089
0V
0.
#860000
0!
1O
#860066
0#!
0+
#860718
0%!
#870000
1!
0O
#870545
1%!
#872798
1q!
#873195
00!
#873461
1,!
#874189
0&!
#874718
1(!
#874787
01!
#874868
1-!
#875165
1;!
#875472
0'!
#875748
1<!
#877081
1V
1.
#880000
0!
1O
#880148
1#!
1+
#880718
0%!
#890000
1!
0O
#890545
1%!
#892798
1p!
0q!
#893283
10!
#893330
0;!
#893336
0(!
#893338
1/!
#893341
1G!
#893453
1)!
#893500
0,!
#893553
1+!
#893756
00!
#893887
1*!
#894152
13!
#894260
1&!
#894314
0p!
#894488
0G!
#894944
0+!
#894951
0/!
#894953
0-!
#895082
0)!
#895397
10!
#895491
1'!
#895518
0*!
#895553
03!
#895711
0<!
#896952
11!
#897089
0V
0.
#900000
0!
1O
#900066
0#!
0+
#900718
0%!
#910000
1!
0O
#910545
1%!
#912798
1q!
#913195
00!
#913461
1,!
#914189
0&!
#914718
1(!
#914787
01!
#914868
1-!
#915165
1;!
#915472
0'!
#915748
1<!
