simulation/qsim/neander_top.msim.vcd
$comment
	File created using the following command:
		vcd file neander_top.msim.vcd -direction
$end
$date
	Fri Oct 13 18:09:36 2023
$end
$version
	ModelSim Version 10.5b
$end
$timescale
	1ps
$end

$scope module neander_top_vlg_vec_tst $end
$var reg 1 ! mclk $end
$var wire 1 " AC_out [7] $end
$var wire 1 # AC_out [6] $end
$var wire 1 $ AC_out [5] $end
$var wire 1 % AC_out [4] $end
$var wire 1 & AC_out [3] $end
$var wire 1 ' AC_out [2] $end
$var wire 1 ( AC_out [1] $end
$var wire 1 ) AC_out [0] $end
$var wire 1 * cargaPC $end
$var wire 1 + incPC $end
$var wire 1 , INSTR_time [2] $end
$var wire 1 - INSTR_time [1] $end
$var wire 1 . INSTR_time [0] $end
$var wire 1 / PC_out [7] $end
$var wire 1 0 PC_out [6] $end
$var wire 1 1 PC_out [5] $end
$var wire 1 2 PC_out [4] $end
$var wire 1 3 PC_out [3] $end
$var wire 1 4 PC_out [2] $end
$var wire 1 5 PC_out [1] $end
$var wire 1 6 PC_out [0] $end
$var wire 1 7 RDM_out [7] $end
$var wire 1 8 RDM_out [6] $end
$var wire 1 9 RDM_out [5] $end
$var wire 1 : RDM_out [4] $end
$var wire 1 ; RDM_out [3] $end
$var wire 1 < RDM_out [2] $end
$var wire 1 = RDM_out [1] $end
$var wire 1 > RDM_out [0] $end
$var wire 1 ? REM_out [7] $end
$var wire 1 @ REM_out [6] $end
$var wire 1 A REM_out [5] $end
$var wire 1 B REM_out [4] $end
$var wire 1 C REM_out [3] $end
$var wire 1 D REM_out [2] $end
$var wire 1 E REM_out [1] $end
$var wire 1 F REM_out [0] $end
$var wire 1 G RI_out [7] $end
$var wire 1 H RI_out [6] $end
$var wire 1 I RI_out [5] $end
$var wire 1 J RI_out [4] $end
$var wire 1 K RI_out [3] $end
$var wire 1 L RI_out [2] $end
$var wire 1 M RI_out [1] $end
$var wire 1 N RI_out [0] $end
$var wire 1 O sampler $end

$scope module i1 $end
$var wire 1 P gnd $end
$var wire 1 Q vcc $end
$var wire 1 R unknown $end
$var tri1 1 S devclrn $end
$var tri1 1 T devpor $end
$var tri1 1 U devoe $end
$var wire 1 V INSTR_time[0]~output_o $end
$var wire 1 W INSTR_time[1]~output_o $end
$var wire 1 X INSTR_time[2]~output_o $end
$var wire 1 Y AC_out[0]~output_o $end
$var wire 1 Z AC_out[1]~output_o $end
$var wire 1 [ AC_out[2]~output_o $end
$var wire 1 \ AC_out[3]~output_o $end
$var wire 1 ] AC_out[4]~output_o $end
$var wire 1 ^ AC_out[5]~output_o $end
$var wire 1 _ AC_out[6]~output_o $end
$var wire 1 ` AC_out[7]~output_o $end
$var wire 1 a PC_out[0]~output_o $end
$var wire 1 b PC_out[1]~output_o $end
$var wire 1 c PC_out[2]~output_o $end
$var wire 1 d PC_out[3]~output_o $end
$var wire 1 e PC_out[4]~output_o $end
$var wire 1 f PC_out[5]~output_o $end
$var wire 1 g PC_out[6]~output_o $end
$var wire 1 h PC_out[7]~output_o $end
$var wire 1 i REM_out[0]~output_o $end
$var wire 1 j REM_out[1]~output_o $end
$var wire 1 k REM_out[2]~output_o $end
$var wire 1 l REM_out[3]~output_o $end
$var wire 1 m REM_out[4]~output_o $end
$var wire 1 n REM_out[5]~output_o $end
$var wire 1 o REM_out[6]~output_o $end
$var wire 1 p REM_out[7]~output_o $end
$var wire 1 q RDM_out[0]~output_o $end
$var wire 1 r RDM_out[1]~output_o $end
$var wire 1 s RDM_out[2]~output_o $end
$var wire 1 t RDM_out[3]~output_o $end
$var wire 1 u RDM_out[4]~output_o $end
$var wire 1 v RDM_out[5]~output_o $end
$var wire 1 w RDM_out[6]~output_o $end
$var wire 1 x RDM_out[7]~output_o $end
$var wire 1 y RI_out[0]~output_o $end
$var wire 1 z RI_out[1]~output_o $end
$var wire 1 { RI_out[2]~output_o $end
$var wire 1 | RI_out[3]~output_o $end
$var wire 1 } RI_out[4]~output_o $end
$var wire 1 ~ RI_out[5]~output_o $end
$var wire 1 !! RI_out[6]~output_o $end
$var wire 1 "! RI_out[7]~output_o $end
$var wire 1 #! incPC~output_o $end
$var wire 1 $! cargaPC~output_o $end
$var wire 1 %! mclk~input_o $end
$var wire 1 &! TIMER|qs[0]~2_combout $end
$var wire 1 '! TIMER|qs[1]~0_combout $end
$var wire 1 (! TIMER|qs[2]~1_combout $end
$var wire 1 )! TIMER_DECODER|Mux5~combout $end
$var wire 1 *! CU|sel~0_combout $end
$var wire 1 +! CU|carga_PC~2_combout $end
$var wire 1 ,! CU|carga_PC~combout $end
$var wire 1 -! CU|carga_PC~clkctrl_outclk $end
$var wire 1 .! REG_PC|count[0]~8_combout $end
$var wire 1 /! TIMER_DECODER|Mux6~0_combout $end
$var wire 1 0! CU|inc_PC~0_combout $end
$var wire 1 1! CU|inc_PC~combout $end
$var wire 1 2! REG_PC|count[0]~9 $end
$var wire 1 3! REG_PC|count[1]~10_combout $end
$var wire 1 4! MEM|Mux5~0_combout $end
$var wire 1 5! REG_RDM|q[1]~feeder_combout $end
$var wire 1 6! MULTIPLEX|y[1]~1_combout $end
$var wire 1 7! MEM|Mux6~0_combout $end
$var wire 1 8! REG_RDM|q[0]~feeder_combout $end
$var wire 1 9! MULTIPLEX|y[0]~0_combout $end
$var wire 1 :! MEM|Mux4~0_combout $end
$var wire 1 ;! REG_RDM|q[2]~feeder_combout $end
$var wire 1 <! REG_PC|count[1]~11 $end
$var wire 1 =! REG_PC|count[2]~12_combout $end
$var wire 1 >! REG_PC|count[2]~13 $end
$var wire 1 ?! REG_PC|count[3]~14_combout $end
$var wire 1 @! MULTIPLEX|y[3]~3_combout $end
$var wire 1 A! MEM|Mux1~0_combout $end
$var wire 1 B! CU|carga_REM~0_combout $end
$var wire 1 C! CU|carga_REM~combout $end
$var wire 1 D! CU|carga_REM~clkctrl_outclk $end
$var wire 1 E! MULTIPLEX|y[2]~2_combout $end
$var wire 1 F! MEM|Mux2~0_combout $end
$var wire 1 G! REG_RDM|q[4]~feeder_combout $end
$var wire 1 H! REG_RI|q[4]~feeder_combout $end
$var wire 1 I! CU|carga_RDM~0_combout $end
$var wire 1 J! CU|inc_PC~1_combout $end
$var wire 1 K! CU|carga_RDM~combout $end
$var wire 1 L! CU|carga_RDM~clkctrl_outclk $end
$var wire 1 M! MEM|Mux0~0_combout $end
$var wire 1 N! CU|goto_t0~0_combout $end
$var wire 1 O! CU|goto_t0~1_combout $end
$var wire 1 P! CU|carga_AC~2_combout $end
$var wire 1 Q! CU|carga_AC~combout $end
$var wire 1 R! CU|carga_AC~clkctrl_outclk $end
$var wire 1 S! REG_AC|q[0]~8_combout $end
$var wire 1 T! CU|s[2]~1_combout $end
$var wire 1 U! CU|s[2]~0_combout $end
$var wire 1 V! ULA|Mux7~0_combout $end
$var wire 1 W! CU|s[1]~2_combout $end
$var wire 1 X! CU|s[1]~3_combout $end
$var wire 1 Y! REG_AC|q[0]~9 $end
$var wire 1 Z! REG_AC|q[1]~10_combout $end
$var wire 1 [! ULA|Mux6~0_combout $end
$var wire 1 \! REG_AC|q[1]~11 $end
$var wire 1 ]! REG_AC|q[2]~12_combout $end
$var wire 1 ^! ULA|Mux5~0_combout $end
$var wire 1 _! REG_AC|q[2]~13 $end
$var wire 1 `! REG_AC|q[3]~14_combout $end
$var wire 1 a! ULA|Mux4~0_combout $end
$var wire 1 b! REG_AC|q[3]~15 $end
$var wire 1 c! REG_AC|q[4]~16_combout $end
$var wire 1 d! ULA|Mux3~0_combout $end
$var wire 1 e! REG_AC|q[4]~17 $end
$var wire 1 f! REG_AC|q[5]~18_combout $end
$var wire 1 g! ULA|Mux2~0_combout $end
$var wire 1 h! REG_AC|q[5]~19 $end
$var wire 1 i! REG_AC|q[6]~20_combout $end
$var wire 1 j! ULA|Mux1~0_combout $end
$var wire 1 k! REG_AC|q[6]~21 $end
$var wire 1 l! REG_AC|q[7]~22_combout $end
$var wire 1 m! ULA|Mux0~2_combout $end
$var wire 1 n! REG_PC|count[3]~15 $end
$var wire 1 o! REG_PC|count[4]~16_combout $end
$var wire 1 p! REG_PC|count[4]~17 $end
$var wire 1 q! REG_PC|count[5]~18_combout $end
$var wire 1 r! REG_PC|count[5]~19 $end
$var wire 1 s! REG_PC|count[6]~20_combout $end
$var wire 1 t! REG_PC|count[6]~21 $end
$var wire 1 u! REG_PC|count[7]~22_combout $end
$var wire 1 v! ~GND~combout $end
$var wire 1 w! TIMER_DECODER|Mux5~clkctrl_outclk $end
$var wire 1 x! REG_RI|q[0]~feeder_combout $end
$var wire 1 y! REG_RI|q[1]~feeder_combout $end
$var wire 1 z! REG_RI|q[2]~feeder_combout $end
$var wire 1 {! REG_RI|q[3]~feeder_combout $end
$var wire 1 |! TIMER|qs [2] $end
$var wire 1 }! TIMER|qs [1] $end
$var wire 1 ~! TIMER|qs [0] $end
$var wire 1 !" REG_PC|count [7] $end
$var wire 1 "" REG_PC|count [6] $end
$var wire 1 #" REG_PC|count [5] $end
$var wire 1 $" REG_PC|count [4] $end
$var wire 1 %" REG_PC|count [3] $end
$var wire 1 &" REG_PC|count [2] $end
$var wire 1 '" REG_PC|count [1] $end
$var wire 1 (" REG_PC|count [0] $end
$var wire 1 )" REG_RDM|q [7] $end
$var wire 1 *" REG_RDM|q [6] $end
$var wire 1 +" REG_RDM|q [5] $end
$var wire 1 ," REG_RDM|q [4] $end
$var wire 1 -" REG_RDM|q [3] $end
$var wire 1 ." REG_RDM|q [2] $end
$var wire 1 /" REG_RDM|q [1] $end
$var wire 1 0" REG_RDM|q [0] $end
$var wire 1 1" REG_AC|q [7] $end
$var wire 1 2" REG_AC|q [6] $end
$var wire 1 3" REG_AC|q [5] $end
$var wire 1 4" REG_AC|q [4] $end
$var wire 1 5" REG_AC|q [3] $end
$var wire 1 6" REG_AC|q [2] $end
$var wire 1 7" REG_AC|q [1] $end
$var wire 1 8" REG_AC|q [0] $end
$var wire 1 9" REG_RI|q [7] $end
$var wire 1 :" REG_RI|q [6] $end
$var wire 1 ;" REG_RI|q [5] $end
$var wire 1 <" REG_RI|q [4] $end
$var wire 1 =" REG_RI|q [3] $end
$var wire 1 >" REG_RI|q [2] $end
$var wire 1 ?" REG_RI|q [1] $end
$var wire 1 @" REG_RI|q [0] $end
$var wire 1 A" REG_REM|q [7] $end
$var wire 1 B" REG_REM|q [6] $end
$var wire 1 C" REG_REM|q [5] $end
$var wire 1 D" REG_REM|q [4] $end
$var wire 1 E" REG_REM|q [3] $end
$var wire 1 F" REG_REM|q [2] $end
$var wire 1 G" REG_REM|q [1] $end
$var wire 1 H" REG_REM|q [0] $end
$upscope $end
$upscope $end
$enddefinitions $end
#0
$dumpvars
0!
x)
x(
x'
x&
x%
x$
x#
x"
x*
x+
x.
x-
x,
x6
x5
x4
x3
x2
x1
x0
x/
x>
x=
x<
x;
x:
x9
x8
07
xF
xE
xD
xC
0B
0A
0@
0?
xN
xM
xL
xK
xJ
xI
xH
0G
xO
0P
1Q
xR
1S
1T
1U
xV
xW
xX
xY
xZ
x[
x\
x]
x^
x_
x`
xa
xb
xc
xd
xe
xf
xg
xh
xi
xj
xk
xl
0m
0n
0o
0p
xq
xr
xs
xt
xu
xv
xw
0x
xy
xz
x{
x|
x}
x~
x!!
0"!
x#!
x$!
0%!
x&!
x'!
x(!
x)!
x*!
x+!
x,!
x-!
x.!
x/!
x0!
x1!
x2!
x3!
x4!
x5!
x6!
x7!
x8!
x9!
x:!
x;!
x<!
x=!
x>!
x?!
x@!
xA!
xB!
xC!
xD!
xE!
xF!
xG!
xH!
xI!
0J!
xK!
xL!
xM!
xN!
xO!
xP!
xQ!
xR!
xS!
xT!
xU!
xV!
xW!
xX!
xY!
xZ!
x[!
x\!
x]!
x^!
x_!
x`!
xa!
xb!
xc!
xd!
xe!
xf!
xg!
xh!
xi!
xj!
xk!
xl!
xm!
xn!
xo!
xp!
xq!
xr!
xs!
xt!
xu!
0v!
xw!
xx!
xy!
xz!
x{!
0~!
0}!
0|!
0("
0'"
0&"
0%"
0$"
0#"
0""
0!"
00"
0/"
0."
z-"
0,"
0+"
0*"
z)"
08"
07"
06"
05"
04"
03"
02"
01"
0@"
0?"
0>"
0="
0<"
0;"
0:"
z9"
0H"
0G"
0F"
0E"
zD"
zC"
zB"
zA"
$end
#478
0Q!
#506
0(!
#539
0H!
#565
00!
#659
0t!
#660
0p!
0>!
#669
02!
#682
0)!
#689
0/!
#690
0Y!
#697
0*!
#706
1.!
#737
0N!
#744
0z!
#757
0{!
#758
0M!
#766
0+!
#768
0B!
0P!
#777
0W!
#784
1r!
1n!
#799
1<!
#812
04!
0:!
#818
0T!
#822
1A!
#833
0_!
#836
0e!
#839
0S!
#859
06!
#881
0F!
#883
07!
#897
1X!
#907
0U!
#930
0@!
#953
1\!
#961
1b!
#999
0y!
#1014
0k!
#1024
0E!
#1045
1I!
#1056
0O!
#1079
1C!
#1090
09!
#1096
0u!
#1097
0?!
0q!
#1106
03!
#1127
0Z!
#1129
05!
#1131
0;!
#1134
0x!
#1139
1h!
#1185
0K!
#1200
0G!
#1221
0o!
0s!
#1236
0=!
#1270
0`!
#1273
0f!
#1303
0j!
#1327
01!
#1359
08!
#1390
0]!
#1392
0R!
#1398
0c!
#1451
0l!
#1494
0,!
#1509
0m!
#1516
0V!
0^!
#1520
0[!
0d!
#1521
0a!
#1545
0g!
#1553
1&!
#1576
0i!
#1713
0w!
#1885
0L!
#2035
1D!
#2223
0-!
#2651
0'!
#3086
0]
0%
#3111
0!!
0H
#3170
0y
0N
#3293
0^
0$
#3295
0w
08
#3297
0u
0:
#3300
0}
0J
#3301
0z
0M
#3309
0i
0F
#3498
0Y
0)
#3503
0q
0>
#3508
0_
0#
#3537
0l
0C
#3554
0W
0-
#3576
0c
04
#3637
0b
05
#3783
0[
0'
#3786
0~
0I
#3898
0v
09
#3903
0a
06
#3961
0X
0,
#4052
0f
01
#4121
0e
02
#4124
0j
0E
#4262
0|
0K
#4323
0s
0t
0<
0;
#4484
0{
0L
#4502
0r
0=
#4533
0k
0D
#4713
0$!
0*
#4816
0#!
0+
#5134
0V
0.
#5217
0\
0&
#5709
0Z
0(
#5725
0d
03
#5735
0h
0/
#5881
0`
0"
#6004
0g
00
#10000
1!
0O
#10545
1%!
#13236
1~!
#13873
1/!
#13936
0C!
#14227
0I!
#14311
11!
#14359
1K!
#14721
0&!
#14863
0D!
#15077
1L!
#15787
1'!
#16925
1+"
#17547
1g!
#17927
1#!
1+
#17942
1f!
#18371
1V
1.
#20000
0!
1O
#20718
0%!
#20925
1v
19
#30000
1!
0O
#30545
1%!
#33236
1}!
0~!
#33650
0'!
#33660
1(!
#33885
0K!
#33925
0/!
#33998
01!
#34082
1)!
#34281
1I!
#34585
0L!
#34682
11!
#34789
1&!
#34857
1,!
#35130
1w!
#35198
1;"
#35605
1-!
#35861
1B!
#35889
1'!
#35928
1W!
#35977
0(!
#36881
1W
1-
#37452
1("
#37827
19!
#38095
0.!
#38172
12!
#38199
1$!
1*
#38370
0V
0.
#38627
13!
#39074
1~
1I
#40000
0!
1O
#40718
0%!
#41456
1a
16
#50000
1!
0O
#50545
1%!
#53236
1~!
#53873
1/!
#53946
1C!
#54032
0)!
#54058
1P!
#54059
1+!
#54227
0I!
#54677
01!
#54721
0&!
#54844
0,!
#54902
1D!
#55063
0w!
#55261
1T!
#55573
0-!
#55785
0'!
#55890
1(!
#56749
1H"
#57496
0A!
#57506
14!
1:!
#57809
15!
#57811
1;!
#58063
0$!
0*
#58166
0#!
0+
#58371
1V
1.
#60000
0!
1O
#60141
1i
1F
#60718
0%!
#70000
1!
0O
#70545
1%!
#73236
0}!
1|!
0~!
#73589
1J!
#73736
1,!
#73751
0/!
#73752
1'!
#73761
10!
#73832
1Q!
#73994
1*!
#73997
1K!
#74002
0+!
#74004
0P!
#74067
0T!
#74247
0K!
#74271
0C!
#74281
1I!
#74450
0Q!
#74484
1-!
#74662
0,!
#74733
09!
#74789
1&!
#74970
1K!
#75198
0D!
#75324
1T!
#75391
0-!
#75688
1L!
#75887
0'!
#76790
0W
0-
#77295
1X
1,
#77536
1/"
1."
0+"
#78040
1E!
#78235
1z!
#78247
0g!
1{!
#78321
1a!
#78325
1]!
#78328
1^!
#78330
1[!
#78346
16!
#78349
1Z!
#78350
1`!
#78370
0V
0.
#78390
1@!
#78487
1y!
#78615
0f!
#80000
0!
1O
#80718
0%!
#81434
0v
09
#81941
1s
1t
1<
1;
#82065
1r
1=
#90000
1!
0O
#90545
1%!
#93236
1~!
#93589
1N!
#93946
1C!
#94227
0I!
#94721
0&!
#94902
1D!
#94937
0K!
#95273
0T!
#95637
0L!
#95787
1'!
#96748
1F"
#96749
1G"
0H"
1E"
#97383
0:!
#97571
17!
#97702
0;!
#98037
18!
#98371
1V
1.
#100000
0!
1O
#100058
0i
0F
#100373
1l
1C
#100718
0%!
#100941
1j
1E
#101296
1k
1D
#110000
1!
0O
#110545
1%!
#113236
1}!
0~!
#113605
0N!
#113650
0'!
0(!
#113886
0*!
#113929
0C!
#113997
11!
#114281
1I!
#114645
19!
#114650
0@!
#114679
06!
#114789
1&!
#114856
0D!
#114970
1K!
#115060
0E!
#115688
1L!
#115889
1'!
#115978
1(!
#116881
1W
1-
#117536
10"
0."
#117613
1#!
1+
#118174
1S!
#118186
1V!
#118280
0z!
#118293
0{!
#118370
0V
0.
#118400
0]!
#118416
0a!
#118424
0^!
#118431
0`!
#118643
1x!
#120000
0!
1O
#120718
0%!
#121131
1q
1>
#121859
0s
0t
0<
0;
#130000
1!
0O
#130545
1%!
#133236
1~!
#134058
1P!
#134059
1+!
#134227
0I!
#134475
1Q!
#134702
1,!
#134721
0&!
#134937
0K!
#135413
1R!
#135450
1-!
#135637
0L!
#135785
0'!
#135889
0(!
#137261
18"
17"
#137297
0("
1'"
#137732
09!
#137890
0<!
#137930
16!
#137945
03!
#137966
02!
#137999
0\!
#138003
1.!
#138024
1<!
#138034
0S!
#138044
1$!
1*
#138061
0Z!
#138103
1Y!
#138371
1V
1.
#138421
13!
#138454
1]!
#138558
1Z!
#140000
0!
1O
#140718
0%!
#140844
1Y
1)
#141021
1b
15
#141200
0a
06
#142985
1Z
1(
#150000
1!
0O
#150545
1%!
#153236
0}!
0|!
0~!
#153605
0J!
#153752
1'!
#153801
00!
#153818
0,!
#153918
0Q!
#154002
0+!
#154004
0P!
#154053
01!
#154281
1I!
#154315
1C!
#154547
0-!
#154789
1&!
#154832
0R!
#155271
1D!
#155887
0'!
#156790
0W
0-
#157037
0$!
0*
#157117
0F"
#157118
0E"
#157197
0X
0,
#157542
0#!
0+
#157876
04!
#157877
07!
#158140
1F!
#158184
1A!
#158193
05!
#158353
08!
#158370
0V
0.
#158444
1G!
#160000
0!
1O
#160655
0l
0C
#160718
0%!
#161650
0k
0D
#170000
1!
0O
#170545
1%!
#173236
1~!
#173589
1N!
#173873
1/!
#173936
0C!
#174227
0I!
#174311
11!
#174359
1K!
#174721
0&!
#174863
0D!
#175077
1L!
#175787
1'!
#176925
0/"
00"
1+"
1,"
#177425
1H!
#177547
1g!
#177615
0Y!
#177641
1S!
#177667
0V!
#177673
1\!
#177730
1c!
#177731
1d!
#177807
0[!
#177924
0y!
#177927
1#!
1+
#177942
1f!
#178059
0x!
#178110
0]!
#178371
1V
1.
#180000
0!
1O
#180309
1u
1:
#180428
0q
0>
#180718
0%!
#180925
1v
19
#181427
0r
0=
#190000
1!
0O
#190545
1%!
#193236
1}!
0~!
#193605
0N!
#193650
0'!
#193660
1(!
#193885
0K!
#193925
0/!
#193959
1T!
#193998
01!
#194082
1)!
#194281
1I!
#194585
0L!
#194682
11!
#194789
1&!
#194857
1,!
#195130
1w!
#195198
1<"
#195336
0T!
#195605
1-!
#195852
1N!
#195889
1'!
#195977
0(!
#196881
1W
1-
#197452
1("
#197827
19!
#198095
0.!
#198172
12!
#198199
1$!
1*
#198230
0<!
#198370
0V
0.
#198586
1}
1J
#198609
03!
#198685
1=!
#200000
0!
1O
#200718
0%!
#201456
1a
16
#210000
1!
0O
#210545
1%!
#213236
1~!
#213605
0N!
#213873
1/!
#213946
1C!
#214032
0)!
#214058
1P!
#214059
1+!
#214227
0I!
#214677
01!
#214721
0&!
#214844
0,!
#214902
1D!
#215063
0w!
#215261
1T!
#215573
0-!
#215785
0'!
#215890
1(!
#216749
1H"
#217496
0A!
0F!
#217505
17!
#217506
14!
1:!
#217809
15!
#217811
1;!
#217815
0G!
#217971
18!
#218063
0$!
0*
#218166
0#!
0+
#218371
1V
1.
#220000
0!
1O
#220141
1i
1F
#220718
0%!
#230000
1!
0O
#230545
1%!
#233236
0}!
1|!
0~!
#233589
1N!
1J!
#233736
1,!
#233742
0N!
#233751
0/!
#233752
1'!
#233761
10!
#233832
1Q!
#233994
1*!
#233997
1K!
#234002
0+!
#234004
0P!
#234067
0T!
#234247
0K!
#234271
0C!
#234281
1I!
#234450
0Q!
#234484
1-!
#234662
0,!
#234733
09!
#234762
06!
#234789
1&!
#234970
1K!
#235198
0D!
#235324
1T!
#235391
0-!
#235688
1L!
#235887
0'!
#236790
0W
0-
#237295
1X
1,
#237536
1/"
10"
1."
0+"
0,"
#238040
1E!
#238075
0H!
#238186
1V!
#238199
0S!
#238235
1z!
#238247
0g!
1{!
#238276
1Y!
#238293
0\!
#238321
1a!
#238328
1^!
#238330
1[!
#238346
16!
#238350
1`!
#238351
1_!
#238370
0V
0.
#238390
1@!
#238403
0c!
#238409
0b!
#238424
0d!
#238487
1y!
#238595
19!
#238615
0f!
#238643
1x!
#238788
0`!
#238864
1c!
#240000
0!
1O
#240718
0%!
#240833
0u
0:
#241131
1q
1>
#241434
0v
09
#241941
1s
1t
1<
1;
#242065
1r
1=
#250000
1!
0O
#250545
1%!
#253236
1~!
#253946
1C!
#254227
0I!
#254721
0&!
#254902
1D!
#254937
0K!
#255273
0T!
#255637
0L!
#255787
1'!
#256748
1F"
#256749
1E"
#257383
0:!
#257412
07!
#257702
0;!
#257888
08!
#258371
1V
1.
#260000
0!
1O
#260373
1l
1C
#260718
0%!
#261296
1k
1D
#270000
1!
0O
#270545
1%!
#273236
1}!
0~!
#273650
0'!
0(!
#273661
1N!
#273886
0*!
#273929
0C!
#273975
0X!
#273997
11!
#274281
1I!
#274650
0@!
#274789
1&!
#274856
0D!
#274970
1K!
#275060
0E!
#275688
1L!
#275889
1'!
#275978
1(!
#276881
1W
1-
#277536
00"
0."
#277613
1#!
1+
#278226
0Y!
#278252
1S!
#278278
0V!
#278280
0z!
#278293
0{!
#278369
0_!
#278370
0V
0.
#278406
1]!
#278416
0a!
#278424
0^!
#278497
1b!
#278663
0Z!
#278670
0x!
#278934
0c!
#280000
0!
1O
#280718
0%!
#281039
0q
0>
#281859
0s
0t
0<
0;
#290000
1!
0O
#290545
1%!
#293236
1~!
#293605
0N!
#294058
1P!
#294059
1+!
#294227
0I!
#294475
1Q!
#294702
1,!
#294721
0&!
#294937
0K!
#295413
1R!
#295450
1-!
#295637
0L!
#295785
0'!
#295889
0(!
#297261
07"
16"
#297297
0("
0'"
1&"
#297732
09!
#297890
0]!
#297934
0=!
#297966
02!
#297977
1_!
#298003
1.!
06!
#298011
1>!
#298044
1$!
1*
#298096
1<!
#298116
1Z!
#298154
0>!
#298181
1\!
#298239
0_!
#298261
1E!
#298371
1V
1.
#298551
1=!
#298636
1]!
#300000
0!
1O
#300718
0%!
#300934
0b
05
#300964
1c
14
#301132
1[
1'
#301200
0a
06
#302970
0Z
0(
#310000
1!
0O
#310545
1%!
#313236
0}!
0|!
0~!
#313589
1N!
#313605
0J!
#313742
0N!
#313752
1'!
#313801
00!
#313818
0,!
#313918
0Q!
#314002
0+!
#314004
0P!
#314034
1X!
#314053
01!
#314281
1I!
#314315
1C!
#314547
0-!
#314789
1&!
#314832
0R!
#315271
1D!
#315887
0'!
#316790
0W
0-
#317037
0$!
0*
#317118
0G"
0H"
0E"
#317197
0X
0,
#317542
0#!
0+
#317940
1A!
#318010
04!
#318166
1M!
#318327
05!
#318370
0V
0.
#320000
0!
1O
#320427
0i
0F
#320655
0l
0C
#320718
0%!
#321242
0j
0E
#330000
1!
0O
#330545
1%!
#333236
1~!
#333873
1/!
#333936
0C!
#334227
0I!
#334311
11!
#334359
1K!
#334721
0&!
#334863
0D!
#335077
1L!
#335787
1'!
#336925
0/"
1+"
1*"
#337547
1g!
#337552
1j!
#337807
0[!
#337818
0Z!
#337918
1i!
#337924
0y!
#337927
1#!
1+
#337942
1f!
#338371
1V
1.
#340000
0!
1O
#340300
1w
18
#340718
0%!
#340925
1v
19
#341427
0r
0=
#350000
1!
0O
#350545
1%!
#353236
1}!
0~!
#353650
0'!
#353660
1(!
#353661
1N!
#353885
0K!
#353925
0/!
#353959
1T!
#353998
01!
#354082
1)!
#354281
1I!
#354585
0L!
#354682
11!
#354789
1&!
#354857
1,!
#355130
1w!
#355198
0<"
1:"
#355336
0T!
#355581
0I!
#355605
1-!
#355820
1U!
#355889
1'!
#355935
0N!
#355938
0B!
#355977
0(!
#355995
0W!
#356881
1W
1-
#357452
1("
#357827
19!
#358095
0.!
#358172
12!
#358199
1$!
1*
#358370
0V
0.
#358380
1!!
1H
#358498
0}
0J
#358627
13!
#360000
0!
1O
#360718
0%!
#361456
1a
16
#370000
1!
0O
#370545
1%!
#373236
1~!
#373873
1/!
#374032
0)!
#374677
01!
#374721
0&!
#374844
0,!
#375063
0w!
#375261
1T!
#375573
0-!
#375785
0'!
#375890
1(!
#375920
1m!
#375922
1[!
1d!
#375923
1a!
#378063
0$!
0*
#378166
0#!
0+
#378371
1V
1.
#380000
0!
1O
#380718
0%!
#390000
1!
0O
#390545
1%!
#393236
0}!
1|!
0~!
#393589
1J!
#393751
0/!
#393752
1'!
#393997
1K!
#394067
0T!
#394108
1P!
#394247
0K!
#394525
1Q!
#394763
0m!
#394769
0[!
0d!
#394770
0a!
#394789
1&!
#395324
1T!
#395463
1R!
#395887
0'!
#395983
1m!
#395985
1[!
1d!
#395986
1a!
#396790
0W
0-
#397295
1X
1,
#397311
08"
17"
06"
15"
14"
13"
12"
11"
#397814
0m!
#397820
0g!
#397917
0h!
#397940
1l!
#397979
0f!
#397991
0j!
#397996
1^!
#398019
0]!
#398025
1k!
#398063
0d!
#398066
0[!
#398067
0a!
#398089
1c!
#398107
1`!
#398108
1V!
#398112
1Z!
#398150
0S!
#398370
0V
0.
#398462
0l!
#400000
0!
1O
#400482
1]
1%
#400687
1^
1$
#400718
0%!
#400809
0Y
0)
#400909
1_
1#
#401094
0[
0'
#402527
1\
1&
#403035
1Z
1(
#403195
1`
1"
#410000
1!
0O
#410545
1%!
#413236
1~!
#413589
1N!
#413894
1O!
#414056
0P!
#414502
0Q!
#414721
0&!
#414866
0~!
0|!
#415235
0J!
0N!
#415416
0R!
#415452
0(!
#415552
0O!
#415738
1P!
#415741
0T!
#415945
1C!
#416228
1j!
#416419
1&!
#416439
0V!
0^!
#416481
1g!
#416901
1D!
#418748
1H"
#418827
0X
0,
#419495
0A!
#419585
0M!
#420000
0!
1O
#420718
0%!
#422140
1i
1F
#430000
1!
0O
#430545
1%!
#433236
1~!
#433589
1N!
#433873
1/!
#433936
0C!
#434056
0P!
#434311
11!
#434359
1K!
#434721
0&!
#434863
0D!
#435077
1L!
#435787
1'!
#436925
0+"
0*"
#437636
0g!
#437642
0j!
#437927
1#!
1+
#437973
0i!
#437999
1f!
#438064
1h!
#438122
0k!
#438371
1V
1.
#438519
1i!
#438577
1l!
#440000
0!
1O
#440220
0w
08
#440718
0%!
#440823
0v
09
#450000
1!
0O
#450545
1%!
#453236
1}!
0~!
#453605
0N!
#453650
0'!
#453660
1(!
#453885
0K!
#453925
0/!
#453959
1T!
#453998
01!
#454082
1)!
#454585
0L!
#454616
1V!
1^!
#454682
11!
#454789
1&!
#454857
1,!
#455130
1w!
#455198
0;"
0:"
#455336
0T!
#455605
1-!
#455670
1I!
#455889
1'!
#455977
0(!
#456034
0V!
0^!
#456105
0U!
#456881
1W
1-
#457452
0("
1'"
#457887
09!
#458045
0<!
#458085
16!
#458100
03!
#458103
1>!
#458121
02!
#458158
1.!
#458179
1<!
#458199
1$!
1*
#458237
0>!
#458309
0!!
0H
#458370
0V
0.
#458576
13!
#458984
0~
0I
#460000
0!
1O
#460718
0%!
#461176
1b
15
#461355
0a
06
#470000
1!
0O
#470545
1%!
#473236
1~!
#473589
1N!
#473873
1/!
#473894
1O!
#474032
0)!
#474058
1P!
#474059
1+!
#474227
0I!
#474677
01!
#474721
0&!
#474844
0,!
#474866
0~!
0}!
#475063
0w!
#475235
0N!
#475372
0'!
#475554
0O!
#475555
0/!
#475573
0-!
#475627
1K!
#475628
1C!
#475632
0+!
#475634
0P!
#475682
11!
#475911
1I!
#476018
01!
#476051
0K!
#476419
1&!
#476584
1D!
#478063
0$!
0*
#478166
0#!
0+
#478420
0W
0-
#478431
1G"
0H"
#480000
0!
1O
#480718
0%!
#481740
0i
0F
#482623
1j
1E
#490000
1!
0O
#490545
1%!
#493236
1~!
#493873
1/!
#493936
0C!
#494227
0I!
#494311
11!
#494359
1K!
#494721
0&!
#494863
0D!
#495077
1L!
#495787
1'!
#497927
1#!
1+
#498371
1V
1.
#500000
0!
1O
#500718
0%!
#510000
1!
0O
#510545
1%!
#513236
1}!
0~!
#513650
0'!
#513660
1(!
#513885
0K!
#513925
0/!
#513998
01!
#514082
1)!
#514281
1I!
#514585
0L!
#514682
11!
#514789
1&!
#514857
1,!
#515130
1w!
#515605
1-!
#515889
1'!
#515977
0(!
#516881
1W
1-
#517452
1("
#517827
19!
#518095
0.!
#518172
12!
#518199
1$!
1*
#518230
0<!
#518288
1>!
#518370
0V
0.
#518609
03!
