simulation/qsim/neander_top.msim.vcd
$comment
	File created using the following command:
		vcd file neander_top.msim.vcd -direction
$end
$date
	Sat Oct 14 12:05:40 2023
$end
$version
	ModelSim Version 10.5b
$end
$timescale
	1ps
$end

$scope module neander_top_vlg_vec_tst $end
$var reg 1 ! mclk $end
$var wire 1 " AC_out [7] $end
$var wire 1 # AC_out [6] $end
$var wire 1 $ AC_out [5] $end
$var wire 1 % AC_out [4] $end
$var wire 1 & AC_out [3] $end
$var wire 1 ' AC_out [2] $end
$var wire 1 ( AC_out [1] $end
$var wire 1 ) AC_out [0] $end
$var wire 1 * cargaPC $end
$var wire 1 + incPC $end
$var wire 1 , INSTR_time [2] $end
$var wire 1 - INSTR_time [1] $end
$var wire 1 . INSTR_time [0] $end
$var wire 1 / PC_out [7] $end
$var wire 1 0 PC_out [6] $end
$var wire 1 1 PC_out [5] $end
$var wire 1 2 PC_out [4] $end
$var wire 1 3 PC_out [3] $end
$var wire 1 4 PC_out [2] $end
$var wire 1 5 PC_out [1] $end
$var wire 1 6 PC_out [0] $end
$var wire 1 7 RDM_out [7] $end
$var wire 1 8 RDM_out [6] $end
$var wire 1 9 RDM_out [5] $end
$var wire 1 : RDM_out [4] $end
$var wire 1 ; RDM_out [3] $end
$var wire 1 < RDM_out [2] $end
$var wire 1 = RDM_out [1] $end
$var wire 1 > RDM_out [0] $end
$var wire 1 ? REM_out [7] $end
$var wire 1 @ REM_out [6] $end
$var wire 1 A REM_out [5] $end
$var wire 1 B REM_out [4] $end
$var wire 1 C REM_out [3] $end
$var wire 1 D REM_out [2] $end
$var wire 1 E REM_out [1] $end
$var wire 1 F REM_out [0] $end
$var wire 1 G RI_out [7] $end
$var wire 1 H RI_out [6] $end
$var wire 1 I RI_out [5] $end
$var wire 1 J RI_out [4] $end
$var wire 1 K RI_out [3] $end
$var wire 1 L RI_out [2] $end
$var wire 1 M RI_out [1] $end
$var wire 1 N RI_out [0] $end
$var wire 1 O sampler $end

$scope module i1 $end
$var wire 1 P gnd $end
$var wire 1 Q vcc $end
$var wire 1 R unknown $end
$var tri1 1 S devclrn $end
$var tri1 1 T devpor $end
$var tri1 1 U devoe $end
$var wire 1 V INSTR_time[0]~output_o $end
$var wire 1 W INSTR_time[1]~output_o $end
$var wire 1 X INSTR_time[2]~output_o $end
$var wire 1 Y AC_out[0]~output_o $end
$var wire 1 Z AC_out[1]~output_o $end
$var wire 1 [ AC_out[2]~output_o $end
$var wire 1 \ AC_out[3]~output_o $end
$var wire 1 ] AC_out[4]~output_o $end
$var wire 1 ^ AC_out[5]~output_o $end
$var wire 1 _ AC_out[6]~output_o $end
$var wire 1 ` AC_out[7]~output_o $end
$var wire 1 a PC_out[0]~output_o $end
$var wire 1 b PC_out[1]~output_o $end
$var wire 1 c PC_out[2]~output_o $end
$var wire 1 d PC_out[3]~output_o $end
$var wire 1 e PC_out[4]~output_o $end
$var wire 1 f PC_out[5]~output_o $end
$var wire 1 g PC_out[6]~output_o $end
$var wire 1 h PC_out[7]~output_o $end
$var wire 1 i REM_out[0]~output_o $end
$var wire 1 j REM_out[1]~output_o $end
$var wire 1 k REM_out[2]~output_o $end
$var wire 1 l REM_out[3]~output_o $end
$var wire 1 m REM_out[4]~output_o $end
$var wire 1 n REM_out[5]~output_o $end
$var wire 1 o REM_out[6]~output_o $end
$var wire 1 p REM_out[7]~output_o $end
$var wire 1 q RDM_out[0]~output_o $end
$var wire 1 r RDM_out[1]~output_o $end
$var wire 1 s RDM_out[2]~output_o $end
$var wire 1 t RDM_out[3]~output_o $end
$var wire 1 u RDM_out[4]~output_o $end
$var wire 1 v RDM_out[5]~output_o $end
$var wire 1 w RDM_out[6]~output_o $end
$var wire 1 x RDM_out[7]~output_o $end
$var wire 1 y RI_out[0]~output_o $end
$var wire 1 z RI_out[1]~output_o $end
$var wire 1 { RI_out[2]~output_o $end
$var wire 1 | RI_out[3]~output_o $end
$var wire 1 } RI_out[4]~output_o $end
$var wire 1 ~ RI_out[5]~output_o $end
$var wire 1 !! RI_out[6]~output_o $end
$var wire 1 "! RI_out[7]~output_o $end
$var wire 1 #! incPC~output_o $end
$var wire 1 $! cargaPC~output_o $end
$var wire 1 %! mclk~input_o $end
$var wire 1 &! TIMER|qs[0]~2_combout $end
$var wire 1 '! TIMER|qs[1]~0_combout $end
$var wire 1 (! TIMER|qs[2]~1_combout $end
$var wire 1 )! TIMER_DECODER|Mux5~combout $end
$var wire 1 *! CU|s[1]~0_combout $end
$var wire 1 +! CU|carga_AC~0_combout $end
$var wire 1 ,! REG_PC|count[0]~8_combout $end
$var wire 1 -! CU|sel~0_combout $end
$var wire 1 .! MEM|Mux5~0_combout $end
$var wire 1 /! MULTIPLEX|y[2]~2_combout $end
$var wire 1 0! MEM|Mux7~0_combout $end
$var wire 1 1! CU|inc_PC~1_combout $end
$var wire 1 2! CU|inc_PC~3_combout $end
$var wire 1 3! CU|inc_PC~4_combout $end
$var wire 1 4! REG_PC|count[0]~9 $end
$var wire 1 5! REG_PC|count[1]~11 $end
$var wire 1 6! REG_PC|count[2]~12_combout $end
$var wire 1 7! REG_PC|count[2]~13 $end
$var wire 1 8! REG_PC|count[3]~14_combout $end
$var wire 1 9! MEM|Mux4~0_combout $end
$var wire 1 :! MULTIPLEX|y[3]~3_combout $end
$var wire 1 ;! MEM|Mux1~0_combout $end
$var wire 1 <! REG_RDM|q[6]~feeder_combout $end
$var wire 1 =! INSTR_DECODER|Mux8~0_combout $end
$var wire 1 >! CU|carga_PC~0_combout $end
$var wire 1 ?! CU|carga_PC~1_combout $end
$var wire 1 @! CU|carga_PC~combout $end
$var wire 1 A! CU|carga_PC~clkctrl_outclk $end
$var wire 1 B! REG_PC|count[1]~10_combout $end
$var wire 1 C! MEM|Mux6~0_combout $end
$var wire 1 D! MULTIPLEX|y[1]~1_combout $end
$var wire 1 E! MEM|Mux2~0_combout $end
$var wire 1 F! REG_RDM|q[5]~feeder_combout $end
$var wire 1 G! CU|inc_PC~2_combout $end
$var wire 1 H! CU|inc_PC~0_combout $end
$var wire 1 I! CU|carga_REM~4_combout $end
$var wire 1 J! CU|carga_REM~combout $end
$var wire 1 K! CU|carga_REM~clkctrl_outclk $end
$var wire 1 L! MULTIPLEX|y[0]~0_combout $end
$var wire 1 M! MEM|Mux0~0_combout $end
$var wire 1 N! REG_RDM|q[7]~feeder_combout $end
$var wire 1 O! CU|carga_REM~2_combout $end
$var wire 1 P! CU|carga_RDM~0_combout $end
$var wire 1 Q! CU|carga_RDM~combout $end
$var wire 1 R! CU|carga_RDM~clkctrl_outclk $end
$var wire 1 S! MEM|Mux3~0_combout $end
$var wire 1 T! REG_RDM|q[4]~feeder_combout $end
$var wire 1 U! CU|goto_t0~0_combout $end
$var wire 1 V! CU|goto_t0~1_combout $end
$var wire 1 W! CU|goto_t0~2_combout $end
$var wire 1 X! CU|carga_AC~1_combout $end
$var wire 1 Y! CU|carga_AC~combout $end
$var wire 1 Z! CU|carga_AC~clkctrl_outclk $end
$var wire 1 [! REG_AC|q[0]~8_combout $end
$var wire 1 \! CU|s[2]~2_combout $end
$var wire 1 ]! CU|s[2]~1_combout $end
$var wire 1 ^! ULA|Mux7~0_combout $end
$var wire 1 _! CU|s[1]~3_combout $end
$var wire 1 `! CU|s[1]~4_combout $end
$var wire 1 a! REG_AC|q[0]~9 $end
$var wire 1 b! REG_AC|q[1]~10_combout $end
$var wire 1 c! ULA|Mux6~0_combout $end
$var wire 1 d! REG_AC|q[1]~11 $end
$var wire 1 e! REG_AC|q[2]~12_combout $end
$var wire 1 f! ULA|Mux5~0_combout $end
$var wire 1 g! REG_AC|q[2]~13 $end
$var wire 1 h! REG_AC|q[3]~14_combout $end
$var wire 1 i! ULA|Mux4~0_combout $end
$var wire 1 j! REG_AC|q[3]~15 $end
$var wire 1 k! REG_AC|q[4]~16_combout $end
$var wire 1 l! ULA|Mux3~0_combout $end
$var wire 1 m! REG_AC|q[4]~17 $end
$var wire 1 n! REG_AC|q[5]~18_combout $end
$var wire 1 o! ULA|Mux2~0_combout $end
$var wire 1 p! REG_AC|q[5]~19 $end
$var wire 1 q! REG_AC|q[6]~20_combout $end
$var wire 1 r! ULA|Mux1~0_combout $end
$var wire 1 s! REG_AC|q[6]~21 $end
$var wire 1 t! REG_AC|q[7]~22_combout $end
$var wire 1 u! ULA|Mux0~0_combout $end
$var wire 1 v! REG_PC|count[3]~15 $end
$var wire 1 w! REG_PC|count[4]~16_combout $end
$var wire 1 x! REG_PC|count[4]~17 $end
$var wire 1 y! REG_PC|count[5]~18_combout $end
$var wire 1 z! REG_PC|count[5]~19 $end
$var wire 1 {! REG_PC|count[6]~20_combout $end
$var wire 1 |! REG_PC|count[6]~21 $end
$var wire 1 }! REG_PC|count[7]~22_combout $end
$var wire 1 ~! TIMER_DECODER|Mux5~clkctrl_outclk $end
$var wire 1 !" REG_RI|q[0]~feeder_combout $end
$var wire 1 "" REG_RI|q[1]~feeder_combout $end
$var wire 1 #" REG_RI|q[2]~feeder_combout $end
$var wire 1 $" REG_RI|q[3]~feeder_combout $end
$var wire 1 %" TIMER|qs [2] $end
$var wire 1 &" TIMER|qs [1] $end
$var wire 1 '" TIMER|qs [0] $end
$var wire 1 (" REG_PC|count [7] $end
$var wire 1 )" REG_PC|count [6] $end
$var wire 1 *" REG_PC|count [5] $end
$var wire 1 +" REG_PC|count [4] $end
$var wire 1 ," REG_PC|count [3] $end
$var wire 1 -" REG_PC|count [2] $end
$var wire 1 ." REG_PC|count [1] $end
$var wire 1 /" REG_PC|count [0] $end
$var wire 1 0" REG_AC|q [7] $end
$var wire 1 1" REG_AC|q [6] $end
$var wire 1 2" REG_AC|q [5] $end
$var wire 1 3" REG_AC|q [4] $end
$var wire 1 4" REG_AC|q [3] $end
$var wire 1 5" REG_AC|q [2] $end
$var wire 1 6" REG_AC|q [1] $end
$var wire 1 7" REG_AC|q [0] $end
$var wire 1 8" REG_RI|q [7] $end
$var wire 1 9" REG_RI|q [6] $end
$var wire 1 :" REG_RI|q [5] $end
$var wire 1 ;" REG_RI|q [4] $end
$var wire 1 <" REG_RI|q [3] $end
$var wire 1 =" REG_RI|q [2] $end
$var wire 1 >" REG_RI|q [1] $end
$var wire 1 ?" REG_RI|q [0] $end
$var wire 1 @" REG_RDM|q [7] $end
$var wire 1 A" REG_RDM|q [6] $end
$var wire 1 B" REG_RDM|q [5] $end
$var wire 1 C" REG_RDM|q [4] $end
$var wire 1 D" REG_RDM|q [3] $end
$var wire 1 E" REG_RDM|q [2] $end
$var wire 1 F" REG_RDM|q [1] $end
$var wire 1 G" REG_RDM|q [0] $end
$var wire 1 H" REG_REM|q [7] $end
$var wire 1 I" REG_REM|q [6] $end
$var wire 1 J" REG_REM|q [5] $end
$var wire 1 K" REG_REM|q [4] $end
$var wire 1 L" REG_REM|q [3] $end
$var wire 1 M" REG_REM|q [2] $end
$var wire 1 N" REG_REM|q [1] $end
$var wire 1 O" REG_REM|q [0] $end
$upscope $end
$upscope $end
$enddefinitions $end
#0
$dumpvars
0!
x)
x(
x'
x&
x%
x$
x#
x"
x*
x+
x.
x-
x,
x6
x5
x4
x3
x2
x1
x0
x/
x>
x=
x<
x;
x:
x9
x8
x7
xF
xE
xD
xC
0B
0A
0@
0?
xN
xM
xL
xK
xJ
xI
xH
xG
xO
0P
1Q
xR
1S
1T
1U
xV
xW
xX
xY
xZ
x[
x\
x]
x^
x_
x`
xa
xb
xc
xd
xe
xf
xg
xh
xi
xj
xk
xl
0m
0n
0o
0p
xq
xr
xs
xt
xu
xv
xw
xx
xy
xz
x{
x|
x}
x~
x!!
x"!
x#!
x$!
0%!
x&!
x'!
x(!
x)!
x*!
x+!
x,!
x-!
x.!
x/!
x0!
01!
x2!
x3!
x4!
x5!
x6!
x7!
x8!
x9!
x:!
x;!
x<!
x=!
x>!
x?!
x@!
xA!
xB!
xC!
xD!
xE!
xF!
xG!
xH!
xI!
xJ!
xK!
xL!
xM!
xN!
xO!
xP!
xQ!
xR!
xS!
xT!
xU!
xV!
xW!
xX!
xY!
xZ!
x[!
x\!
x]!
x^!
x_!
x`!
xa!
xb!
xc!
xd!
xe!
xf!
xg!
xh!
xi!
xj!
xk!
xl!
xm!
xn!
xo!
xp!
xq!
xr!
xs!
xt!
xu!
xv!
xw!
xx!
xy!
xz!
x{!
x|!
x}!
x~!
x!"
x""
x#"
x$"
0'"
0&"
0%"
0/"
0."
0-"
0,"
0+"
0*"
0)"
0("
07"
06"
05"
04"
03"
02"
01"
00"
0?"
0>"
0="
0<"
0;"
0:"
09"
08"
0G"
0F"
0E"
0D"
0C"
0B"
0A"
0@"
0O"
0N"
0M"
0L"
zK"
zJ"
zI"
zH"
$end
#501
0P!
#616
0-!
#659
0|!
#660
0x!
#670
0a!
#671
07!
04!
#708
1,!
0>!
#716
0/!
#724
0*!
#727
0(!
#728
1d!
#734
0_!
#736
0L!
#764
0D!
#770
0X!
#775
0]!
#783
1J!
#784
1z!
#796
1v!
#799
15!
#809
0;!
#817
0U!
0Q!
#818
00!
#841
0G!
#870
0+!
#885
0=!
#887
0)!
#902
0M!
#993
0m!
#1014
0g!
#1044
0V!
#1048
0H!
#1060
1`!
#1068
0[!
#1072
0b!
#1090
0:!
#1095
0.!
0C!
#1096
0}!
0S!
09!
#1097
0y!
#1108
0B!
08!
#1114
1E!
#1150
1j!
#1151
0?!
#1165
0e!
#1190
0s!
#1221
0{!
#1233
0w!
#1236
06!
#1261
0<!
#1264
0\!
#1327
0t!
#1332
1p!
#1351
0N!
#1361
0W!
#1409
0O!
#1430
0n!
#1451
0h!
#1538
0^!
#1539
0o!
#1540
0i!
#1548
0f!
#1549
0c!
#1550
0u!
#1587
0k!
#1605
1&!
#1621
0""
#1667
0!"
#1671
0@!
#1674
0I!
#1746
0$"
#1751
1F!
#1762
0T!
#1768
0#"
#1769
0q!
#1783
0Y!
#1835
0r!
#1845
0l!
#1852
1K!
#1904
0R!
#2603
0~!
#2664
0'!
#2818
02!
#2842
0Z!
#2845
0y
0N
#2982
0{
0L
#3002
0A!
#3134
03!
#3370
0z
0M
#3402
0|
0K
#3422
0e
02
#3441
0d
03
#3641
0w
08
#3654
0l
0C
#3682
0V
0.
#3685
0[
0'
#3725
0]
0%
#3735
0`
0"
#3776
0!!
0H
#3841
0~
0I
#3852
0j
0E
#3890
0W
0-
#3895
0u
0:
#3901
0k
0D
#3904
0v
09
#3932
0r
0=
#4003
0\
0&
#4013
0Z
0(
#4020
0q
0>
#4037
0b
05
#4056
0}
0J
#4059
0^
0$
#4103
0s
0<
#4104
0x
07
#4132
0t
0;
#4204
0a
06
#4248
0g
00
#4297
0c
04
#4624
0"!
0G
#4847
0X
0,
#4952
0Y
0)
#4976
0f
01
#5018
0_
0#
#5375
0h
0/
#5556
0i
0F
#5652
0$!
0*
#8406
0#!
0+
#10000
1!
0O
#10545
1%!
#13293
1'"
#13796
0J!
#13939
1P!
#14242
1Q!
#14837
0&!
#14867
0K!
#15325
1R!
#15878
1'!
#16060
12!
#16361
13!
#17036
1V
1.
#17161
1B"
#18378
1n!
#18564
1o!
#20000
0!
1O
#20718
0%!
#21139
1v
19
#21705
1#!
1+
#30000
1!
0O
#30545
1%!
#33293
1&"
0'"
#33662
0P!
#33879
1J!
#33946
02!
#33958
0'!
#33959
1(!
#33960
1V!
#33978
0Q!
#34011
0J!
#34023
1]!
#34099
1)!
#34262
03!
#34263
1W!
#34573
12!
#34874
1@!
13!
#34898
1&!
#35065
0R!
#35149
1:"
#35234
0&"
#35618
0W!
#35820
1~!
#35912
1U!
#35926
0(!
#35930
0]!
#35963
0V!
#36017
1J!
#36121
0)!
#36125
1H!
#36205
1A!
#36464
1O!
#36610
02!
#36720
1I!
#36905
0@!
#36926
03!
#36975
0V
0.
#37086
1K!
#37837
0~!
#38041
1*"
#38236
0A!
#38668
1y!
#39056
1~
1I
#40000
0!
1O
#40718
0%!
#42198
0#!
0+
#43016
1f
11
#50000
1!
0O
#50545
1%!
#53293
1'"
#53796
0J!
#53939
1P!
#54242
1Q!
#54837
0&!
#54867
0K!
#55325
1R!
#55878
1'!
#56060
12!
#56361
13!
#57036
1V
1.
#60000
0!
1O
#60718
0%!
#61705
1#!
1+
#70000
1!
0O
#70545
1%!
#73293
1&"
0'"
#73662
0P!
#73879
1J!
#73946
02!
#73958
0'!
#73959
1(!
#73978
0Q!
#74011
0J!
#74023
1]!
#74099
1)!
#74262
03!
#74573
12!
#74874
1@!
13!
#74898
1&!
#75065
0R!
#75820
1~!
#75926
0(!
#75930
0]!
#75949
1'!
#76205
1A!
#76975
0V
0.
#77254
1W
1-
#78041
1/"
#78674
1L!
#78685
0,!
#78762
14!
#78920
1$!
1*
#79217
1B!
#80000
0!
1O
#80718
0%!
#82302
1a
16
#90000
1!
0O
#90545
1%!
#93293
1'"
#93662
0)!
#93797
1J!
#94151
02!
#94446
0@!
#94467
03!
#94837
0&!
#94866
1K!
#95378
0~!
#95777
0A!
#95855
1(!
#95858
1]!
#95886
0'!
#96702
1O"
#97036
1V
1.
#97725
1.!
1C!
#97726
19!
#97745
0E!
#98381
0F!
#98427
0$!
0*
#99739
0#!
0+
#100000
0!
1O
#100718
0%!
#102295
1i
1F
#110000
1!
0O
#110545
1%!
#113293
0&"
1%"
0'"
#113705
0(!
#113706
0U!
#113876
1Q!
#113922
1_!
#113967
0]!
#113996
0J!
#114016
1-!
#114022
1'!
1(!
#114068
0_!
#114073
1X!
#114455
0L!
#114898
1&!
#114959
1R!
#115067
0K!
#115925
1]!
#115957
0'!
#116794
1E"
1D"
1F"
#116795
0B"
#116975
0V
0.
#117183
0W
0-
#117478
1/!
#117514
1D!
#117657
1i!
#117754
1:!
#117785
1c!
#117793
1e!
#117812
1b!
#117822
1h!
#118051
1f!
#118061
0n!
#118149
1X
1,
#118244
0o!
#118333
1""
#118450
1$"
#118459
1#"
#120000
0!
1O
#120699
0v
09
#120718
0%!
#120761
1r
1=
#120910
1s
1<
#120936
1t
1;
#130000
1!
0O
#130545
1%!
#133293
1'"
#133794
0X!
#133795
0Q!
#133797
1J!
#134837
0&!
#134866
1K!
#134882
0R!
#135863
0]!
#135878
1'!
#136702
1M"
1L"
1N"
0O"
#137036
1V
1.
#137450
0C!
#137547
1S!
#137581
09!
#137797
0.!
#137798
1M!
#138217
1T!
#138245
1N!
#140000
0!
1O
#140419
1l
1C
#140615
1j
1E
#140653
1k
1D
#140718
0%!
#142258
0i
0F
#150000
1!
0O
#150545
1%!
#153293
1&"
0'"
#153874
1X!
#153876
1Q!
#153878
0J!
#153946
1*!
0-!
#153957
0(!
#153958
0'!
#154009
0X!
#154023
1_!
#154420
0:!
0D!
1L!
#154421
0/!
#154513
13!
#154898
1&!
#154949
0K!
#154959
1R!
#155926
1(!
#155949
1'!
#156794
0E"
0D"
0F"
#156795
1@"
1C"
#156975
0V
0.
#157254
1W
1-
#157630
1l!
#157679
1u!
#157711
0i!
#157775
1k!
#157839
0e!
#157854
0c!
#157866
0b!
#157884
0h!
#158076
1t!
#158091
0f!
#158415
0""
#158540
0$"
#158562
0#"
#159857
1#!
1+
#160000
0!
1O
#160718
0%!
#160726
0r
0=
#160762
1u
1:
#160897
0s
0<
#160926
0t
0;
#160986
1x
17
#170000
1!
0O
#170545
1%!
#173293
1'"
#173795
0Q!
#174119
1+!
#174822
1@!
#174837
0&!
#174882
0R!
#175012
1Y!
#175855
0(!
#175886
0'!
#176072
1Z!
#176153
1A!
#177036
1V
1.
#177909
13"
10"
#177989
0/"
1."
#178533
0k!
#178582
05!
#178622
1D!
#178630
1m!
#178637
0B!
#178660
04!
#178697
1,!
#178708
0t!
#178714
0L!
#178718
15!
#178868
1$!
1*
#179085
1n!
#179115
1B!
#180000
0!
1O
#180718
0%!
#181685
1]
1%
#181704
1`
1"
#182048
1b
15
#182193
0a
06
#190000
1!
0O
#190545
1%!
#193293
0&"
0%"
0'"
#193803
1)!
#193807
1U!
#194017
0*!
#194022
1'!
#194027
0_!
#194076
1J!
#194163
0+!
#194180
0)!
#194209
12!
#194898
1&!
#194903
0@!
#195076
0Y!
#195145
1K!
#195957
0'!
#196111
02!
#196135
0Z!
#196234
0A!
#196427
03!
#196975
0V
0.
#196981
0M"
0L"
#197183
0W
0-
#197795
1E!
#197883
0M!
#198140
0X
0,
#198332
0N!
#198432
1F!
#198884
0$!
0*
#200000
0!
1O
#200635
0l
0C
#200718
0%!
#200882
0k
0D
#201699
0#!
0+
#210000
1!
0O
#210545
1%!
#213293
1'"
#213796
0J!
#213939
1P!
#214242
1Q!
#214837
0&!
#214867
0K!
#215325
1R!
#215878
1'!
#216060
12!
#216361
13!
#217036
1V
1.
#217161
1B"
0@"
#218100
0u!
#218315
0p!
#218377
0n!
#218498
1t!
#218564
1o!
#218770
1q!
#220000
0!
1O
#220718
0%!
#221139
1v
19
#221265
0x
07
#221705
1#!
1+
#230000
1!
0O
#230545
1%!
#233293
1&"
0'"
#233662
0P!
#233879
1J!
#233946
02!
#233958
0'!
#233959
1(!
#233978
0Q!
#234011
0J!
#234023
1]!
#234099
1)!
#234262
03!
#234573
12!
#234874
1@!
13!
#234898
1&!
#235065
0R!
#235149
1;"
#235820
1~!
#235926
0(!
#235930
0]!
#235949
1'!
#236205
1A!
#236975
0V
0.
#237254
1W
1-
#238041
1/"
#238674
1L!
#238685
0,!
#238762
14!
#238820
05!
#238920
1$!
1*
#239199
0B!
#239225
1}
1J
#239275
16!
#240000
0!
1O
#240718
0%!
#242302
1a
16
#250000
1!
0O
#250545
1%!
#253293
1'"
#253662
0)!
#253797
1J!
#254151
02!
#254446
0@!
#254467
03!
#254837
0&!
#254866
1K!
#255378
0~!
#255777
0A!
#255855
1(!
#255858
1]!
#255886
0'!
#256702
1O"
#257036
1V
1.
#257459
10!
#257725
1.!
1C!
#257726
19!
#257744
0S!
#257745
0E!
#258381
0F!
#258410
0T!
#258427
0$!
0*
#259739
0#!
0+
#260000
0!
1O
#260718
0%!
#262295
1i
1F
#270000
1!
0O
#270545
1%!
#273293
0&"
1%"
0'"
#273705
0(!
#273706
0U!
#273876
1Q!
#273922
1_!
#273967
0]!
#273996
0J!
#274016
1-!
#274022
1'!
1(!
#274068
0_!
#274073
1X!
#274454
0D!
#274455
0L!
#274898
1&!
#274959
1R!
#275067
0K!
#275925
1]!
#275957
0'!
#276794
1E"
1G"
1D"
1F"
#276795
0B"
0C"
#276975
0V
0.
#277183
0W
0-
#277478
1/!
#277494
1L!
#277514
1D!
#277657
1i!
#277685
0l!
#277754
1:!
#277785
1c!
1[!
#277788
0m!
#277793
1e!
#277803
1^!
#277812
1b!
#277822
1h!
#277827
1k!
#278051
1f!
#278127
1p!
#278149
1X
1,
#278244
0o!
#278333
1""
#278369
1!"
#278450
1$"
#278459
1#"
#278564
0q!
#280000
0!
1O
#280690
0u
0:
#280699
0v
09
#280718
0%!
#280761
1r
1=
#280836
1q
1>
#280910
1s
1<
#280936
1t
1;
#290000
1!
0O
#290545
1%!
#293293
1'"
#293794
0X!
#293795
0Q!
#293797
1J!
#294837
0&!
#294866
1K!
#294882
0R!
#295863
0]!
#295878
1'!
#296702
1M"
1L"
#297036
1V
1.
#297450
0C!
#297451
09!
#297547
1S!
#297692
00!
#298217
1T!
#300000
0!
1O
#300419
1l
1C
#300653
1k
1D
#300718
0%!
#310000
1!
0O
#310545
1%!
#313293
1&"
0'"
#313874
1X!
#313876
1Q!
#313878
0J!
#313946
1*!
0-!
#313957
0(!
#313958
0'!
#314009
0X!
#314023
1_!
#314315
0`!
#314420
0:!
#314421
0/!
#314513
13!
#314898
1&!
#314949
0K!
#314959
1R!
#315926
1(!
#315949
1'!
#316794
0G"
0D"
0F"
#316795
1C"
#316975
0V
0.
#317254
1W
1-
#317630
1l!
#317711
0i!
#317770
0k!
#317854
0c!
#317857
1m!
#317862
0[!
#317865
0^!
#317866
0b!
#317884
0h!
#318312
1n!
#318415
0""
#318461
0!"
#318540
0$"
#319857
1#!
1+
#320000
0!
1O
#320718
0%!
#320726
0r
0=
#320762
1u
1:
#320814
0q
0>
#320926
0t
0;
#330000
1!
0O
#330545
1%!
#333293
1'"
#333795
0Q!
#334119
1+!
#334822
1@!
#334837
0&!
#334882
0R!
#335012
1Y!
#335855
0(!
#335886
0'!
#336072
1Z!
#336153
1A!
#337036
1V
1.
#337909
15"
03"
12"
#337989
0/"
1-"
0."
#338538
0e!
#338578
0m!
#338615
1k!
#338622
1/!
#338625
1g!
#338633
06!
#338660
04!
#338697
1,!
#338710
17!
#338714
0D!
0L!
#338788
15!
#338846
07!
#338868
1$!
1*
#339080
1h!
#339243
16!
#340000
0!
1O
#340718
0%!
#341634
0]
0%
#341659
1[
1'
#341995
1^
1$
#342026
0b
05
#342193
0a
06
#342316
1c
14
#350000
1!
0O
#350545
1%!
#353293
0&"
0%"
0'"
#353803
1)!
#353807
1U!
#354017
0*!
#354022
1'!
#354027
0_!
#354076
1J!
#354163
0+!
#354180
0)!
#354209
12!
#354353
1`!
#354898
1&!
#354903
0@!
#355076
0Y!
#355145
1K!
#355957
0'!
#356111
02!
#356135
0Z!
#356234
0A!
#356427
03!
#356975
0V
0.
#356981
0L"
0N"
0O"
#357183
0W
0-
#358062
0.!
#358084
1;!
#358140
0X
0,
#358532
1<!
#358884
0$!
0*
#360000
0!
1O
#360635
0l
0C
#360718
0%!
#360833
0j
0E
#361699
0#!
0+
#362537
0i
0F
#370000
1!
0O
#370545
1%!
#373293
1'"
#373796
0J!
#373939
1P!
#374242
1Q!
#374837
0&!
#374867
0K!
#375325
1R!
#375878
1'!
#376060
12!
#376361
13!
#377036
1V
1.
#377160
0E"
#377161
1A"
#378020
1r!
#378174
0g!
#378211
1e!
#378341
1q!
#378457
0f!
#378611
0h!
#378928
0#"
#380000
0!
1O
#380718
0%!
#380863
1w
18
#381263
0s
0<
#381705
1#!
1+
#390000
1!
0O
#390545
1%!
#393293
1&"
0'"
#393662
0P!
#393879
1J!
#393946
02!
#393958
0'!
#393959
1(!
#393978
0Q!
#394011
0J!
#394023
1]!
#394099
1)!
#394262
03!
#394573
12!
#394874
1@!
13!
#394898
1&!
#395065
0R!
#395149
19"
0:"
#395502
1G!
#395820
1~!
#395926
0(!
#395930
0]!
#395949
1'!
#395974
0H!
#396182
1H!
#396205
1A!
#396975
0V
0.
#397254
1W
1-
#398041
1/"
#398674
1L!
#398685
0,!
#398762
14!
#398920
1$!
1*
#398990
0~
0I
#399002
1!!
1H
#399217
1B!
#400000
0!
1O
#400718
0%!
#402302
1a
16
#410000
1!
0O
#410545
1%!
#413293
1'"
#413662
0)!
#413797
1J!
#414151
02!
#414446
0@!
#414467
03!
#414837
0&!
#414866
1K!
#415378
0~!
#415777
0A!
#415855
1(!
#415858
1]!
#415886
0'!
#416702
1O"
#417036
1V
1.
#417740
0;!
#418192
0<!
#418427
0$!
0*
#419739
0#!
0+
#420000
0!
1O
#420718
0%!
#422295
1i
1F
#430000
1!
0O
#430545
1%!
#433293
0&"
1%"
0'"
#433705
0(!
#433706
0U!
#433876
1Q!
#433967
0]!
#433996
0J!
#434016
1-!
#434022
1'!
1(!
#434073
1X!
#434455
0/!
0L!
#434582
1Y!
#434898
1&!
#434959
1R!
#435067
0K!
#435642
1Z!
#435925
1]!
#435957
0'!
#436795
0A"
#436975
0V
0.
#437183
0W
0-
#437479
05"
13"
02"
11"
00"
#437696
0r!
#438103
0k!
#438149
1X
1,
#438186
0e!
#438200
1m!
#438336
0t!
#440000
0!
1O
#440436
0w
08
#440718
0%!
#441164
0[
0'
#441214
0`
0"
#441255
1]
1%
#441538
0^
0$
#442429
1_
1#
#450000
1!
0O
#450545
1%!
#453293
1'"
#453794
0X!
#453795
0Q!
#453797
1J!
#454336
0Y!
#454837
0&!
#454866
1K!
#454882
0R!
#455395
0Z!
#455863
0]!
#455878
1'!
#456702
0M"
0O"
#457036
1V
1.
#457506
0S!
#457816
1E!
#458172
0T!
#458453
1F!
#460000
0!
1O
#460603
0k
0D
#460718
0%!
#462258
0i
0F
#470000
1!
0O
#470545
1%!
#473293
1&"
0'"
#473874
1X!
#473876
1Q!
#473878
0J!
#473946
1*!
0-!
#473957
0(!
#473958
0'!
#474009
0X!
#474420
1/!
1L!
#474513
13!
#474898
1&!
#474949
0K!
#474959
1R!
#475926
1(!
#475949
1'!
#476795
1B"
0C"
#476975
0V
0.
#477254
1W
1-
#477685
0l!
#477788
0m!
#477827
1k!
#478198
1o!
#479857
1#!
1+
#480000
0!
1O
#480690
0u
0:
#480718
0%!
#480773
1v
19
#490000
1!
0O
#490545
1%!
#493293
1'"
#493795
0Q!
#494119
1+!
#494822
1@!
#494837
0&!
#494882
0R!
#495012
1Y!
#495855
0(!
#495886
0'!
#496072
1Z!
#496153
1A!
#497036
1V
1.
#497909
03"
12"
01"
#497989
0/"
1."
#498582
05!
#498609
0k!
#498622
1D!
#498637
0B!
#498640
17!
#498660
04!
#498678
0p!
#498697
1,!
#498714
0L!
#498718
15!
#498739
0n!
#498776
07!
#498868
1$!
1*
#499115
1B!
#500000
0!
1O
#500718
0%!
#501634
0]
0%
#501995
1^
1$
#502048
1b
15
#502193
0a
06
#502927
0_
0#
#510000
1!
0O
#510545
1%!
#513293
0&"
0%"
0'"
#513803
1)!
#513807
1U!
#514017
0*!
#514022
1'!
#514076
1J!
#514163
0+!
#514180
0)!
#514209
12!
#514898
1&!
#514903
0@!
#515076
0Y!
#515145
1K!
#515957
0'!
#516111
02!
#516135
0Z!
#516234
0A!
#516427
03!
#516975
0V
0.
#516981
1M"
1N"
#517183
0W
0-
#517727
0E!
#518140
0X
0,
#518363
0F!
#518884
0$!
0*
#520000
0!
1O
#520718
0%!
#520894
1j
1E
#520932
1k
1D
