simulation/qsim/neander_top.msim.vcd
$comment
	File created using the following command:
		vcd file neander_top.msim.vcd -direction
$end
$date
	Fri Oct 13 16:07:52 2023
$end
$version
	ModelSim Version 10.5b
$end
$timescale
	1ps
$end

$scope module neander_top_vlg_vec_tst $end
$var reg 1 ! mclk $end
$var wire 1 " AC_out [7] $end
$var wire 1 # AC_out [6] $end
$var wire 1 $ AC_out [5] $end
$var wire 1 % AC_out [4] $end
$var wire 1 & AC_out [3] $end
$var wire 1 ' AC_out [2] $end
$var wire 1 ( AC_out [1] $end
$var wire 1 ) AC_out [0] $end
$var wire 1 * cargaPC $end
$var wire 1 + incPC $end
$var wire 1 , INSTR_time [2] $end
$var wire 1 - INSTR_time [1] $end
$var wire 1 . INSTR_time [0] $end
$var wire 1 / PC_out [7] $end
$var wire 1 0 PC_out [6] $end
$var wire 1 1 PC_out [5] $end
$var wire 1 2 PC_out [4] $end
$var wire 1 3 PC_out [3] $end
$var wire 1 4 PC_out [2] $end
$var wire 1 5 PC_out [1] $end
$var wire 1 6 PC_out [0] $end
$var wire 1 7 RDM_out [7] $end
$var wire 1 8 RDM_out [6] $end
$var wire 1 9 RDM_out [5] $end
$var wire 1 : RDM_out [4] $end
$var wire 1 ; RDM_out [3] $end
$var wire 1 < RDM_out [2] $end
$var wire 1 = RDM_out [1] $end
$var wire 1 > RDM_out [0] $end
$var wire 1 ? REM_out [7] $end
$var wire 1 @ REM_out [6] $end
$var wire 1 A REM_out [5] $end
$var wire 1 B REM_out [4] $end
$var wire 1 C REM_out [3] $end
$var wire 1 D REM_out [2] $end
$var wire 1 E REM_out [1] $end
$var wire 1 F REM_out [0] $end
$var wire 1 G RI_out [7] $end
$var wire 1 H RI_out [6] $end
$var wire 1 I RI_out [5] $end
$var wire 1 J RI_out [4] $end
$var wire 1 K RI_out [3] $end
$var wire 1 L RI_out [2] $end
$var wire 1 M RI_out [1] $end
$var wire 1 N RI_out [0] $end
$var wire 1 O sampler $end

$scope module i1 $end
$var wire 1 P gnd $end
$var wire 1 Q vcc $end
$var wire 1 R unknown $end
$var tri1 1 S devclrn $end
$var tri1 1 T devpor $end
$var tri1 1 U devoe $end
$var wire 1 V INSTR_time[0]~output_o $end
$var wire 1 W INSTR_time[1]~output_o $end
$var wire 1 X INSTR_time[2]~output_o $end
$var wire 1 Y AC_out[0]~output_o $end
$var wire 1 Z AC_out[1]~output_o $end
$var wire 1 [ AC_out[2]~output_o $end
$var wire 1 \ AC_out[3]~output_o $end
$var wire 1 ] AC_out[4]~output_o $end
$var wire 1 ^ AC_out[5]~output_o $end
$var wire 1 _ AC_out[6]~output_o $end
$var wire 1 ` AC_out[7]~output_o $end
$var wire 1 a PC_out[0]~output_o $end
$var wire 1 b PC_out[1]~output_o $end
$var wire 1 c PC_out[2]~output_o $end
$var wire 1 d PC_out[3]~output_o $end
$var wire 1 e PC_out[4]~output_o $end
$var wire 1 f PC_out[5]~output_o $end
$var wire 1 g PC_out[6]~output_o $end
$var wire 1 h PC_out[7]~output_o $end
$var wire 1 i REM_out[0]~output_o $end
$var wire 1 j REM_out[1]~output_o $end
$var wire 1 k REM_out[2]~output_o $end
$var wire 1 l REM_out[3]~output_o $end
$var wire 1 m REM_out[4]~output_o $end
$var wire 1 n REM_out[5]~output_o $end
$var wire 1 o REM_out[6]~output_o $end
$var wire 1 p REM_out[7]~output_o $end
$var wire 1 q RDM_out[0]~output_o $end
$var wire 1 r RDM_out[1]~output_o $end
$var wire 1 s RDM_out[2]~output_o $end
$var wire 1 t RDM_out[3]~output_o $end
$var wire 1 u RDM_out[4]~output_o $end
$var wire 1 v RDM_out[5]~output_o $end
$var wire 1 w RDM_out[6]~output_o $end
$var wire 1 x RDM_out[7]~output_o $end
$var wire 1 y RI_out[0]~output_o $end
$var wire 1 z RI_out[1]~output_o $end
$var wire 1 { RI_out[2]~output_o $end
$var wire 1 | RI_out[3]~output_o $end
$var wire 1 } RI_out[4]~output_o $end
$var wire 1 ~ RI_out[5]~output_o $end
$var wire 1 !! RI_out[6]~output_o $end
$var wire 1 "! RI_out[7]~output_o $end
$var wire 1 #! incPC~output_o $end
$var wire 1 $! cargaPC~output_o $end
$var wire 1 %! mclk~input_o $end
$var wire 1 &! TIMER|qs[0]~2_combout $end
$var wire 1 '! TIMER|qs[1]~0_combout $end
$var wire 1 (! TIMER|qs[2]~1_combout $end
$var wire 1 )! TIMER_DECODER|Mux5~combout $end
$var wire 1 *! CU|inc_PC~0_combout $end
$var wire 1 +! CU|carga_RDM~1_combout $end
$var wire 1 ,! CU|carga_RDM~combout $end
$var wire 1 -! CU|carga_RDM~clkctrl_outclk $end
$var wire 1 .! CU|carga_REM~2_combout $end
$var wire 1 /! CU|carga_REM~1_combout $end
$var wire 1 0! CU|carga_REM~combout $end
$var wire 1 1! CU|carga_REM~clkctrl_outclk $end
$var wire 1 2! CU|sel~0_combout $end
$var wire 1 3! CU|carga_AC~0_combout $end
$var wire 1 4! CU|carga_PC~combout $end
$var wire 1 5! CU|carga_PC~clkctrl_outclk $end
$var wire 1 6! REG_PC|count[0]~8_combout $end
$var wire 1 7! MULTIPLEX|y[0]~0_combout $end
$var wire 1 8! MEM|Mux3~0_combout $end
$var wire 1 9! MULTIPLEX|y[2]~2_combout $end
$var wire 1 :! MEM|Mux4~0_combout $end
$var wire 1 ;! MULTIPLEX|y[1]~1_combout $end
$var wire 1 <! MEM|Mux5~0_combout $end
$var wire 1 =! CU|inc_PC~1_combout $end
$var wire 1 >! REG_PC|count[0]~9 $end
$var wire 1 ?! REG_PC|count[1]~10_combout $end
$var wire 1 @! REG_PC|count[1]~11 $end
$var wire 1 A! REG_PC|count[2]~12_combout $end
$var wire 1 B! REG_PC|count[2]~13 $end
$var wire 1 C! REG_PC|count[3]~14_combout $end
$var wire 1 D! MULTIPLEX|y[3]~3_combout $end
$var wire 1 E! MEM|Mux1~1_combout $end
$var wire 1 F! REG_RI|q[5]~feeder_combout $end
$var wire 1 G! TIMER_DECODER|Mux5~clkctrl_outclk $end
$var wire 1 H! MEM|Mux1~0_combout $end
$var wire 1 I! CU|goto_t0~0_combout $end
$var wire 1 J! CU|goto_t0~1_combout $end
$var wire 1 K! CU|carga_AC~combout $end
$var wire 1 L! CU|carga_AC~clkctrl_outclk $end
$var wire 1 M! ULA|Add0~0_combout $end
$var wire 1 N! ULA|Mux7~0_combout $end
$var wire 1 O! ULA|Add0~1 $end
$var wire 1 P! ULA|Add0~2_combout $end
$var wire 1 Q! ULA|Mux6~0_combout $end
$var wire 1 R! ULA|Add0~3 $end
$var wire 1 S! ULA|Add0~4_combout $end
$var wire 1 T! ULA|Mux5~0_combout $end
$var wire 1 U! ULA|Add0~5 $end
$var wire 1 V! ULA|Add0~6_combout $end
$var wire 1 W! ULA|Mux4~0_combout $end
$var wire 1 X! ULA|Add0~7 $end
$var wire 1 Y! ULA|Add0~8_combout $end
$var wire 1 Z! ULA|Mux3~0_combout $end
$var wire 1 [! ULA|Add0~9 $end
$var wire 1 \! ULA|Add0~10_combout $end
$var wire 1 ]! ULA|Mux2~0_combout $end
$var wire 1 ^! ULA|Add0~11 $end
$var wire 1 _! ULA|Add0~12_combout $end
$var wire 1 `! ULA|Mux1~0_combout $end
$var wire 1 a! ULA|Add0~13 $end
$var wire 1 b! ULA|Add0~14_combout $end
$var wire 1 c! ULA|Mux0~0_combout $end
$var wire 1 d! REG_PC|count[3]~15 $end
$var wire 1 e! REG_PC|count[4]~16_combout $end
$var wire 1 f! REG_PC|count[4]~17 $end
$var wire 1 g! REG_PC|count[5]~18_combout $end
$var wire 1 h! REG_PC|count[5]~19 $end
$var wire 1 i! REG_PC|count[6]~20_combout $end
$var wire 1 j! ~GND~combout $end
$var wire 1 k! REG_PC|count[6]~21 $end
$var wire 1 l! REG_PC|count[7]~22_combout $end
$var wire 1 m! REG_RI|q [7] $end
$var wire 1 n! REG_RI|q [6] $end
$var wire 1 o! REG_RI|q [5] $end
$var wire 1 p! REG_RI|q [4] $end
$var wire 1 q! REG_RI|q [3] $end
$var wire 1 r! REG_RI|q [2] $end
$var wire 1 s! REG_RI|q [1] $end
$var wire 1 t! REG_RI|q [0] $end
$var wire 1 u! REG_REM|q [7] $end
$var wire 1 v! REG_REM|q [6] $end
$var wire 1 w! REG_REM|q [5] $end
$var wire 1 x! REG_REM|q [4] $end
$var wire 1 y! REG_REM|q [3] $end
$var wire 1 z! REG_REM|q [2] $end
$var wire 1 {! REG_REM|q [1] $end
$var wire 1 |! REG_REM|q [0] $end
$var wire 1 }! REG_PC|count [7] $end
$var wire 1 ~! REG_PC|count [6] $end
$var wire 1 !" REG_PC|count [5] $end
$var wire 1 "" REG_PC|count [4] $end
$var wire 1 #" REG_PC|count [3] $end
$var wire 1 $" REG_PC|count [2] $end
$var wire 1 %" REG_PC|count [1] $end
$var wire 1 &" REG_PC|count [0] $end
$var wire 1 '" TIMER|qs [2] $end
$var wire 1 (" TIMER|qs [1] $end
$var wire 1 )" TIMER|qs [0] $end
$var wire 1 *" REG_RDM|q [7] $end
$var wire 1 +" REG_RDM|q [6] $end
$var wire 1 ," REG_RDM|q [5] $end
$var wire 1 -" REG_RDM|q [4] $end
$var wire 1 ." REG_RDM|q [3] $end
$var wire 1 /" REG_RDM|q [2] $end
$var wire 1 0" REG_RDM|q [1] $end
$var wire 1 1" REG_RDM|q [0] $end
$var wire 1 2" REG_AC|q [7] $end
$var wire 1 3" REG_AC|q [6] $end
$var wire 1 4" REG_AC|q [5] $end
$var wire 1 5" REG_AC|q [4] $end
$var wire 1 6" REG_AC|q [3] $end
$var wire 1 7" REG_AC|q [2] $end
$var wire 1 8" REG_AC|q [1] $end
$var wire 1 9" REG_AC|q [0] $end
$upscope $end
$upscope $end
$enddefinitions $end
#0
$dumpvars
0!
x)
x(
x'
x&
x%
x$
x#
x"
x*
x+
x.
x-
x,
x6
x5
x4
x3
x2
x1
x0
x/
x>
x=
x<
x;
x:
x9
08
07
xF
xE
xD
xC
0B
0A
0@
0?
xN
xM
xL
xK
xJ
xI
0H
0G
xO
0P
1Q
xR
1S
1T
1U
xV
xW
xX
xY
xZ
x[
x\
x]
x^
x_
x`
xa
xb
xc
xd
xe
xf
xg
xh
xi
xj
xk
xl
0m
0n
0o
0p
xq
xr
xs
xt
xu
xv
0w
0x
xy
xz
x{
x|
x}
x~
0!!
0"!
x#!
x$!
0%!
x&!
x'!
x(!
x)!
x*!
x+!
x,!
x-!
x.!
x/!
x0!
x1!
x2!
x3!
x4!
x5!
x6!
x7!
x8!
x9!
x:!
x;!
x<!
x=!
x>!
x?!
x@!
xA!
xB!
xC!
xD!
xE!
xF!
xG!
xH!
xI!
xJ!
xK!
xL!
xM!
xN!
xO!
xP!
xQ!
xR!
xS!
xT!
xU!
xV!
xW!
xX!
xY!
xZ!
x[!
x\!
x]!
x^!
x_!
x`!
xa!
xb!
xc!
xd!
xe!
xf!
xg!
xh!
xi!
0j!
xk!
xl!
0t!
0s!
0r!
0q!
0p!
0o!
zn!
zm!
0|!
0{!
0z!
0y!
zx!
zw!
zv!
zu!
0&"
0%"
0$"
0#"
0""
0!"
0~!
0}!
0)"
0("
0'"
01"
00"
0/"
z."
0-"
0,"
z+"
z*"
09"
08"
07"
06"
05"
04"
03"
02"
$end
#463
0*!
#466
08!
#484
03!
#489
0K!
#561
0<!
#564
0H!
#591
0F!
#595
09!
#597
0D!
#659
0O!
#660
0f!
#661
0k!
#664
0a!
#674
0B!
#678
0>!
#701
0)!
#703
07!
#714
0J!
#715
0M!
16!
#744
0.!
#769
0/!
#778
0(!
#779
0;!
#780
0U!
#783
1^!
#784
1R!
#788
1h!
#795
0[!
1@!
#798
1d!
1X!
#827
0c!
#828
0N!
#834
02!
#869
0+!
#903
0:!
#1039
0Z!
#1054
1E!
#1057
0`!
#1058
04!
#1074
0,!
#1094
0W!
#1095
0T!
0Q!
#1096
0P!
#1097
0g!
#1098
0l!
#1101
0b!
#1111
0C!
#1115
0?!
#1118
0]!
#1209
1&!
#1217
0V!
#1220
0_!
#1221
0S!
#1225
0i!
#1232
0A!
0\!
#1235
0Y!
0e!
#1327
0L!
#1350
0=!
#1388
10!
#1586
0G!
#1617
0I!
#1739
0'!
#1920
05!
#1923
0-!
#2147
11!
#3497
0q
0>
#3515
0Z
0(
#3520
0]
0%
#3526
0i
0F
#3527
0r
0=
#3573
0v
09
#3603
0l
0C
#3661
0|
0K
#3690
0~
0I
#3760
0z
0M
#3770
0u
0:
#3787
0\
0&
#3797
0}
0J
#3806
0k
0D
#3817
0W
0-
#3858
0[
0'
#3886
0Y
0)
#3922
0X
0,
#3948
0f
01
#3954
0{
0L
#3969
0y
0N
#4032
0b
05
#4039
0a
06
#4063
0h
0/
#4085
0e
02
#4105
0^
0$
#4129
0j
0E
#4180
0`
0"
#4188
0_
0#
#4206
0d
03
#4250
0s
0<
#4303
0V
0.
#4385
0$!
0*
#4432
0t
0;
#4499
0c
04
#4766
0g
00
#5176
0#!
0+
#10000
1!
0O
#10545
1%!
#12144
1)"
#12527
00!
#12537
1*!
#13021
1=!
#13119
1,!
#13259
01!
#13329
0&!
#13676
1I!
#13837
1'!
#13961
1-!
#15826
1,"
#16364
1F!
#16467
1\!
#16486
1V
1.
#16810
1]!
#16886
1#!
1+
#19440
1v
19
#20000
0!
1O
#20718
0%!
#30000
1!
0O
#30545
1%!
#32144
1("
0)"
#32551
1(!
#32553
1/!
#32607
0*!
#32617
10!
#32759
1J!
#32790
1)!
#32824
0'!
#33098
0=!
#33134
14!
#33139
00!
#33218
0,!
#33353
1&!
#33417
1=!
#33685
1G!
#33730
0("
#33761
0I!
#33893
1'!
#33912
0(!
#33988
15!
#34067
0-!
#34079
0J!
#34144
1o!
#34219
0/!
#34431
0)!
#34507
0'!
#34788
04!
#34838
10!
#34973
1+!
#35080
0=!
#35316
0G!
#35597
11!
#35650
05!
#35845
1&"
#36375
17!
#36447
0V
0.
#36501
06!
#36578
1>!
#37033
1?!
#37463
1|!
#37866
18!
#37889
1~
1I
#38330
0E!
#38332
1:!
#38906
0#!
0+
#39925
1a
16
#40000
0!
1O
#40718
0%!
#41046
1i
1F
#50000
1!
0O
#50545
1%!
#52144
1)"
#52527
0+!
00!
#52537
1*!
#53021
1=!
#53119
1,!
#53259
01!
#53329
0&!
#53676
1I!
#53837
1'!
#53961
1-!
#55826
1/"
10"
0,"
#56417
0F!
#56456
1S!
#56474
1P!
#56482
1V!
#56486
1V
1.
#56549
0\!
#56845
1T!
1W!
#56854
1Q!
#56882
0]!
#56886
1#!
1+
#59389
1r
1=
#59399
0v
09
#60000
0!
1O
#60129
1s
1<
#60268
1t
1;
#60718
0%!
#70000
1!
0O
#70545
1%!
#72144
1("
0)"
#72551
1(!
#72553
1/!
#72607
0*!
#72617
1+!
10!
#72790
1)!
#72793
1.!
#72824
0'!
#73098
0=!
#73134
14!
#73139
00!
#73218
0,!
#73353
1&!
#73417
1=!
#73685
1G!
#73761
0I!
#73893
1'!
#73912
0(!
#73988
15!
#74067
0-!
#74144
0o!
#75012
0.!
#75013
0+!
#75549
1s!
1r!
1q!
#75845
0&"
1%"
#76006
1W
1-
#76415
07!
#76439
0@!
#76447
0V
0.
#76482
1;!
#76492
0?!
#76523
0>!
#76531
1$!
1*
#76560
16!
#76581
1@!
#76978
1?!
#77834
0~
0I
#79231
1|
1K
#79355
1z
1M
#79517
1{
1L
#79884
0a
06
#79910
1b
15
#80000
0!
1O
#80718
0%!
#90000
1!
0O
#90545
1%!
#92144
1)"
#92811
0)!
#93168
04!
#93329
0&!
#93460
0=!
#93676
1I!
#93696
0G!
#93827
0'!
#93839
1(!
#93980
1J!
#94030
05!
#94951
0)"
0("
#95436
0(!
#95440
0/!
#95665
0J!
#95714
1'!
#96059
10!
#96160
1&!
#96486
1V
1.
#96495
0$!
0*
#96568
0I!
#96690
0'!
#96818
11!
#97286
0#!
0+
#98684
0|!
1{!
#98768
0W
0-
#99150
08!
#99159
1H!
#99254
0V
0.
#99587
0:!
1E!
#100000
0!
1O
#100718
0%!
#102210
0i
0F
#102840
1j
1E
#110000
1!
0O
#110545
1%!
#112144
1)"
#112527
00!
#112537
1*!
#113021
1=!
#113119
1,!
#113259
01!
#113329
0&!
#113676
1I!
#113837
1'!
#113961
1-!
#115826
0/"
00"
1,"
1-"
#116364
1F!
#116467
1\!
#116486
1V
1.
#116527
0S!
#116547
0P!
#116558
0V!
#116602
1Y!
#116810
1]!
#116830
1Z!
#116886
1#!
1+
#116920
0W!
#116921
0Q!
0T!
#119353
0r
0=
#119440
1v
19
#119648
1u
1:
#120000
0!
1O
#120076
0s
0<
#120258
0t
0;
#120718
0%!
#130000
1!
0O
#130545
1%!
#132144
1("
0)"
#132551
1(!
#132553
1/!
#132607
0*!
#132617
10!
#132759
1J!
#132790
1)!
#132824
0'!
#133098
0=!
#133134
14!
#133139
00!
#133218
0,!
#133353
1&!
#133417
1=!
#133685
1G!
#133730
0("
#133761
0I!
#133893
1'!
#133912
0(!
#133988
15!
#134067
0-!
#134079
0J!
#134144
1o!
#134219
0/!
#134431
0)!
#134507
0'!
#134788
04!
#134838
10!
#134973
1+!
#135080
0=!
#135316
0G!
#135597
11!
#135650
05!
#135845
1&"
#136375
17!
#136447
0V
0.
#136501
06!
#136578
1>!
#136636
0@!
#137015
0?!
#137091
1A!
#137463
1|!
#137855
0H!
#137861
1<!
#137866
18!
#137889
1~
1I
#138330
0E!
#138332
1:!
#138906
0#!
0+
#139925
1a
16
#140000
0!
1O
#140718
0%!
#141046
1i
1F
#150000
1!
0O
#150545
1%!
#152144
1)"
#152527
0+!
00!
#152537
1*!
#153021
1=!
#153119
1,!
#153259
01!
#153329
0&!
#153676
1I!
#153837
1'!
#153961
1-!
#155826
1/"
10"
11"
0,"
0-"
#156417
0F!
#156437
1M!
#156456
1S!
#156474
1P!
#156482
1V!
#156486
1V
1.
#156549
0\!
#156655
0Y!
#156810
1N!
#156845
1T!
1W!
#156854
1Q!
#156865
0Z!
#156882
0]!
#156886
1#!
1+
#159360
1q
1>
#159389
1r
1=
#159399
0v
09
#159596
0u
0:
#160000
0!
1O
#160129
1s
1<
#160268
1t
1;
#160718
0%!
#170000
1!
0O
#170545
1%!
#172144
1("
0)"
#172551
1(!
#172553
1/!
#172607
0*!
#172617
1+!
10!
#172790
1)!
#172793
1.!
#172824
0'!
#173098
0=!
#173134
14!
#173139
00!
#173218
0,!
#173353
1&!
#173417
1=!
#173685
1G!
#173761
0I!
#173893
1'!
#173912
0(!
#173988
15!
#174067
0-!
#174144
0o!
#175012
0.!
#175013
0+!
#175549
1t!
#175845
0&"
0%"
1$"
#176006
1W
1-
#176415
07!
#176447
0V
0.
#176482
19!
#176492
0A!
#176523
0>!
#176531
1$!
1*
#176558
0;!
#176560
16!
#176561
1B!
#176640
1@!
#176698
0B!
#177095
1A!
#177834
0~
0I
#179530
1y
1N
#179877
0b
05
#179884
0a
06
#180000
0!
1O
#180348
1c
14
#180718
0%!
#190000
1!
0O
#190545
1%!
#192144
1)"
#192811
0)!
#193168
04!
#193329
0&!
#193460
0=!
#193676
1I!
#193696
0G!
#193827
0'!
#193839
1(!
#193980
1J!
#194030
05!
#194951
0)"
0("
#195436
0(!
#195440
0/!
#195665
0J!
#195714
1'!
#196059
10!
#196160
1&!
#196486
1V
1.
#196495
0$!
0*
#196568
0I!
#196690
0'!
#196818
11!
#197286
0#!
0+
#198684
0|!
1z!
0{!
#198768
0W
0-
#199254
0V
0.
#199283
08!
#199307
0<!
#199400
0:!
#200000
0!
1O
#200718
0%!
#202210
0i
0F
#202537
1k
1D
#202813
0j
0E
#210000
1!
0O
#210545
1%!
#212144
1)"
#212527
00!
#212537
1*!
#213021
1=!
#213119
1,!
#213259
01!
#213329
0&!
#213676
1I!
#213837
1'!
#213961
1-!
#215826
0/"
00"
01"
#216486
1V
1.
#216527
0S!
#216536
0M!
#216547
0P!
#216558
0V!
#216879
0N!
#216886
1#!
1+
#216920
0W!
#216921
0Q!
0T!
#219323
0q
0>
#219353
0r
0=
#220000
0!
1O
#220076
0s
0<
#220258
0t
0;
#220718
0%!
#230000
1!
0O
#230545
1%!
#232144
1("
0)"
#232551
1(!
#232553
1/!
#232607
0*!
#232617
10!
#232759
1J!
#232790
1)!
#232824
0'!
#233098
0=!
#233134
14!
#233139
00!
#233218
0,!
#233353
1&!
#233417
1=!
#233685
1G!
#233730
0("
#233761
0I!
#233893
1'!
#233912
0(!
#233988
15!
#234067
0-!
#234079
0J!
#234219
0/!
#234431
0)!
#234507
0'!
#234788
04!
#234838
10!
#235080
0=!
#235316
0G!
#235597
11!
#235650
05!
#235845
1&"
#236375
17!
#236447
0V
0.
#236501
06!
#236578
1>!
#237033
1?!
#237463
1|!
#238906
0#!
0+
#239925
1a
16
#240000
0!
1O
#240718
0%!
#241046
1i
1F
#250000
1!
0O
#250545
1%!
#252144
1)"
#252527
00!
#252537
1*!
#253021
1=!
#253119
1,!
#253259
01!
#253329
0&!
#253676
1I!
#253837
1'!
#253961
1-!
#256486
1V
1.
#256886
1#!
1+
#260000
0!
1O
#260718
0%!
#270000
1!
0O
#270545
1%!
#272144
1("
0)"
#272551
1(!
#272553
1/!
#272607
0*!
#272617
10!
#272759
1J!
#272790
1)!
#272824
0'!
#273098
0=!
#273134
14!
#273139
00!
#273218
0,!
#273353
1&!
#273417
1=!
#273685
1G!
#273730
0("
#273761
0I!
#273893
1'!
#273912
0(!
#273988
15!
#274067
0-!
#274079
0J!
#274219
0/!
#274431
0)!
#274507
0'!
#274788
04!
#274838
10!
#275080
0=!
#275316
0G!
#275597
11!
#275650
05!
#275845
0&"
1%"
#276415
07!
#276439
0@!
#276447
0V
0.
#276482
1;!
#276492
0?!
#276497
1B!
#276523
0>!
#276560
16!
#276581
1@!
#276639
0B!
#276978
1?!
#277463
0|!
1{!
#278906
0#!
0+
#279884
0a
06
#279910
1b
15
#280000
0!
1O
#280718
0%!
#280989
0i
0F
#281619
1j
1E
#290000
1!
0O
#290545
1%!
#292144
1)"
#292527
00!
#292537
1*!
#293021
1=!
#293119
1,!
#293259
01!
#293329
0&!
#293676
1I!
#293837
1'!
#293961
1-!
#296486
1V
1.
#296886
1#!
1+
#300000
0!
1O
#300718
0%!
#310000
1!
0O
#310545
1%!
#312144
1("
0)"
#312551
1(!
#312553
1/!
#312607
0*!
#312617
10!
#312759
1J!
#312790
1)!
#312824
0'!
#313098
0=!
#313134
14!
#313139
00!
#313218
0,!
#313353
1&!
#313417
1=!
#313685
1G!
#313730
0("
#313761
0I!
#313893
1'!
#313912
0(!
#313988
15!
#314067
0-!
#314079
0J!
#314219
0/!
#314431
0)!
#314507
0'!
#314788
04!
#314838
10!
#315080
0=!
#315316
0G!
#315597
11!
#315650
05!
#315845
1&"
#316375
17!
#316447
0V
0.
#316501
06!
#316578
1>!
#316636
0@!
#316694
1B!
#317015
0?!
#317073
0A!
#317149
1C!
#317463
1|!
#318906
0#!
0+
#319925
1a
16
#320000
0!
1O
#320718
0%!
#321046
1i
1F
#330000
1!
0O
#330545
1%!
#332144
1)"
#332527
00!
#332537
1*!
#333021
1=!
#333119
1,!
#333259
01!
#333329
0&!
#333676
1I!
#333837
1'!
#333961
1-!
#336486
1V
1.
#336886
1#!
1+
#340000
0!
1O
#340718
0%!
#350000
1!
0O
#350545
1%!
#352144
1("
0)"
#352551
1(!
#352553
1/!
#352607
0*!
#352617
10!
#352759
1J!
#352790
1)!
#352824
0'!
#353098
0=!
#353134
14!
#353139
00!
#353218
0,!
#353353
1&!
#353417
1=!
#353685
1G!
#353730
0("
#353761
0I!
#353893
1'!
#353912
0(!
#353988
15!
#354067
0-!
#354079
0J!
#354219
0/!
#354431
0)!
#354507
0'!
#354788
04!
#354838
10!
#355080
0=!
#355316
0G!
#355597
11!
#355650
05!
#355845
0&"
0%"
0$"
1#"
#356336
1D!
#356415
07!
#356438
0d!
#356447
0V
0.
#356493
0C!
#356519
0B!
#356523
0>!
#356558
1A!
09!
0;!
#356560
16!
#356577
1d!
#356640
1@!
#356974
1C!
#357077
0A!
#357463
0|!
0z!
0{!
1y!
#358906
0#!
0+
#359877
0b
05
#359884
0a
06
#360000
0!
1O
#360094
1d
13
#360344
0c
04
#360718
0%!
#360989
0i
0F
#361143
1l
1C
#361269
0k
0D
#361592
0j
0E
#370000
1!
0O
#370545
1%!
#372144
1)"
#372527
00!
#372537
1*!
#373021
1=!
#373119
1,!
#373259
01!
#373329
0&!
#373676
1I!
#373837
1'!
#373961
1-!
#376486
1V
1.
#376886
1#!
1+
#380000
0!
1O
#380718
0%!
#390000
1!
0O
#390545
1%!
#392144
1("
0)"
#392551
1(!
#392553
1/!
#392607
0*!
#392617
10!
#392759
1J!
#392790
1)!
#392824
0'!
#393098
0=!
#393134
14!
#393139
00!
#393218
0,!
#393353
1&!
#393417
1=!
#393685
1G!
#393730
0("
#393761
0I!
#393893
1'!
#393912
0(!
#393988
15!
#394067
0-!
#394079
0J!
#394219
0/!
#394431
0)!
#394507
0'!
#394788
04!
#394838
10!
#395080
0=!
#395316
0G!
#395597
11!
#395650
05!
#395845
1&"
#396375
17!
#396447
0V
0.
#396501
06!
#396578
1>!
#397033
1?!
#397463
1|!
#398906
0#!
0+
#399925
1a
16
#400000
0!
1O
#400718
0%!
#401046
1i
1F
#410000
1!
0O
#410545
1%!
#412144
1)"
#412527
00!
#412537
1*!
#413021
1=!
#413119
1,!
#413259
01!
#413329
0&!
#413676
1I!
#413837
1'!
#413961
1-!
#416486
1V
1.
#416886
1#!
1+
#420000
0!
1O
#420718
0%!
#430000
1!
0O
#430545
1%!
#432144
1("
0)"
#432551
1(!
#432553
1/!
#432607
0*!
#432617
10!
#432759
1J!
#432790
1)!
#432824
0'!
#433098
0=!
#433134
14!
#433139
00!
#433218
0,!
#433353
1&!
#433417
1=!
#433685
1G!
#433730
0("
#433761
0I!
#433893
1'!
#433912
0(!
#433988
15!
#434067
0-!
#434079
0J!
#434219
0/!
#434431
0)!
#434507
0'!
#434788
04!
#434838
10!
#435080
0=!
#435316
0G!
#435597
11!
#435650
05!
#435845
0&"
1%"
#436415
07!
#436439
0@!
#436447
0V
0.
#436482
1;!
#436492
0?!
#436523
0>!
#436560
16!
#436581
1@!
#436978
1?!
#437463
0|!
1{!
#438906
0#!
0+
#439884
0a
06
#439910
1b
15
#440000
0!
1O
#440718
0%!
#440989
0i
0F
#441619
1j
1E
#450000
1!
0O
#450545
1%!
#452144
1)"
#452527
00!
#452537
1*!
#453021
1=!
#453119
1,!
#453259
01!
#453329
0&!
#453676
1I!
#453837
1'!
#453961
1-!
#456486
1V
1.
#456886
1#!
1+
#460000
0!
1O
#460718
0%!
#470000
1!
0O
#470545
1%!
#472144
1("
0)"
#472551
1(!
#472553
1/!
#472607
0*!
#472617
10!
#472759
1J!
#472790
1)!
#472824
0'!
#473098
0=!
#473134
14!
#473139
00!
#473218
0,!
#473353
1&!
#473417
1=!
#473685
1G!
#473730
0("
#473761
0I!
#473893
1'!
#473912
0(!
#473988
15!
#474067
0-!
#474079
0J!
#474219
0/!
#474431
0)!
#474507
0'!
#474788
04!
#474838
10!
#475080
0=!
#475316
0G!
#475597
11!
#475650
05!
#475845
1&"
#476375
17!
#476447
0V
0.
#476501
06!
#476578
1>!
#476636
0@!
#477015
0?!
#477091
1A!
#477463
1|!
#478906
0#!
0+
#479925
1a
16
#480000
0!
1O
#480718
0%!
#481046
1i
1F
#490000
1!
0O
#490545
1%!
#492144
1)"
#492527
00!
#492537
1*!
#493021
1=!
#493119
1,!
#493259
01!
#493329
0&!
#493676
1I!
#493837
1'!
#493961
1-!
#496486
1V
1.
#496886
1#!
1+
#500000
0!
1O
#500718
0%!
#510000
1!
0O
#510545
1%!
#512144
1("
0)"
#512551
1(!
#512553
1/!
#512607
0*!
#512617
10!
#512759
1J!
#512790
1)!
#512824
0'!
#513098
0=!
#513134
14!
#513139
00!
#513218
0,!
#513353
1&!
#513417
1=!
#513685
1G!
#513730
0("
#513761
0I!
#513893
1'!
#513912
0(!
#513988
15!
#514067
0-!
#514079
0J!
#514219
0/!
#514431
0)!
#514507
0'!
#514788
04!
#514838
10!
#515080
0=!
#515316
0G!
#515597
11!
#515650
05!
#515845
0&"
0%"
1$"
#516415
07!
#516447
0V
0.
#516482
19!
#516492
0A!
#516523
0>!
#516558
0;!
#516560
16!
#516561
1B!
#516619
0d!
#516640
1@!
#516698
0B!
#516756
1d!
#517095
1A!
#517463
0|!
1z!
0{!
#518906
0#!
0+
#519877
0b
05
#519884
0a
06
#520000
0!
1O
#520348
1c
14
#520718
0%!
#520989
0i
0F
#521316
1k
1D
#521592
0j
0E
#530000
1!
0O
#530545
1%!
#532144
1)"
#532527
00!
#532537
1*!
#533021
1=!
#533119
1,!
#533259
01!
#533329
0&!
#533676
1I!
#533837
1'!
#533961
1-!
#536486
1V
1.
#536886
1#!
1+
#540000
0!
1O
#540718
0%!
#550000
1!
0O
#550545
1%!
#552144
1("
0)"
#552551
1(!
#552553
1/!
#552607
0*!
#552617
10!
#552759
1J!
#552790
1)!
#552824
0'!
#553098
0=!
#553134
14!
#553139
00!
#553218
0,!
#553353
1&!
#553417
1=!
#553685
1G!
#553730
0("
#553761
0I!
#553893
1'!
#553912
0(!
#553988
15!
#554067
0-!
#554079
0J!
#554219
0/!
#554431
0)!
#554507
0'!
#554788
04!
#554838
10!
#555080
0=!
#555316
0G!
#555597
11!
#555650
05!
#555845
1&"
#556375
17!
#556447
0V
0.
#556501
06!
#556578
1>!
#557033
1?!
#557463
1|!
#558906
0#!
0+
#559925
1a
16
#560000
0!
1O
#560718
0%!
#561046
1i
1F
#570000
1!
0O
#570545
1%!
#572144
1)"
#572527
00!
