simulation/qsim/neander_top.msim.vcd
$comment
	File created using the following command:
		vcd file neander_top.msim.vcd -direction
$end
$date
	Sat Oct 14 11:51:33 2023
$end
$version
	ModelSim Version 10.5b
$end
$timescale
	1ps
$end

$scope module neander_top_vlg_vec_tst $end
$var reg 1 ! mclk $end
$var wire 1 " AC_out [7] $end
$var wire 1 # AC_out [6] $end
$var wire 1 $ AC_out [5] $end
$var wire 1 % AC_out [4] $end
$var wire 1 & AC_out [3] $end
$var wire 1 ' AC_out [2] $end
$var wire 1 ( AC_out [1] $end
$var wire 1 ) AC_out [0] $end
$var wire 1 * cargaPC $end
$var wire 1 + incPC $end
$var wire 1 , INSTR_time [2] $end
$var wire 1 - INSTR_time [1] $end
$var wire 1 . INSTR_time [0] $end
$var wire 1 / PC_out [7] $end
$var wire 1 0 PC_out [6] $end
$var wire 1 1 PC_out [5] $end
$var wire 1 2 PC_out [4] $end
$var wire 1 3 PC_out [3] $end
$var wire 1 4 PC_out [2] $end
$var wire 1 5 PC_out [1] $end
$var wire 1 6 PC_out [0] $end
$var wire 1 7 RDM_out [7] $end
$var wire 1 8 RDM_out [6] $end
$var wire 1 9 RDM_out [5] $end
$var wire 1 : RDM_out [4] $end
$var wire 1 ; RDM_out [3] $end
$var wire 1 < RDM_out [2] $end
$var wire 1 = RDM_out [1] $end
$var wire 1 > RDM_out [0] $end
$var wire 1 ? REM_out [7] $end
$var wire 1 @ REM_out [6] $end
$var wire 1 A REM_out [5] $end
$var wire 1 B REM_out [4] $end
$var wire 1 C REM_out [3] $end
$var wire 1 D REM_out [2] $end
$var wire 1 E REM_out [1] $end
$var wire 1 F REM_out [0] $end
$var wire 1 G RI_out [7] $end
$var wire 1 H RI_out [6] $end
$var wire 1 I RI_out [5] $end
$var wire 1 J RI_out [4] $end
$var wire 1 K RI_out [3] $end
$var wire 1 L RI_out [2] $end
$var wire 1 M RI_out [1] $end
$var wire 1 N RI_out [0] $end
$var wire 1 O sampler $end

$scope module i1 $end
$var wire 1 P gnd $end
$var wire 1 Q vcc $end
$var wire 1 R unknown $end
$var tri1 1 S devclrn $end
$var tri1 1 T devpor $end
$var tri1 1 U devoe $end
$var wire 1 V INSTR_time[0]~output_o $end
$var wire 1 W INSTR_time[1]~output_o $end
$var wire 1 X INSTR_time[2]~output_o $end
$var wire 1 Y AC_out[0]~output_o $end
$var wire 1 Z AC_out[1]~output_o $end
$var wire 1 [ AC_out[2]~output_o $end
$var wire 1 \ AC_out[3]~output_o $end
$var wire 1 ] AC_out[4]~output_o $end
$var wire 1 ^ AC_out[5]~output_o $end
$var wire 1 _ AC_out[6]~output_o $end
$var wire 1 ` AC_out[7]~output_o $end
$var wire 1 a PC_out[0]~output_o $end
$var wire 1 b PC_out[1]~output_o $end
$var wire 1 c PC_out[2]~output_o $end
$var wire 1 d PC_out[3]~output_o $end
$var wire 1 e PC_out[4]~output_o $end
$var wire 1 f PC_out[5]~output_o $end
$var wire 1 g PC_out[6]~output_o $end
$var wire 1 h PC_out[7]~output_o $end
$var wire 1 i REM_out[0]~output_o $end
$var wire 1 j REM_out[1]~output_o $end
$var wire 1 k REM_out[2]~output_o $end
$var wire 1 l REM_out[3]~output_o $end
$var wire 1 m REM_out[4]~output_o $end
$var wire 1 n REM_out[5]~output_o $end
$var wire 1 o REM_out[6]~output_o $end
$var wire 1 p REM_out[7]~output_o $end
$var wire 1 q RDM_out[0]~output_o $end
$var wire 1 r RDM_out[1]~output_o $end
$var wire 1 s RDM_out[2]~output_o $end
$var wire 1 t RDM_out[3]~output_o $end
$var wire 1 u RDM_out[4]~output_o $end
$var wire 1 v RDM_out[5]~output_o $end
$var wire 1 w RDM_out[6]~output_o $end
$var wire 1 x RDM_out[7]~output_o $end
$var wire 1 y RI_out[0]~output_o $end
$var wire 1 z RI_out[1]~output_o $end
$var wire 1 { RI_out[2]~output_o $end
$var wire 1 | RI_out[3]~output_o $end
$var wire 1 } RI_out[4]~output_o $end
$var wire 1 ~ RI_out[5]~output_o $end
$var wire 1 !! RI_out[6]~output_o $end
$var wire 1 "! RI_out[7]~output_o $end
$var wire 1 #! incPC~output_o $end
$var wire 1 $! cargaPC~output_o $end
$var wire 1 %! mclk~input_o $end
$var wire 1 &! TIMER|qs[0]~2_combout $end
$var wire 1 '! TIMER|qs[1]~0_combout $end
$var wire 1 (! TIMER|qs[2]~1_combout $end
$var wire 1 )! TIMER_DECODER|Mux5~combout $end
$var wire 1 *! INSTR_DECODER|Mux7~0_combout $end
$var wire 1 +! CU|carga_PC~1_combout $end
$var wire 1 ,! CU|carga_PC~0_combout $end
$var wire 1 -! CU|carga_PC~combout $end
$var wire 1 .! CU|carga_PC~clkctrl_outclk $end
$var wire 1 /! REG_PC|count[0]~8_combout $end
$var wire 1 0! MEM|Mux7~0_combout $end
$var wire 1 1! CU|inc_PC~2_combout $end
$var wire 1 2! CU|inc_PC~3_combout $end
$var wire 1 3! CU|inc_PC~4_combout $end
$var wire 1 4! REG_PC|count[0]~9 $end
$var wire 1 5! REG_PC|count[1]~10_combout $end
$var wire 1 6! MULTIPLEX|y[1]~1_combout $end
$var wire 1 7! MEM|Mux6~0_combout $end
$var wire 1 8! REG_PC|count[1]~11 $end
$var wire 1 9! REG_PC|count[2]~12_combout $end
$var wire 1 :! MULTIPLEX|y[2]~2_combout $end
$var wire 1 ;! MEM|Mux3~0_combout $end
$var wire 1 <! REG_RDM|q[4]~feeder_combout $end
$var wire 1 =! CU|inc_PC~1_combout $end
$var wire 1 >! CU|inc_PC~0_combout $end
$var wire 1 ?! CU|carga_RDM~0_combout $end
$var wire 1 @! MULTIPLEX|y[0]~0_combout $end
$var wire 1 A! MEM|Mux0~0_combout $end
$var wire 1 B! REG_RDM|q[7]~feeder_combout $end
$var wire 1 C! CU|carga_REM~0_combout $end
$var wire 1 D! CU|carga_REM~combout $end
$var wire 1 E! CU|carga_REM~clkctrl_outclk $end
$var wire 1 F! REG_PC|count[2]~13 $end
$var wire 1 G! REG_PC|count[3]~14_combout $end
$var wire 1 H! MULTIPLEX|y[3]~3_combout $end
$var wire 1 I! MEM|Mux2~0_combout $end
$var wire 1 J! REG_RDM|q[5]~feeder_combout $end
$var wire 1 K! INSTR_DECODER|Mux8~0_combout $end
$var wire 1 L! CU|carga_RDM~1_combout $end
$var wire 1 M! CU|carga_RDM~combout $end
$var wire 1 N! CU|carga_RDM~clkctrl_outclk $end
$var wire 1 O! MEM|Mux1~0_combout $end
$var wire 1 P! REG_RDM|q[6]~feeder_combout $end
$var wire 1 Q! CU|goto_t0~0_combout $end
$var wire 1 R! CU|goto_t0~1_combout $end
$var wire 1 S! CU|goto_t0~2_combout $end
$var wire 1 T! CU|carga_AC~0_combout $end
$var wire 1 U! CU|carga_AC~1_combout $end
$var wire 1 V! CU|carga_AC~combout $end
$var wire 1 W! CU|carga_AC~clkctrl_outclk $end
$var wire 1 X! REG_AC|q[0]~8_combout $end
$var wire 1 Y! CU|s[2]~1_combout $end
$var wire 1 Z! CU|s[2]~0_combout $end
$var wire 1 [! ULA|Mux7~0_combout $end
$var wire 1 \! CU|s[1]~2_combout $end
$var wire 1 ]! CU|s[1]~3_combout $end
$var wire 1 ^! REG_AC|q[0]~9 $end
$var wire 1 _! REG_AC|q[1]~10_combout $end
$var wire 1 `! ULA|Mux6~0_combout $end
$var wire 1 a! REG_AC|q[1]~11 $end
$var wire 1 b! REG_AC|q[2]~12_combout $end
$var wire 1 c! ULA|Mux5~0_combout $end
$var wire 1 d! REG_AC|q[2]~13 $end
$var wire 1 e! REG_AC|q[3]~14_combout $end
$var wire 1 f! ULA|Mux4~0_combout $end
$var wire 1 g! REG_AC|q[3]~15 $end
$var wire 1 h! REG_AC|q[4]~16_combout $end
$var wire 1 i! ULA|Mux3~0_combout $end
$var wire 1 j! REG_AC|q[4]~17 $end
$var wire 1 k! REG_AC|q[5]~18_combout $end
$var wire 1 l! ULA|Mux2~0_combout $end
$var wire 1 m! REG_AC|q[5]~19 $end
$var wire 1 n! REG_AC|q[6]~20_combout $end
$var wire 1 o! ULA|Mux1~0_combout $end
$var wire 1 p! REG_AC|q[6]~21 $end
$var wire 1 q! REG_AC|q[7]~22_combout $end
$var wire 1 r! ULA|Mux0~0_combout $end
$var wire 1 s! REG_PC|count[3]~15 $end
$var wire 1 t! REG_PC|count[4]~16_combout $end
$var wire 1 u! REG_PC|count[4]~17 $end
$var wire 1 v! REG_PC|count[5]~18_combout $end
$var wire 1 w! REG_PC|count[5]~19 $end
$var wire 1 x! REG_PC|count[6]~20_combout $end
$var wire 1 y! REG_PC|count[6]~21 $end
$var wire 1 z! REG_PC|count[7]~22_combout $end
$var wire 1 {! TIMER_DECODER|Mux5~clkctrl_outclk $end
$var wire 1 |! REG_RI|q[0]~feeder_combout $end
$var wire 1 }! REG_RI|q[1]~feeder_combout $end
$var wire 1 ~! REG_RI|q[2]~feeder_combout $end
$var wire 1 !" REG_RI|q[3]~feeder_combout $end
$var wire 1 "" TIMER|qs [2] $end
$var wire 1 #" TIMER|qs [1] $end
$var wire 1 $" TIMER|qs [0] $end
$var wire 1 %" REG_PC|count [7] $end
$var wire 1 &" REG_PC|count [6] $end
$var wire 1 '" REG_PC|count [5] $end
$var wire 1 (" REG_PC|count [4] $end
$var wire 1 )" REG_PC|count [3] $end
$var wire 1 *" REG_PC|count [2] $end
$var wire 1 +" REG_PC|count [1] $end
$var wire 1 ," REG_PC|count [0] $end
$var wire 1 -" REG_RDM|q [7] $end
$var wire 1 ." REG_RDM|q [6] $end
$var wire 1 /" REG_RDM|q [5] $end
$var wire 1 0" REG_RDM|q [4] $end
$var wire 1 1" REG_RDM|q [3] $end
$var wire 1 2" REG_RDM|q [2] $end
$var wire 1 3" REG_RDM|q [1] $end
$var wire 1 4" REG_RDM|q [0] $end
$var wire 1 5" REG_AC|q [7] $end
$var wire 1 6" REG_AC|q [6] $end
$var wire 1 7" REG_AC|q [5] $end
$var wire 1 8" REG_AC|q [4] $end
$var wire 1 9" REG_AC|q [3] $end
$var wire 1 :" REG_AC|q [2] $end
$var wire 1 ;" REG_AC|q [1] $end
$var wire 1 <" REG_AC|q [0] $end
$var wire 1 =" REG_RI|q [7] $end
$var wire 1 >" REG_RI|q [6] $end
$var wire 1 ?" REG_RI|q [5] $end
$var wire 1 @" REG_RI|q [4] $end
$var wire 1 A" REG_RI|q [3] $end
$var wire 1 B" REG_RI|q [2] $end
$var wire 1 C" REG_RI|q [1] $end
$var wire 1 D" REG_RI|q [0] $end
$var wire 1 E" REG_REM|q [7] $end
$var wire 1 F" REG_REM|q [6] $end
$var wire 1 G" REG_REM|q [5] $end
$var wire 1 H" REG_REM|q [4] $end
$var wire 1 I" REG_REM|q [3] $end
$var wire 1 J" REG_REM|q [2] $end
$var wire 1 K" REG_REM|q [1] $end
$var wire 1 L" REG_REM|q [0] $end
$upscope $end
$upscope $end
$enddefinitions $end
#0
$dumpvars
0!
x)
x(
x'
x&
x%
x$
x#
x"
x*
x+
x.
x-
x,
x6
x5
x4
x3
x2
x1
x0
x/
x>
x=
x<
x;
x:
x9
x8
x7
xF
xE
xD
xC
0B
0A
0@
0?
xN
xM
xL
xK
xJ
xI
xH
xG
xO
0P
1Q
xR
1S
1T
1U
xV
xW
xX
xY
xZ
x[
x\
x]
x^
x_
x`
xa
xb
xc
xd
xe
xf
xg
xh
xi
xj
xk
xl
0m
0n
0o
0p
xq
xr
xs
xt
xu
xv
xw
xx
xy
xz
x{
x|
x}
x~
x!!
x"!
x#!
x$!
0%!
x&!
x'!
x(!
x)!
x*!
x+!
x,!
x-!
x.!
x/!
x0!
x1!
x2!
x3!
x4!
x5!
x6!
x7!
x8!
x9!
x:!
x;!
x<!
x=!
x>!
x?!
x@!
xA!
xB!
xC!
xD!
xE!
xF!
xG!
xH!
xI!
xJ!
0K!
xL!
xM!
xN!
xO!
xP!
xQ!
xR!
xS!
xT!
xU!
xV!
xW!
xX!
xY!
xZ!
x[!
x\!
x]!
x^!
x_!
x`!
xa!
xb!
xc!
xd!
xe!
xf!
xg!
xh!
xi!
xj!
xk!
xl!
xm!
xn!
xo!
xp!
xq!
xr!
xs!
xt!
xu!
xv!
xw!
xx!
xy!
xz!
x{!
x|!
x}!
x~!
x!"
0$"
0#"
0""
0,"
0+"
0*"
0)"
0("
0'"
0&"
0%"
04"
03"
z2"
z1"
00"
0/"
0."
0-"
0<"
0;"
0:"
09"
08"
07"
06"
05"
0D"
0C"
0B"
0A"
0@"
0?"
0>"
0="
0L"
0K"
0J"
0I"
zH"
zG"
zF"
zE"
$end
#425
0|!
#455
0Q!
#469
0L!
#480
0)!
#483
0(!
#593
0}!
0!"
#594
0~!
#659
0y!
#660
0u!
#669
0^!
0F!
04!
#698
1I!
#704
0?!
#706
1/!
#721
0*!
#746
0=!
#751
0H!
#773
0\!
#777
1D!
#784
1w!
#790
0U!
#794
1s!
#797
18!
#807
0d!
#829
0R!
#844
01!
#874
0T!
0X!
#877
1]!
#904
0@!
#908
0Z!
#923
0>!
#935
1a!
#943
00!
#948
0A!
#970
0:!
#971
06!
#994
0j!
#1036
0O!
#1038
0,!
#1065
0Y!
#1084
1m!
#1096
0z!
#1097
0v!
#1106
05!
0G!
0_!
#1116
0-!
#1141
1g!
#1149
0S!
#1183
0;!
#1215
0{!
#1220
0p!
#1221
0x!
#1225
07!
#1231
0t!
#1234
09!
#1244
0e!
#1248
0f!
#1372
0b!
#1418
1J!
#1431
0k!
#1487
0M!
#1516
0V!
#1521
0n!
#1524
1E!
#1546
0+!
#1578
0h!
#1598
0B!
#1609
0`!
0r!
#1610
0l!
#1611
0[!
#1613
0C!
#1618
0c!
0o!
#1620
0i!
#1657
0q!
#1697
1&!
#1780
02!
#1786
0P!
#1808
0<!
#2086
0.!
#2096
03!
#2206
0N!
#2230
0W!
#2643
0'!
#3094
0w
08
#3264
0^
0$
#3283
0|
0K
#3305
0`
0"
#3309
0j
0E
#3319
0i
0F
#3364
0W
0-
#3370
0z
0M
#3482
0Z
0(
#3484
0]
0%
#3496
0x
07
#3531
0u
0:
#3572
0v
09
#3599
0"!
0G
#3621
0X
0,
#3642
0g
00
#3670
0k
0D
#3718
0d
03
#3781
0t
0;
#3787
0e
02
#3820
0r
0=
#3828
0h
0/
#3830
0s
0<
#3960
0V
0.
#3990
0}
0J
#4146
0l
0C
#4151
0b
05
#4162
0c
04
#4202
0q
0>
#4217
0!!
0H
#4274
0{
0L
#4553
0a
06
#5005
0~
0I
#5083
0$!
0*
#5679
0y
0N
#5706
0Y
0)
#5707
0\
0&
#5847
0_
0#
#5905
0[
0'
#6128
0#!
0+
#6205
0f
01
#10000
1!
0O
#10545
1%!
#13288
1$"
#13641
1Q!
#13676
0D!
#13685
1L!
#14245
1M!
#14404
0E!
#14924
0&!
#14973
12!
#14981
1N!
#15275
13!
#15854
1'!
#16826
1/"
#17321
1V
1.
#17638
1l!
#17798
1k!
#19393
1#!
1+
#20000
0!
1O
#20487
1v
19
#20718
0%!
#30000
1!
0O
#30545
1%!
#33288
1#"
0$"
#33657
0Q!
#33688
0'!
#33696
1(!
#33698
1R!
#33859
02!
#33969
0L!
#33976
1)!
#34004
1S!
#34152
1Z!
#34175
03!
#34225
0R!
#34545
0S!
#34558
0M!
#34564
1-!
#34697
13!
#34728
1{!
#34907
1?"
#34985
1&!
#35120
0Z!
#35277
0N!
#35558
1.!
#35778
1>!
#35897
0(!
#35917
1'!
#36357
1+!
#36470
1C!
#36729
1W
1-
#36774
1,!
#37248
0V
0.
#37407
1,"
#37783
1@!
#38050
0/!
#38127
14!
#38582
15!
#38656
1$!
1*
#39809
1~
1I
#40000
0!
1O
#40718
0%!
#41993
1a
16
#50000
1!
0O
#50545
1%!
#53288
1$"
#53641
1Q!
#53686
1D!
#53898
0)!
#54201
1R!
#54433
1E!
#54534
0-!
#54633
0{!
#54645
03!
#54924
0&!
#55060
1Z!
#55504
0.!
#55835
1(!
#55868
0'!
#56282
1L"
#56782
0I!
#57321
1V
1.
#57463
17!
#57520
0J!
#58501
0$!
0*
#58677
0#!
0+
#59685
1i
1F
#60000
0!
1O
#60718
0%!
#70000
1!
0O
#70545
1%!
#73288
0#"
1""
0$"
#73657
0Q!
#73775
0R!
#73785
1'!
#73798
0D!
#73926
1?!
#74016
0Z!
#74326
0,!
#74526
0E!
#74686
1M!
#74877
0@!
#74985
1&!
#75120
1Z!
#75422
1N!
#75931
0'!
#76652
0W
0-
#76961
1X
1,
#77248
0V
0.
#77266
13"
#77267
0/"
#77783
1}!
1~!
1!"
#77982
1H!
#78053
1b!
#78079
1_!
#78130
1`!
#78132
1c!
#78135
1f!
#78162
0l!
#78172
16!
1:!
#78285
0k!
#78290
1e!
#80000
0!
1O
#80718
0%!
#80839
0v
09
#81083
1t
1;
#81124
1r
1=
#81134
1s
1<
#90000
1!
0O
#90545
1%!
#93288
1$"
#93641
1Q!
#93675
0M!
#93686
1D!
#94394
0N!
#94433
1E!
#94924
0&!
#95060
0Z!
#95854
1'!
#96282
1K"
1J"
0L"
1I"
#97321
1V
1.
#97502
07!
#99601
0i
0F
#99676
1j
1E
#100000
0!
1O
#100003
1k
1D
#100504
1l
1C
#100718
0%!
#110000
1!
0O
#110545
1%!
#113288
1#"
0$"
#113657
0Q!
#113686
0(!
#113688
0'!
#113695
1V!
#113698
1R!
#113767
1M!
#113976
0D!
#114123
13!
#114132
0H!
#114141
1@!
#114153
06!
0:!
#114225
0R!
#114258
0V!
#114277
1,!
#114503
1N!
#114704
0E!
#114985
1&!
#115898
1(!
#115917
1'!
#116347
03"
#116729
1W
1-
#116940
0}!
0!"
#116941
0~!
#117185
0b!
#117216
0_!
#117248
0V
0.
#117256
0`!
#117258
0c!
#117266
0f!
#117428
0e!
#118241
1#!
1+
#120000
0!
1O
#120128
0t
0;
#120167
0r
0=
#120177
0s
0<
#120718
0%!
#130000
1!
0O
#130545
1%!
#133288
1$"
#133641
1Q!
#133675
0M!
#133688
1-!
#134201
1R!
#134224
1V!
#134394
0N!
#134682
1.!
#134924
0&!
#134953
1W!
#135834
0(!
#135868
0'!
#136531
0,"
1+"
#136907
16!
#136967
0@!
#137123
08!
#137178
05!
#137200
04!
#137237
1/!
#137258
18!
#137321
1V
1.
#137655
15!
#137780
1$!
1*
#140000
0!
1O
#140718
0%!
#140771
1b
15
#141084
0a
06
#150000
1!
0O
#150545
1%!
#153288
0#"
0""
0$"
#153657
0Q!
0-!
#153767
1M!
#153771
0V!
#153775
0R!
#153785
1'!
#153947
12!
#153992
0?!
#154065
1D!
#154236
06!
#154326
0,!
#154485
0W!
#154503
1N!
#154627
0.!
#154775
0M!
#154812
1E!
#154974
16!
#154985
1&!
#155068
02!
#155384
03!
#155494
0N!
#155931
0'!
#156652
0W
0-
#156661
0J"
0I"
#156909
0X
0,
#157115
1I!
#157248
0V
0.
#157624
0$!
0*
#157775
1;!
#157835
1J!
#158406
1<!
#159416
0#!
0+
#160000
0!
1O
#160331
0k
0D
#160718
0%!
#160807
0l
0C
#170000
1!
0O
#170545
1%!
#173288
1$"
#173641
1Q!
#173676
0D!
#173685
1L!
#174245
1M!
#174404
0E!
#174924
0&!
#174973
12!
#174981
1N!
#175275
13!
#175854
1'!
#176826
10"
1/"
#177321
1V
1.
#177589
1i!
#177638
1l!
#177796
1h!
#177798
1k!
#179393
1#!
1+
#180000
0!
1O
#180439
1u
1:
#180487
1v
19
#180718
0%!
#190000
1!
0O
#190545
1%!
#193288
1#"
0$"
#193657
0Q!
#193688
0'!
#193696
1(!
#193698
1R!
#193859
02!
#193969
0L!
#193976
1)!
#194152
1Z!
#194175
03!
#194225
0R!
#194277
1,!
#194558
0M!
#194564
1-!
#194697
13!
#194728
1{!
#194907
1@"
#194985
1&!
#195120
0Z!
#195277
0N!
#195558
1.!
#195815
1\!
#195897
0(!
#195917
1'!
#196729
1W
1-
#197248
0V
0.
#197407
1,"
#197783
1@!
#198050
0/!
#198127
14!
#198185
08!
#198564
05!
#198640
19!
#198656
1$!
1*
#198993
1}
1J
#200000
0!
1O
#200718
0%!
#201993
1a
16
#210000
1!
0O
#210545
1%!
#213288
1$"
#213641
1Q!
#213686
1D!
#213898
0)!
#214433
1E!
#214534
0-!
#214633
0{!
#214645
03!
#214924
0&!
#215060
1Z!
#215504
0.!
#215835
1(!
#215868
0'!
#216282
1L"
#216782
0I!
#217109
0;!
#217115
10!
#217321
1V
1.
#217463
17!
#217520
0J!
#217734
0<!
#218501
0$!
0*
#218677
0#!
0+
#219685
1i
1F
#220000
0!
1O
#220718
0%!
#230000
1!
0O
#230545
1%!
#233288
0#"
1""
0$"
#233657
0Q!
#233785
1'!
#233798
0D!
#233926
1?!
#234016
0Z!
#234326
0,!
#234526
0E!
#234686
1M!
#234877
06!
0@!
#234985
1&!
#235120
1Z!
#235422
1N!
#235931
0'!
#236652
0W
0-
#236961
1X
1,
#237248
0V
0.
#237266
14"
13"
#237267
00"
0/"
#237634
1|!
#237783
1}!
1~!
1!"
#237982
1H!
#238048
1X!
#238053
1b!
#238065
1[!
#238079
1_!
#238114
0i!
#238122
1@!
#238130
1`!
#238132
1c!
#238135
1f!
#238162
0l!
#238172
16!
1:!
#238285
0k!
#238290
1e!
#238295
0h!
#240000
0!
1O
#240718
0%!
#240798
0u
0:
#240839
0v
09
#241083
1t
1;
#241124
1r
1=
#241134
1s
1<
#241538
1q
1>
#250000
1!
0O
#250545
1%!
#253288
1$"
#253641
1Q!
#253675
0M!
#253686
1D!
#254394
0N!
#254433
1E!
#254924
0&!
#255060
0Z!
#255854
1'!
#256282
1J"
1I"
#257285
00!
#257321
1V
1.
#257502
07!
#260000
0!
1O
#260003
1k
1D
#260504
1l
1C
#260718
0%!
#270000
1!
0O
#270545
1%!
#273288
1#"
0$"
#273657
0Q!
#273686
0(!
#273688
0'!
#273695
1V!
#273767
1M!
#273976
0D!
#274117
0]!
#274123
13!
#274132
0H!
#274153
0:!
#274258
0V!
#274277
1,!
#274503
1N!
#274704
0E!
#274985
1&!
#275898
1(!
#275917
1'!
#276347
04"
03"
#276729
1W
1-
#276772
0|!
#276940
0}!
0!"
#276941
0~!
#277185
0b!
#277216
0_!
#277221
0X!
#277223
0[!
#277248
0V
0.
#277256
0`!
#277258
0c!
#277266
0f!
#277428
0e!
#278241
1#!
1+
#280000
0!
1O
#280128
0t
0;
#280167
0r
0=
#280177
0s
0<
#280549
0q
0>
#280718
0%!
#290000
1!
0O
#290545
1%!
#293288
1$"
#293641
1Q!
#293675
0M!
#293688
1-!
#294224
1V!
#294394
0N!
#294682
1.!
#294924
0&!
#294953
1W!
#295834
0(!
#295868
0'!
#296531
0,"
0+"
1*"
#296907
1:!
#296967
0@!
#296968
06!
#297174
09!
#297200
04!
#297237
1/!
#297251
1F!
#297321
1V
1.
#297328
18!
#297386
0F!
#297780
1$!
1*
#297783
19!
#300000
0!
1O
#300682
0b
05
#300718
0%!
#300765
1c
14
#301084
0a
06
#310000
1!
0O
#310545
1%!
#313288
0#"
0""
0$"
#313657
0Q!
0-!
#313767
1M!
#313771
0V!
#313785
1'!
#313947
12!
#313992
0?!
#314065
1D!
#314165
1]!
#314236
0:!
#314326
0,!
#314485
0W!
#314503
1N!
#314627
0.!
#314775
0M!
#314812
1E!
#314974
1:!
#314985
1&!
#315068
02!
#315384
03!
#315494
0N!
#315931
0'!
#316652
0W
0-
#316661
0K"
0L"
0I"
#316909
0X
0,
#317248
0V
0.
#317624
0$!
0*
#317839
1;!
#317855
1O!
#318470
1<!
#318597
1P!
#319416
0#!
0+
#319970
0j
0E
#319980
0i
0F
#320000
0!
1O
#320718
0%!
#320807
0l
0C
#330000
1!
0O
#330545
1%!
#333288
1$"
#333641
1Q!
#333676
0D!
#333685
1L!
#334245
1M!
#334404
0E!
#334924
0&!
#334973
12!
#334981
1N!
#335275
13!
#335854
1'!
#336826
10"
1."
#337321
1V
1.
#337481
1o!
#337589
1i!
#337796
1h!
#338036
1n!
#339393
1#!
1+
#339996
1w
18
#340000
0!
1O
#340439
1u
1:
#340718
0%!
#350000
1!
0O
#350545
1%!
#353288
1#"
0$"
#353657
0Q!
#353688
0'!
#353696
1(!
#353859
02!
#353969
0L!
#353976
1)!
#354152
1Z!
#354175
03!
#354277
1,!
#354558
0M!
#354564
1-!
#354697
13!
#354728
1{!
#354907
0?"
1>"
#354985
1&!
#355120
0Z!
#355277
0N!
#355416
0>!
#355558
1.!
#355690
1R!
#355833
1=!
#355859
0\!
#355897
0(!
#355917
1'!
#356039
0+!
#356106
0C!
#356344
1>!
#356482
0,!
#356729
1W
1-
#356923
1+!
#357036
1C!
#357248
0V
0.
#357340
1,!
#357407
1,"
#357783
1@!
#358050
0/!
#358127
14!
#358582
15!
#358656
1$!
1*
#359105
1!!
1H
#359912
0~
0I
#360000
0!
1O
#360718
0%!
#361993
1a
16
#370000
1!
0O
#370545
1%!
#373288
1$"
#373641
1Q!
#373686
1D!
#373898
0)!
#374200
0R!
#374433
1E!
#374534
0-!
#374633
0{!
#374645
03!
#374924
0&!
#375060
1Z!
#375504
0.!
#375835
1(!
#375868
0'!
#376282
1L"
#377321
1V
1.
#377397
0O!
#378147
0P!
#378501
0$!
0*
#378677
0#!
0+
#379685
1i
1F
#380000
0!
1O
#380718
0%!
#390000
1!
0O
#390545
1%!
#393288
0#"
1""
0$"
#393657
0Q!
#393785
1'!
#393798
0D!
#393926
1?!
#394016
0Z!
#394061
1T!
#394326
0,!
#394526
0E!
#394686
1M!
#394706
1U!
#394877
0:!
0@!
#394985
1&!
#395120
1Z!
#395399
1V!
#395422
1N!
#395931
0'!
#396128
1W!
#396652
0W
0-
#396961
1X
1,
#397248
0V
0.
#397267
0."
#397973
18"
16"
#397984
0o!
#398590
0h!
#398687
1j!
#399142
1k!
#400000
0!
1O
#400361
0w
08
#400718
0%!
#401541
1]
1%
#403851
1_
1#
#410000
1!
0O
#410545
1%!
#413288
1$"
#413641
1Q!
#413675
0M!
#413677
0T!
#413686
1D!
#414323
0U!
#414394
0N!
#414433
1E!
#414924
0&!
#415049
0V!
#415060
0Z!
#415763
0W!
#415854
1'!
#416282
0J"
0L"
#416852
1I!
#417321
1V
1.
#417395
0;!
#417572
1J!
#418020
0<!
#419601
0i
0F
#419952
0k
0D
#420000
0!
1O
#420718
0%!
#430000
1!
0O
#430545
1%!
#433288
1#"
0$"
#433657
0Q!
#433686
0(!
#433688
0'!
#433695
1V!
#433767
1M!
#433976
0D!
#434123
13!
#434141
1:!
1@!
#434226
1R!
#434258
0V!
#434277
1,!
#434503
1N!
#434704
0E!
#434985
1&!
#435898
1(!
#435917
1'!
#436348
00"
1/"
#436729
1W
1-
#437160
1l!
#437195
0i!
#437248
0V
0.
#437257
0m!
#437315
1p!
#437319
0k!
#437342
0j!
#437381
1h!
#437400
1m!
#437458
0p!
#437797
1k!
#438241
1#!
1+
#439879
0u
0:
#440000
0!
1O
#440009
1v
19
#440718
0%!
#450000
1!
0O
#450545
1%!
#453288
1$"
#453641
1Q!
#453675
0M!
#453688
1-!
#454200
0R!
#454224
1V!
#454394
0N!
#454682
1.!
#454924
0&!
#454953
1W!
#455834
0(!
#455868
0'!
#456531
0,"
1+"
#456798
08"
17"
06"
#456907
16!
#456967
0@!
#457123
08!
#457178
05!
#457181
1F!
#457200
04!
#457237
1/!
#457258
18!
#457316
0F!
#457321
1V
1.
#457489
0h!
#457500
0n!
#457516
0m!
#457577
0k!
#457655
15!
#457780
1$!
1*
#457971
1n!
#460000
0!
1O
#460144
1^
1$
#460282
0]
0%
#460718
0%!
#460771
1b
15
#461084
0a
06
#462645
0_
0#
#470000
1!
0O
#470545
1%!
#473288
0#"
0""
0$"
#473657
0Q!
0-!
#473767
1M!
#473769
1T!
#473771
0V!
#473785
1'!
#473947
12!
#473992
0?!
#474065
1D!
#474164
0T!
#474236
06!
0:!
#474326
0,!
#474485
0W!
#474503
1N!
#474627
0.!
#474775
0M!
#474812
1E!
#474974
16!
1:!
#474985
1&!
#475068
02!
#475384
03!
#475494
0N!
#475931
0'!
#476652
0W
0-
#476661
1K"
1J"
#476909
0X
0,
#477037
0I!
#477248
0V
0.
#477624
0$!
0*
#477775
0J!
#479416
0#!
0+
#480000
0!
1O
#480055
1j
1E
#480382
1k
1D
#480718
0%!
#490000
1!
0O
#490545
1%!
#493288
1$"
#493641
1Q!
#493676
0D!
#493685
1L!
#494245
1M!
#494404
0E!
#494924
0&!
#494973
12!
#494981
1N!
#495275
13!
#495854
1'!
#496826
0/"
#497321
1V
1.
#497721
0l!
#497845
1k!
#497910
1m!
#498347
0n!
#499393
1#!
1+
#500000
0!
1O
#500398
0v
09
#500718
0%!
#510000
1!
0O
#510545
1%!
#513288
1#"
0$"
#513657
0Q!
#513688
0'!
#513696
1(!
#513859
02!
#513969
0L!
#513976
1)!
#514152
1Z!
#514175
03!
#514226
1R!
#514277
1,!
#514558
0M!
#514564
1-!
#514697
13!
#514728
1{!
#514907
0@"
0>"
#514985
1&!
#515120
0Z!
#515277
0N!
#515482
0>!
#515558
1.!
#515653
0=!
#515767
0R!
#515897
0(!
#515917
1'!
#516105
0+!
#516172
0C!
#516548
0,!
#516729
1W
1-
#517248
0V
0.
#517407
1,"
#517783
1@!
#518050
0/!
#518127
14!
#518185
08!
#518243
1F!
#518564
05!
#518622
09!
#518656
1$!
1*
#518698
1G!
#518897
0}
0J
#519124
0!!
0H
#520000
0!
1O
#520718
0%!
#521993
1a
16
#530000
1!
0O
#530545
1%!
#533288
1$"
#533641
1Q!
#533898
0)!
#534201
1R!
#534507
1S!
#534534
0-!
#534633
0{!
#534645
03!
#534924
0&!
#535060
1Z!
#535480
0$"
0#"
#535504
0.!
#535849
0Q!
#535967
0'!
0R!
#536139
12!
