simulation/qsim/neander_top.msim.vcd
$comment
	File created using the following command:
		vcd file neander_top.msim.vcd -direction
$end
$date
	Fri Oct 13 19:33:01 2023
$end
$version
	ModelSim Version 10.5b
$end
$timescale
	1ps
$end

$scope module neander_top_vlg_vec_tst $end
$var reg 1 ! mclk $end
$var wire 1 " AC_out [7] $end
$var wire 1 # AC_out [6] $end
$var wire 1 $ AC_out [5] $end
$var wire 1 % AC_out [4] $end
$var wire 1 & AC_out [3] $end
$var wire 1 ' AC_out [2] $end
$var wire 1 ( AC_out [1] $end
$var wire 1 ) AC_out [0] $end
$var wire 1 * cargaPC $end
$var wire 1 + incPC $end
$var wire 1 , INSTR_time [2] $end
$var wire 1 - INSTR_time [1] $end
$var wire 1 . INSTR_time [0] $end
$var wire 1 / PC_out [7] $end
$var wire 1 0 PC_out [6] $end
$var wire 1 1 PC_out [5] $end
$var wire 1 2 PC_out [4] $end
$var wire 1 3 PC_out [3] $end
$var wire 1 4 PC_out [2] $end
$var wire 1 5 PC_out [1] $end
$var wire 1 6 PC_out [0] $end
$var wire 1 7 RDM_out [7] $end
$var wire 1 8 RDM_out [6] $end
$var wire 1 9 RDM_out [5] $end
$var wire 1 : RDM_out [4] $end
$var wire 1 ; RDM_out [3] $end
$var wire 1 < RDM_out [2] $end
$var wire 1 = RDM_out [1] $end
$var wire 1 > RDM_out [0] $end
$var wire 1 ? REM_out [7] $end
$var wire 1 @ REM_out [6] $end
$var wire 1 A REM_out [5] $end
$var wire 1 B REM_out [4] $end
$var wire 1 C REM_out [3] $end
$var wire 1 D REM_out [2] $end
$var wire 1 E REM_out [1] $end
$var wire 1 F REM_out [0] $end
$var wire 1 G RI_out [7] $end
$var wire 1 H RI_out [6] $end
$var wire 1 I RI_out [5] $end
$var wire 1 J RI_out [4] $end
$var wire 1 K RI_out [3] $end
$var wire 1 L RI_out [2] $end
$var wire 1 M RI_out [1] $end
$var wire 1 N RI_out [0] $end
$var wire 1 O sampler $end

$scope module i1 $end
$var wire 1 P gnd $end
$var wire 1 Q vcc $end
$var wire 1 R unknown $end
$var tri1 1 S devclrn $end
$var tri1 1 T devpor $end
$var tri1 1 U devoe $end
$var wire 1 V INSTR_time[0]~output_o $end
$var wire 1 W INSTR_time[1]~output_o $end
$var wire 1 X INSTR_time[2]~output_o $end
$var wire 1 Y AC_out[0]~output_o $end
$var wire 1 Z AC_out[1]~output_o $end
$var wire 1 [ AC_out[2]~output_o $end
$var wire 1 \ AC_out[3]~output_o $end
$var wire 1 ] AC_out[4]~output_o $end
$var wire 1 ^ AC_out[5]~output_o $end
$var wire 1 _ AC_out[6]~output_o $end
$var wire 1 ` AC_out[7]~output_o $end
$var wire 1 a PC_out[0]~output_o $end
$var wire 1 b PC_out[1]~output_o $end
$var wire 1 c PC_out[2]~output_o $end
$var wire 1 d PC_out[3]~output_o $end
$var wire 1 e PC_out[4]~output_o $end
$var wire 1 f PC_out[5]~output_o $end
$var wire 1 g PC_out[6]~output_o $end
$var wire 1 h PC_out[7]~output_o $end
$var wire 1 i REM_out[0]~output_o $end
$var wire 1 j REM_out[1]~output_o $end
$var wire 1 k REM_out[2]~output_o $end
$var wire 1 l REM_out[3]~output_o $end
$var wire 1 m REM_out[4]~output_o $end
$var wire 1 n REM_out[5]~output_o $end
$var wire 1 o REM_out[6]~output_o $end
$var wire 1 p REM_out[7]~output_o $end
$var wire 1 q RDM_out[0]~output_o $end
$var wire 1 r RDM_out[1]~output_o $end
$var wire 1 s RDM_out[2]~output_o $end
$var wire 1 t RDM_out[3]~output_o $end
$var wire 1 u RDM_out[4]~output_o $end
$var wire 1 v RDM_out[5]~output_o $end
$var wire 1 w RDM_out[6]~output_o $end
$var wire 1 x RDM_out[7]~output_o $end
$var wire 1 y RI_out[0]~output_o $end
$var wire 1 z RI_out[1]~output_o $end
$var wire 1 { RI_out[2]~output_o $end
$var wire 1 | RI_out[3]~output_o $end
$var wire 1 } RI_out[4]~output_o $end
$var wire 1 ~ RI_out[5]~output_o $end
$var wire 1 !! RI_out[6]~output_o $end
$var wire 1 "! RI_out[7]~output_o $end
$var wire 1 #! incPC~output_o $end
$var wire 1 $! cargaPC~output_o $end
$var wire 1 %! mclk~input_o $end
$var wire 1 &! TIMER|qs[0]~2_combout $end
$var wire 1 '! TIMER|qs[1]~0_combout $end
$var wire 1 (! TIMER|qs[2]~1_combout $end
$var wire 1 )! TIMER_DECODER|Mux5~combout $end
$var wire 1 *! CU|sel~0_combout $end
$var wire 1 +! CU|carga_PC~2_combout $end
$var wire 1 ,! CU|carga_PC~combout $end
$var wire 1 -! CU|carga_PC~clkctrl_outclk $end
$var wire 1 .! REG_PC|count[0]~8_combout $end
$var wire 1 /! MULTIPLEX|y[0]~0_combout $end
$var wire 1 0! MEM|Mux4~0_combout $end
$var wire 1 1! REG_RDM|q[2]~feeder_combout $end
$var wire 1 2! MULTIPLEX|y[2]~2_combout $end
$var wire 1 3! MEM|Mux6~0_combout $end
$var wire 1 4! REG_RDM|q[0]~feeder_combout $end
$var wire 1 5! CU|inc_PC~0_combout $end
$var wire 1 6! CU|inc_PC~1_combout $end
$var wire 1 7! REG_PC|count[0]~9 $end
$var wire 1 8! REG_PC|count[1]~10_combout $end
$var wire 1 9! MEM|Mux5~0_combout $end
$var wire 1 :! REG_PC|count[1]~11 $end
$var wire 1 ;! REG_PC|count[2]~12_combout $end
$var wire 1 <! REG_PC|count[2]~13 $end
$var wire 1 =! REG_PC|count[3]~14_combout $end
$var wire 1 >! MULTIPLEX|y[3]~3_combout $end
$var wire 1 ?! MEM|Mux0~0_combout $end
$var wire 1 @! REG_RDM|q[6]~feeder_combout $end
$var wire 1 A! CU|carga_REM~0_combout $end
$var wire 1 B! CU|carga_REM~combout $end
$var wire 1 C! CU|carga_REM~clkctrl_outclk $end
$var wire 1 D! MULTIPLEX|y[1]~1_combout $end
$var wire 1 E! MEM|Mux1~0_combout $end
$var wire 1 F! REG_RDM|q[5]~feeder_combout $end
$var wire 1 G! CU|carga_RDM~2_combout $end
$var wire 1 H! CU|carga_RDM~combout $end
$var wire 1 I! CU|carga_RDM~clkctrl_outclk $end
$var wire 1 J! MEM|Mux2~0_combout $end
$var wire 1 K! REG_RDM|q[4]~feeder_combout $end
$var wire 1 L! CU|goto_t0~0_combout $end
$var wire 1 M! CU|goto_t0~1_combout $end
$var wire 1 N! CU|carga_AC~2_combout $end
$var wire 1 O! CU|carga_AC~3_combout $end
$var wire 1 P! CU|carga_AC~1_combout $end
$var wire 1 Q! CU|carga_AC~combout $end
$var wire 1 R! CU|carga_AC~clkctrl_outclk $end
$var wire 1 S! REG_AC|q[0]~8_combout $end
$var wire 1 T! CU|s[2]~1_combout $end
$var wire 1 U! CU|s[2]~0_combout $end
$var wire 1 V! ULA|Mux7~0_combout $end
$var wire 1 W! CU|s[1]~2_combout $end
$var wire 1 X! CU|s[1]~3_combout $end
$var wire 1 Y! REG_AC|q[0]~9 $end
$var wire 1 Z! REG_AC|q[1]~10_combout $end
$var wire 1 [! ULA|Mux6~0_combout $end
$var wire 1 \! REG_AC|q[1]~11 $end
$var wire 1 ]! REG_AC|q[2]~12_combout $end
$var wire 1 ^! ULA|Mux5~0_combout $end
$var wire 1 _! REG_AC|q[2]~13 $end
$var wire 1 `! REG_AC|q[3]~14_combout $end
$var wire 1 a! ULA|Mux4~0_combout $end
$var wire 1 b! REG_AC|q[3]~15 $end
$var wire 1 c! REG_AC|q[4]~16_combout $end
$var wire 1 d! ULA|Mux3~0_combout $end
$var wire 1 e! REG_AC|q[4]~17 $end
$var wire 1 f! REG_AC|q[5]~18_combout $end
$var wire 1 g! ULA|Mux2~0_combout $end
$var wire 1 h! REG_AC|q[5]~19 $end
$var wire 1 i! REG_AC|q[6]~20_combout $end
$var wire 1 j! ULA|Mux1~0_combout $end
$var wire 1 k! REG_AC|q[6]~21 $end
$var wire 1 l! REG_AC|q[7]~22_combout $end
$var wire 1 m! ULA|Mux0~2_combout $end
$var wire 1 n! REG_PC|count[3]~15 $end
$var wire 1 o! REG_PC|count[4]~16_combout $end
$var wire 1 p! REG_PC|count[4]~17 $end
$var wire 1 q! REG_PC|count[5]~18_combout $end
$var wire 1 r! REG_PC|count[5]~19 $end
$var wire 1 s! REG_PC|count[6]~20_combout $end
$var wire 1 t! REG_PC|count[6]~21 $end
$var wire 1 u! REG_PC|count[7]~22_combout $end
$var wire 1 v! ~GND~combout $end
$var wire 1 w! TIMER_DECODER|Mux5~clkctrl_outclk $end
$var wire 1 x! REG_RI|q[0]~feeder_combout $end
$var wire 1 y! REG_RI|q[1]~feeder_combout $end
$var wire 1 z! REG_RI|q[2]~feeder_combout $end
$var wire 1 {! REG_RI|q[3]~feeder_combout $end
$var wire 1 |! REG_REM|q [7] $end
$var wire 1 }! REG_REM|q [6] $end
$var wire 1 ~! REG_REM|q [5] $end
$var wire 1 !" REG_REM|q [4] $end
$var wire 1 "" REG_REM|q [3] $end
$var wire 1 #" REG_REM|q [2] $end
$var wire 1 $" REG_REM|q [1] $end
$var wire 1 %" REG_REM|q [0] $end
$var wire 1 &" REG_PC|count [7] $end
$var wire 1 '" REG_PC|count [6] $end
$var wire 1 (" REG_PC|count [5] $end
$var wire 1 )" REG_PC|count [4] $end
$var wire 1 *" REG_PC|count [3] $end
$var wire 1 +" REG_PC|count [2] $end
$var wire 1 ," REG_PC|count [1] $end
$var wire 1 -" REG_PC|count [0] $end
$var wire 1 ." REG_RI|q [7] $end
$var wire 1 /" REG_RI|q [6] $end
$var wire 1 0" REG_RI|q [5] $end
$var wire 1 1" REG_RI|q [4] $end
$var wire 1 2" REG_RI|q [3] $end
$var wire 1 3" REG_RI|q [2] $end
$var wire 1 4" REG_RI|q [1] $end
$var wire 1 5" REG_RI|q [0] $end
$var wire 1 6" TIMER|qs [2] $end
$var wire 1 7" TIMER|qs [1] $end
$var wire 1 8" TIMER|qs [0] $end
$var wire 1 9" REG_RDM|q [7] $end
$var wire 1 :" REG_RDM|q [6] $end
$var wire 1 ;" REG_RDM|q [5] $end
$var wire 1 <" REG_RDM|q [4] $end
$var wire 1 =" REG_RDM|q [3] $end
$var wire 1 >" REG_RDM|q [2] $end
$var wire 1 ?" REG_RDM|q [1] $end
$var wire 1 @" REG_RDM|q [0] $end
$var wire 1 A" REG_AC|q [7] $end
$var wire 1 B" REG_AC|q [6] $end
$var wire 1 C" REG_AC|q [5] $end
$var wire 1 D" REG_AC|q [4] $end
$var wire 1 E" REG_AC|q [3] $end
$var wire 1 F" REG_AC|q [2] $end
$var wire 1 G" REG_AC|q [1] $end
$var wire 1 H" REG_AC|q [0] $end
$upscope $end
$upscope $end
$enddefinitions $end
#0
$dumpvars
0!
x)
x(
x'
x&
x%
x$
x#
x"
x*
x+
x.
x-
x,
x6
x5
x4
x3
x2
x1
x0
x/
x>
x=
x<
x;
x:
x9
x8
07
xF
xE
xD
xC
0B
0A
0@
0?
xN
xM
xL
xK
xJ
xI
xH
0G
xO
0P
1Q
xR
1S
1T
1U
xV
xW
xX
xY
xZ
x[
x\
x]
x^
x_
x`
xa
xb
xc
xd
xe
xf
xg
xh
xi
xj
xk
xl
0m
0n
0o
0p
xq
xr
xs
xt
xu
xv
xw
0x
xy
xz
x{
x|
x}
x~
x!!
0"!
x#!
x$!
0%!
x&!
x'!
x(!
x)!
x*!
x+!
x,!
x-!
x.!
x/!
x0!
x1!
x2!
x3!
x4!
x5!
x6!
x7!
x8!
x9!
x:!
x;!
x<!
x=!
x>!
x?!
x@!
xA!
xB!
xC!
xD!
xE!
xF!
xG!
xH!
xI!
xJ!
xK!
xL!
xM!
xN!
xO!
0P!
xQ!
xR!
xS!
xT!
xU!
xV!
xW!
xX!
xY!
xZ!
x[!
x\!
x]!
x^!
x_!
x`!
xa!
xb!
xc!
xd!
xe!
xf!
xg!
xh!
xi!
xj!
xk!
xl!
xm!
xn!
xo!
xp!
xq!
xr!
xs!
xt!
xu!
0v!
xw!
xx!
xy!
xz!
x{!
0%"
0$"
0#"
0""
z!"
z~!
z}!
z|!
0-"
0,"
0+"
0*"
0)"
0("
0'"
0&"
05"
04"
03"
02"
01"
00"
0/"
z."
08"
07"
06"
0@"
0?"
0>"
z="
0<"
0;"
0:"
z9"
0H"
0G"
0F"
0E"
0D"
0C"
0B"
0A"
$end
#434
0Q!
#447
0{!
#480
1N!
#500
0)!
#659
0t!
#660
0p!
#668
07!
#669
0<!
#670
0Y!
#705
1.!
#724
0G!
#733
0y!
#755
0H!
#757
0+!
0T!
#771
0L!
#773
0>!
#784
1r!
1O!
#793
0(!
#794
1n!
#797
1:!
#831
1X!
#874
0A!
0W!
#875
0S!
#885
0/!
#901
1\!
#917
0*!
#919
0?!
#920
02!
#941
0x!
#959
0_!
#974
0e!
#995
03!
#1036
0J!
#1054
0k!
#1068
0U!
#1086
0D!
#1089
0M!
#1096
0u!
#1097
0q!
#1105
08!
#1106
0=!
#1107
0Z!
#1126
1h!
#1184
1b!
#1221
0s!
#1225
0z!
#1226
0m!
#1231
0o!
#1234
0;!
#1236
0@!
#1241
0j!
#1242
0[!
#1275
1B!
#1313
04!
#1317
00!
#1319
09!
#1326
1E!
#1355
0K!
#1385
0^!
#1396
0`!
0V!
#1397
0a!
0d!
#1398
0g!
#1409
0R!
#1411
0f!
#1457
0I!
#1491
0l!
#1528
0]!
#1558
0w!
#1563
0i!
#1620
0,!
#1621
0c!
#1631
1F!
#1634
01!
#1659
1&!
#2039
05!
#2285
1C!
#2333
0-!
#2354
06!
#2670
0'!
#3126
0_
0#
#3262
0u
0:
#3280
0{
0L
#3283
0|
0K
#3291
0r
0=
#3299
0Z
0(
#3305
0k
0D
#3341
0w
08
#3367
0!!
0H
#3446
0t
0;
#3463
0v
09
#3477
0Y
0)
#3480
0[
0'
#3495
0y
0N
#3528
0g
00
#3591
0~
0I
#3614
0f
01
#3653
0]
0%
#3681
0l
0C
#3779
0a
06
#3812
0h
0/
#3896
0^
0$
#3897
0W
0-
#3909
0j
0E
#3935
0q
0>
#3937
0b
05
#3947
0V
0.
#3954
0d
03
#4046
0X
0,
#4068
0i
0F
#4080
0e
02
#4254
0z
0M
#4271
0c
04
#4344
0s
0<
#4655
0}
0J
#4869
0\
0&
#5776
0`
0"
#5818
0$!
0*
#6032
0#!
0+
#10000
1!
0O
#10545
1%!
#13309
18"
#13696
0B!
#13706
1H!
#14426
1I!
#14694
0C!
#14896
0&!
#15268
15!
#15570
16!
#15895
1'!
#16265
1;"
#17248
1g!
#17267
1f!
#17318
1V
1.
#19383
1#!
1+
#19819
1v
19
#20000
0!
1O
#20718
0%!
#30000
1!
0O
#30545
1%!
#33309
17"
08"
#33710
0'!
#33727
1)!
#33778
0H!
#33787
1B!
#33835
05!
#33976
1(!
#33984
1L!
#34288
1M!
#34480
0I!
#34535
0B!
#34791
1w!
#34830
1,!
#34968
1&!
#34982
10"
#35259
07"
#35543
0M!
#35558
1-!
#35759
0)!
#35775
1A!
#35801
0L!
#35814
1W!
#35965
0(!
#36344
06!
#36534
1B!
#36817
0w!
#36879
0,!
#37256
0V
0.
#37400
1("
#37544
1C!
#37592
0-!
#38027
1q!
#38656
1~
1I
#40000
0!
1O
#40022
0#!
0+
#40718
0%!
#41103
1f
11
#50000
1!
0O
#50545
1%!
#53309
18"
#53696
0B!
#53706
1H!
#54426
1I!
#54694
0C!
#54896
0&!
#55268
15!
#55570
16!
#55895
1'!
#57318
1V
1.
#59383
1#!
1+
#60000
0!
1O
#60718
0%!
#70000
1!
0O
#70545
1%!
#73309
17"
08"
#73710
0'!
#73727
1)!
#73778
0H!
#73787
1B!
#73976
1(!
#74026
1T!
#74480
0I!
#74535
0B!
#74791
1w!
#74830
1,!
#74968
1&!
#75419
0T!
#75558
1-!
#75965
0(!
1'!
#77255
1W
1-
#77256
0V
0.
#77400
1-"
#77775
1/!
#78043
0.!
#78120
17!
#78575
18!
#79170
1$!
1*
#80000
0!
1O
#80718
0%!
#81277
1a
16
#90000
1!
0O
#90545
1%!
#93309
18"
#93678
0)!
#93706
1B!
1H!
#93707
1G!
#93950
1+!
#94263
06!
#94265
0H!
#94716
1C!
#94736
0w!
#94798
0,!
#94896
0&!
#95337
1T!
#95511
0-!
#95856
1(!
#95909
0'!
#96558
1%"
#97318
1V
1.
#97798
0E!
#97808
10!
#97810
19!
#97941
0#!
0+
#98111
11!
#98118
0F!
#98996
0$!
0*
#100000
0!
1O
#100691
1i
1F
#100718
0%!
#110000
1!
0O
#110545
1%!
#113309
07"
16"
08"
#113662
1)!
#113678
0B!
0G!
#113700
0(!
#113706
1,!
#113809
1'!
0)!
#113952
0T!
#114066
0+!
#114077
1(!
#114181
1*!
#114244
1H!
#114434
1-!
#114509
0,!
#114676
0C!
#114930
0/!
#114964
1I!
#114968
1&!
#115222
0-!
#115348
05!
#115407
1T!
#115979
0'!
#116803
1>"
1?"
0;"
#117192
1{!
#117206
0W
0-
#117256
0V
0.
#117457
1X
1,
#117493
1y!
#117541
1>!
#117556
1[!
#117575
1Z!
#117678
12!
#117836
1^!
#117840
1D!
#117842
1a!
#117857
1`!
#117858
0g!
#117869
0f!
#117990
1z!
#118292
1]!
#120000
0!
1O
#120172
1r
1=
#120266
0v
09
#120332
1t
1;
#120718
0%!
#121175
1s
1<
#130000
1!
0O
#130545
1%!
#133309
18"
#133696
0H!
#133706
1B!
#134398
0I!
#134716
1C!
#134896
0&!
#135268
15!
#135349
0T!
#135895
1'!
#136558
0%"
1#"
1""
1$"
#137318
1V
1.
#137404
00!
#137549
13!
#137721
01!
#137852
14!
#137877
09!
#137879
03!
#138197
04!
#139945
1k
1D
#140000
0!
1O
#140279
1l
1C
#140522
1j
1E
#140626
0i
0F
#140718
0%!
#150000
1!
0O
#150545
1%!
#153309
17"
08"
#153710
0'!
#153777
0B!
#153788
1H!
#153839
0*!
#154001
0(!
#154057
16!
#154508
1I!
#154611
1/!
#154616
02!
#154617
0D!
#154637
0>!
#154775
0C!
#154968
1&!
#155937
1(!
#155965
1'!
#156347
0>"
0?"
#156794
0{!
#157080
0y!
#157182
0Z!
0[!
#157255
1W
1-
#157256
0V
0.
#157458
0^!
#157465
0a!
#157471
0`!
#157572
0z!
#157870
1#!
1+
#157875
0]!
#159638
0r
0=
#159793
0t
0;
#160000
0!
1O
#160691
0s
0<
#160718
0%!
#170000
1!
0O
#170545
1%!
#173309
18"
#173696
0H!
#173707
1G!
#173906
1P!
#173950
1+!
#174324
1Q!
#174365
1,!
#174398
0I!
#174896
0&!
#175093
1-!
#175324
1R!
#175884
0(!
#175909
0'!
#176935
0-"
1,"
#177310
1D!
#177318
1V
1.
#177371
0/!
#177527
0:!
#177582
08!
#177603
07!
#177640
1.!
#177661
1:!
#178058
18!
#178705
1$!
1*
#180000
0!
1O
#180714
0a
06
#180718
0%!
#180959
1b
15
#190000
1!
0O
#190545
1%!
#193309
07"
06"
08"
#193678
0G!
#193778
0,!
#193781
0P!
#193809
1'!
#193911
1*!
#194066
0+!
#194224
0Q!
#194226
0*!
#194491
0-!
#194584
1B!
#194968
1&!
#195199
0R!
#195348
05!
#195594
1C!
#195663
06!
#195979
0'!
#197206
0W
0-
#197256
0V
0.
#197355
0X
0,
#197436
0#"
0""
#197976
0$!
0*
#198540
1J!
#198544
1E!
#198845
1K!
#198849
1F!
#199341
0#!
0+
#200000
0!
1O
#200718
0%!
#200741
0k
0D
#201117
0l
0C
#210000
1!
0O
#210545
1%!
#213309
18"
#213696
0B!
#213706
1H!
#214426
1I!
#214694
0C!
#214896
0&!
#215268
15!
#215570
16!
#215895
1'!
#216265
1;"
1<"
#217229
1c!
#217232
1d!
#217248
1g!
#217267
1f!
#217318
1V
1.
#219383
1#!
1+
#219612
1u
1:
#219819
1v
19
#220000
0!
1O
#220718
0%!
#230000
1!
0O
#230545
1%!
#233309
17"
08"
#233710
0'!
#233727
1)!
#233778
0H!
#233787
1B!
#233976
1(!
#234026
1T!
#234480
0I!
#234535
0B!
#234791
1w!
#234830
1,!
#234968
1&!
#234982
11"
#235419
0T!
#235558
1-!
#235965
0(!
1'!
#237255
1W
1-
#237256
0V
0.
#237400
1-"
#237775
1/!
#238043
0.!
#238120
17!
#238178
0:!
#238557
08!
#238633
1;!
#239170
1$!
1*
#239567
1}
1J
#240000
0!
1O
#240718
0%!
#241277
1a
16
#250000
1!
0O
#250545
1%!
#253309
18"
#253678
0)!
#253706
1B!
1H!
#253707
1G!
#253950
1+!
#254263
06!
#254265
0H!
#254716
1C!
#254736
0w!
#254798
0,!
#254896
0&!
#255337
1T!
#255511
0-!
#255856
1(!
#255909
0'!
#256558
1%"
#257318
1V
1.
#257798
0E!
#257800
0J!
#257808
10!
#257810
19!
#257812
13!
#257941
0#!
0+
#258111
11!
#258115
14!
#258118
0F!
#258119
0K!
#258996
0$!
0*
#260000
0!
1O
#260691
1i
1F
#260718
0%!
#270000
1!
0O
#270545
1%!
#273309
07"
16"
08"
#273662
1)!
#273678
0B!
0G!
#273700
0(!
#273706
1,!
#273809
1'!
0)!
#273952
0T!
#274066
0+!
#274077
1(!
#274181
1*!
#274244
1H!
#274434
1-!
#274509
0,!
#274676
0C!
#274930
0/!
#274931
0D!
#274964
1I!
#274968
1&!
#275222
0-!
#275348
05!
#275407
1T!
#275979
0'!
#276803
1>"
1@"
1?"
0;"
0<"
#277192
1{!
#277206
0W
0-
#277256
0V
0.
#277457
1X
1,
#277493
1y!
#277541
1>!
#277556
1[!
#277575
1Z!
#277586
1S!
#277602
1V!
#277655
1/!
#277678
12!
#277689
1x!
#277811
0c!
#277833
0d!
#277836
1^!
#277840
1D!
#277842
1a!
#277857
1`!
#277858
0g!
#277869
0f!
#277990
1z!
#278292
1]!
#280000
0!
1O
#280065
0u
0:
#280172
1r
1=
#280266
0v
09
#280332
1t
1;
#280718
0%!
#280832
1q
1>
#281175
1s
1<
#290000
1!
0O
#290545
1%!
#293309
18"
#293696
0H!
#293706
1B!
#294398
0I!
#294716
1C!
#294896
0&!
#295268
15!
#295349
0T!
#295895
1'!
#296558
1#"
1""
#297318
1V
1.
#297404
00!
#297721
01!
#299945
1k
1D
#300000
0!
1O
#300279
1l
1C
#300718
0%!
#310000
1!
0O
#310545
1%!
#313309
17"
08"
#313710
0'!
#313777
0B!
#313788
1H!
#313839
0*!
#314001
0(!
#314057
16!
#314268
0X!
#314508
1I!
#314616
02!
#314637
0>!
#314775
0C!
#314968
1&!
#315937
1(!
#315965
1'!
#316347
0>"
#316794
0{!
#317255
1W
1-
#317256
0V
0.
#317458
0^!
#317465
0a!
#317471
0`!
#317572
0z!
#317870
1#!
1+
#317875
0]!
#319793
0t
0;
#320000
0!
1O
#320691
0s
0<
#320718
0%!
#330000
1!
0O
#330545
1%!
#333309
18"
#333696
0H!
#333707
1G!
#333906
1P!
#333950
1+!
#334324
1Q!
#334365
1,!
#334398
0I!
#334896
0&!
#335093
1-!
#335324
1R!
#335884
0(!
#335909
0'!
#336935
0-"
0,"
1+"
#337169
1H"
1G"
#337311
12!
#337318
1V
1.
#337371
0D!
0/!
#337578
0;!
#337603
07!
#337640
1.!
#337655
1<!
#337732
1:!
#337755
0\!
#337790
0<!
#337813
0S!
#337816
0Z!
#337890
1Y!
#338187
1;!
#338210
1]!
#338345
1Z!
#338705
1$!
1*
#340000
0!
1O
#340553
1Z
1(
#340714
0a
06
#340718
0%!
#340738
1Y
1)
#340872
0b
05
#341177
1c
14
#350000
1!
0O
#350545
1%!
#353309
07"
06"
08"
#353678
0G!
#353778
0,!
#353781
0P!
#353809
1'!
#353911
1*!
#354066
0+!
#354140
1X!
#354224
0Q!
#354226
0*!
#354491
0-!
#354584
1B!
#354968
1&!
#355199
0R!
#355348
05!
#355594
1C!
#355663
06!
#355979
0'!
#357206
0W
0-
#357256
0V
0.
#357355
0X
0,
#357436
0%"
0""
0$"
#357976
0$!
0*
#358431
03!
09!
#358540
1J!
#358749
04!
#358755
0J!
#358767
1?!
#358845
1K!
#359069
1@!
#359074
0K!
#359341
0#!
0+
#360000
0!
1O
#360718
0%!
#361117
0l
0C
#361345
0j
0E
#361504
0i
0F
#370000
1!
0O
#370545
1%!
#373309
18"
#373696
0B!
#373706
1H!
#374426
1I!
#374694
0C!
#374896
0&!
#375268
15!
#375570
16!
#375895
1'!
#376265
0@"
0?"
1:"
#376913
1j!
#376998
0y!
#377088
0Y!
#377100
0[!
#377112
1S!
#377141
0V!
#377146
1\!
#377206
0x!
#377308
1i!
#377318
1V
1.
#377583
0]!
#379383
1#!
1+
#379556
0r
0=
#379697
1w
18
#380000
0!
1O
#380200
0q
0>
#380718
0%!
#390000
1!
0O
#390545
1%!
#393309
17"
08"
#393710
0'!
#393727
1)!
#393778
0H!
#393787
1B!
#393976
1(!
#394026
1T!
#394480
0I!
#394535
0B!
#394791
1w!
#394830
1,!
#394968
1&!
#394982
1/"
00"
01"
#395419
0T!
#395558
1-!
#395601
1G!
#395704
0W!
#395761
05!
#395856
0A!
#395965
0(!
1'!
#395995
1U!
#397255
1W
1-
#397256
0V
0.
#397400
1-"
#397775
1/!
#398043
0.!
#398120
17!
#398423
1!!
1H
#398573
0~
0I
#398575
18!
#399170
1$!
1*
#399637
0}
0J
#400000
0!
1O
#400718
0%!
#401277
1a
16
#410000
1!
0O
#410545
1%!
#413309
18"
#413678
0)!
#414263
06!
#414736
0w!
#414798
0,!
#414896
0&!
#415511
0-!
#415856
1(!
#415909
0'!
#417318
1V
1.
#417941
0#!
0+
#418996
0$!
0*
#420000
0!
1O
#420718
0%!
#430000
1!
0O
#430545
1%!
#433309
07"
16"
08"
#433662
1)!
#433678
0G!
#433700
0(!
#433809
1'!
0)!
#433906
15!
#433991
0N!
#434077
1(!
#434309
0O!
#434881
1Q!
#434968
1&!
#435348
05!
#435881
1R!
#435979
0'!
#437206
0W
0-
#437256
0V
0.
#437457
1X
1,
#437726
0H"
0G"
1B"
#438363
0i!
#438447
0S!
#438449
0Z!
#438460
1k!
#438915
1l!
#440000
0!
1O
#440718
0%!
#440932
1_
1#
#441025
0Z
0(
#441203
0Y
0)
#450000
1!
0O
#450545
1%!
#453309
18"
#453941
1N!
#453950
1+!
#454245
1O!
#454780
0Q!
#454896
0&!
#455268
15!
#455755
0R!
#455895
1'!
#457318
1V
1.
#460000
0!
1O
#460718
0%!
#470000
1!
0O
#470545
1%!
#473309
17"
08"
#473662
1G!
#473710
0'!
#473835
05!
#473993
0+!
#474001
0(!
#474968
1&!
#475937
1(!
#475965
1'!
#477255
1W
1-
#477256
0V
0.
#480000
0!
1O
#480718
0%!
#490000
1!
0O
#490545
1%!
#493309
18"
#494896
0&!
#495884
0(!
#495909
0'!
#497318
1V
1.
#500000
0!
1O
#500718
0%!
#510000
1!
0O
#510545
1%!
#513309
07"
06"
08"
#513678
0G!
#513809
1'!
#513906
15!
#514208
16!
#514584
1B!
#514968
1&!
#515348
05!
#515594
1C!
#515663
06!
#515979
0'!
#517206
0W
0-
#517256
0V
0.
#517355
0X
0,
#517436
1%"
#518679
0?!
#518688
1J!
#518993
1K!
#518996
0@!
#520000
0!
1O
#520718
0%!
#521569
1i
1F
#530000
1!
0O
#530545
1%!
#533309
18"
#533696
0B!
#533706
1H!
#533950
1+!
#534426
1I!
#534694
0C!
#534896
0&!
#535268
15!
#535570
16!
#535895
1'!
#536265
0:"
1<"
#537003
0j!
#537229
1c!
#537232
1d!
#537318
1V
1.
#537319
0k!
#537358
1i!
#537756
0l!
#539383
1#!
1+
#539606
0w
08
#539612
1u
1:
#540000
0!
1O
#540718
0%!
#550000
1!
0O
#550545
1%!
#553309
17"
08"
#553662
1G!
#553710
0'!
#553727
1)!
#553778
0H!
#553787
1B!
#553835
05!
#553976
1(!
#553993
0+!
#554480
0I!
#554535
0B!
#554791
1w!
#554830
1,!
#554968
1&!
#554982
0/"
11"
#555558
1-!
#555705
1L!
#555706
0G!
#555965
0(!
1'!
#556050
0U!
#557255
1W
1-
#557256
0V
0.
#557400
0-"
1,"
#557775
1D!
#557836
0/!
#557992
0:!
#558047
08!
#558050
1<!
#558068
07!
#558105
1.!
#558126
1:!
#558184
0<!
#558349
0!!
0H
#558523
18!
#559170
1$!
1*
#559567
1}
1J
#560000
0!
1O
#560718
0%!
#561179
0a
06
#561424
1b
15
#570000
1!
0O
#570545
1%!
#573309
18"
#573678
0)!
#573706
1H!
#573707
1G!
#573950
1+!
#574263
06!
#574265
0H!
#574736
0w!
#574798
0,!
#574896
0&!
#575511
0-!
#575856
1(!
#575909
0'!
#577318
1V
1.
#577941
0#!
0+
#578996
0$!
0*
#580000
0!
1O
#580718
0%!
#590000
1!
0O
#590545
1%!
#593309
07"
16"
08"
#593662
1)!
#593678
0G!
#593699
0L!
#593700
0(!
#593809
1'!
0)!
#593906
15!
#593991
0N!
#594066
0+!
#594077
1(!
#594968
1&!
#595348
05!
#595979
0'!
#597206
0W
0-
#597256
0V
0.
#597457
1X
1,
#600000
0!
1O
#600718
0%!
#610000
1!
0O
#610545
1%!
#613309
18"
#613941
1N!
#614896
0&!
#615268
15!
#615895
1'!
#617318
1V
1.
#620000
0!
1O
#620718
0%!
#630000
1!
0O
#630545
1%!
#633309
17"
08"
#633710
0'!
#633835
05!
#634001
0(!
#634968
1&!
#635937
1(!
#635965
1'!
#637255
1W
1-
#637256
0V
0.
#640000
0!
1O
#640718
0%!
#650000
1!
0O
#650545
1%!
#653309
18"
#653707
1G!
#653950
1+!
#654896
0&!
#655884
0(!
#655909
0'!
#657318
1V
1.
#660000
0!
1O
#660718
0%!
#670000
1!
0O
#670545
1%!
#673309
07"
06"
08"
#673678
0G!
#673809
1'!
#673906
15!
#674066
0+!
#674208
16!
#674584
1B!
#674968
1&!
#675348
05!
#675594
1C!
#675663
06!
#675979
0'!
