simulation/qsim/neander_top.msim.vcd
$comment
	File created using the following command:
		vcd file neander_top.msim.vcd -direction
$end
$date
	Sat Oct 14 10:59:22 2023
$end
$version
	ModelSim Version 10.5b
$end
$timescale
	1ps
$end

$scope module neander_top_vlg_vec_tst $end
$var reg 1 ! mclk $end
$var wire 1 " AC_out [7] $end
$var wire 1 # AC_out [6] $end
$var wire 1 $ AC_out [5] $end
$var wire 1 % AC_out [4] $end
$var wire 1 & AC_out [3] $end
$var wire 1 ' AC_out [2] $end
$var wire 1 ( AC_out [1] $end
$var wire 1 ) AC_out [0] $end
$var wire 1 * cargaPC $end
$var wire 1 + incPC $end
$var wire 1 , INSTR_time [2] $end
$var wire 1 - INSTR_time [1] $end
$var wire 1 . INSTR_time [0] $end
$var wire 1 / PC_out [7] $end
$var wire 1 0 PC_out [6] $end
$var wire 1 1 PC_out [5] $end
$var wire 1 2 PC_out [4] $end
$var wire 1 3 PC_out [3] $end
$var wire 1 4 PC_out [2] $end
$var wire 1 5 PC_out [1] $end
$var wire 1 6 PC_out [0] $end
$var wire 1 7 RDM_out [7] $end
$var wire 1 8 RDM_out [6] $end
$var wire 1 9 RDM_out [5] $end
$var wire 1 : RDM_out [4] $end
$var wire 1 ; RDM_out [3] $end
$var wire 1 < RDM_out [2] $end
$var wire 1 = RDM_out [1] $end
$var wire 1 > RDM_out [0] $end
$var wire 1 ? REM_out [7] $end
$var wire 1 @ REM_out [6] $end
$var wire 1 A REM_out [5] $end
$var wire 1 B REM_out [4] $end
$var wire 1 C REM_out [3] $end
$var wire 1 D REM_out [2] $end
$var wire 1 E REM_out [1] $end
$var wire 1 F REM_out [0] $end
$var wire 1 G RI_out [7] $end
$var wire 1 H RI_out [6] $end
$var wire 1 I RI_out [5] $end
$var wire 1 J RI_out [4] $end
$var wire 1 K RI_out [3] $end
$var wire 1 L RI_out [2] $end
$var wire 1 M RI_out [1] $end
$var wire 1 N RI_out [0] $end
$var wire 1 O sampler $end

$scope module i1 $end
$var wire 1 P gnd $end
$var wire 1 Q vcc $end
$var wire 1 R unknown $end
$var tri1 1 S devclrn $end
$var tri1 1 T devpor $end
$var tri1 1 U devoe $end
$var wire 1 V INSTR_time[0]~output_o $end
$var wire 1 W INSTR_time[1]~output_o $end
$var wire 1 X INSTR_time[2]~output_o $end
$var wire 1 Y AC_out[0]~output_o $end
$var wire 1 Z AC_out[1]~output_o $end
$var wire 1 [ AC_out[2]~output_o $end
$var wire 1 \ AC_out[3]~output_o $end
$var wire 1 ] AC_out[4]~output_o $end
$var wire 1 ^ AC_out[5]~output_o $end
$var wire 1 _ AC_out[6]~output_o $end
$var wire 1 ` AC_out[7]~output_o $end
$var wire 1 a PC_out[0]~output_o $end
$var wire 1 b PC_out[1]~output_o $end
$var wire 1 c PC_out[2]~output_o $end
$var wire 1 d PC_out[3]~output_o $end
$var wire 1 e PC_out[4]~output_o $end
$var wire 1 f PC_out[5]~output_o $end
$var wire 1 g PC_out[6]~output_o $end
$var wire 1 h PC_out[7]~output_o $end
$var wire 1 i REM_out[0]~output_o $end
$var wire 1 j REM_out[1]~output_o $end
$var wire 1 k REM_out[2]~output_o $end
$var wire 1 l REM_out[3]~output_o $end
$var wire 1 m REM_out[4]~output_o $end
$var wire 1 n REM_out[5]~output_o $end
$var wire 1 o REM_out[6]~output_o $end
$var wire 1 p REM_out[7]~output_o $end
$var wire 1 q RDM_out[0]~output_o $end
$var wire 1 r RDM_out[1]~output_o $end
$var wire 1 s RDM_out[2]~output_o $end
$var wire 1 t RDM_out[3]~output_o $end
$var wire 1 u RDM_out[4]~output_o $end
$var wire 1 v RDM_out[5]~output_o $end
$var wire 1 w RDM_out[6]~output_o $end
$var wire 1 x RDM_out[7]~output_o $end
$var wire 1 y RI_out[0]~output_o $end
$var wire 1 z RI_out[1]~output_o $end
$var wire 1 { RI_out[2]~output_o $end
$var wire 1 | RI_out[3]~output_o $end
$var wire 1 } RI_out[4]~output_o $end
$var wire 1 ~ RI_out[5]~output_o $end
$var wire 1 !! RI_out[6]~output_o $end
$var wire 1 "! RI_out[7]~output_o $end
$var wire 1 #! incPC~output_o $end
$var wire 1 $! cargaPC~output_o $end
$var wire 1 %! mclk~input_o $end
$var wire 1 &! TIMER|qs[0]~2_combout $end
$var wire 1 '! TIMER|qs[1]~0_combout $end
$var wire 1 (! TIMER|qs[2]~1_combout $end
$var wire 1 )! TIMER_DECODER|Mux5~combout $end
$var wire 1 *! CU|inc_PC~1_combout $end
$var wire 1 +! CU|inc_PC~0_combout $end
$var wire 1 ,! CU|carga_RDM~0_combout $end
$var wire 1 -! CU|carga_PC~1_combout $end
$var wire 1 .! CU|carga_PC~combout $end
$var wire 1 /! CU|carga_PC~clkctrl_outclk $end
$var wire 1 0! REG_PC|count[0]~8_combout $end
$var wire 1 1! MULTIPLEX|y[0]~0_combout $end
$var wire 1 2! MEM|Mux6~0_combout $end
$var wire 1 3! CU|inc_PC~2_combout $end
$var wire 1 4! CU|inc_PC~combout $end
$var wire 1 5! REG_PC|count[0]~9 $end
$var wire 1 6! REG_PC|count[1]~10_combout $end
$var wire 1 7! REG_PC|count[1]~11 $end
$var wire 1 8! REG_PC|count[2]~12_combout $end
$var wire 1 9! REG_PC|count[2]~13 $end
$var wire 1 :! REG_PC|count[3]~14_combout $end
$var wire 1 ;! MULTIPLEX|y[3]~3_combout $end
$var wire 1 <! MEM|Mux6~1_combout $end
$var wire 1 =! MULTIPLEX|y[2]~2_combout $end
$var wire 1 >! MEM|Mux2~0_combout $end
$var wire 1 ?! CU|carga_REM~0_combout $end
$var wire 1 @! CU|carga_REM~combout $end
$var wire 1 A! CU|carga_REM~clkctrl_outclk $end
$var wire 1 B! MULTIPLEX|y[1]~1_combout $end
$var wire 1 C! MEM|Mux0~0_combout $end
$var wire 1 D! CU|carga_PC~0_combout $end
$var wire 1 E! CU|carga_RDM~1_combout $end
$var wire 1 F! CU|carga_RDM~combout $end
$var wire 1 G! CU|carga_RDM~clkctrl_outclk $end
$var wire 1 H! MEM|Mux1~0_combout $end
$var wire 1 I! CU|goto_t0~0_combout $end
$var wire 1 J! CU|goto_t0~1_combout $end
$var wire 1 K! CU|goto_t0~2_combout $end
$var wire 1 L! CU|goto_t0~3_combout $end
$var wire 1 M! CU|carga_AC~0_combout $end
$var wire 1 N! CU|carga_AC~combout $end
$var wire 1 O! CU|carga_AC~clkctrl_outclk $end
$var wire 1 P! REG_AC|q[0]~8_combout $end
$var wire 1 Q! CU|s[2]~0_combout $end
$var wire 1 R! ULA|Mux7~0_combout $end
$var wire 1 S! CU|s[1]~1_combout $end
$var wire 1 T! CU|s[1]~2_combout $end
$var wire 1 U! REG_AC|q[0]~9 $end
$var wire 1 V! REG_AC|q[1]~10_combout $end
$var wire 1 W! ULA|Mux6~0_combout $end
$var wire 1 X! REG_AC|q[1]~11 $end
$var wire 1 Y! REG_AC|q[2]~12_combout $end
$var wire 1 Z! ULA|Mux5~0_combout $end
$var wire 1 [! REG_AC|q[2]~13 $end
$var wire 1 \! REG_AC|q[3]~14_combout $end
$var wire 1 ]! ULA|Mux4~0_combout $end
$var wire 1 ^! REG_AC|q[3]~15 $end
$var wire 1 _! REG_AC|q[4]~16_combout $end
$var wire 1 `! ULA|Mux3~0_combout $end
$var wire 1 a! REG_AC|q[4]~17 $end
$var wire 1 b! REG_AC|q[5]~18_combout $end
$var wire 1 c! ULA|Mux2~0_combout $end
$var wire 1 d! REG_AC|q[5]~19 $end
$var wire 1 e! REG_AC|q[6]~20_combout $end
$var wire 1 f! ULA|Mux1~0_combout $end
$var wire 1 g! REG_AC|q[6]~21 $end
$var wire 1 h! REG_AC|q[7]~22_combout $end
$var wire 1 i! ULA|Mux0~2_combout $end
$var wire 1 j! REG_PC|count[3]~15 $end
$var wire 1 k! REG_PC|count[4]~16_combout $end
$var wire 1 l! REG_PC|count[4]~17 $end
$var wire 1 m! REG_PC|count[5]~18_combout $end
$var wire 1 n! REG_PC|count[5]~19 $end
$var wire 1 o! REG_PC|count[6]~20_combout $end
$var wire 1 p! REG_PC|count[6]~21 $end
$var wire 1 q! REG_PC|count[7]~22_combout $end
$var wire 1 r! ~GND~combout $end
$var wire 1 s! TIMER_DECODER|Mux5~clkctrl_outclk $end
$var wire 1 t! REG_RI|q[0]~feeder_combout $end
$var wire 1 u! REG_RI|q[1]~feeder_combout $end
$var wire 1 v! REG_RI|q[2]~feeder_combout $end
$var wire 1 w! REG_RI|q[3]~feeder_combout $end
$var wire 1 x! REG_PC|count [7] $end
$var wire 1 y! REG_PC|count [6] $end
$var wire 1 z! REG_PC|count [5] $end
$var wire 1 {! REG_PC|count [4] $end
$var wire 1 |! REG_PC|count [3] $end
$var wire 1 }! REG_PC|count [2] $end
$var wire 1 ~! REG_PC|count [1] $end
$var wire 1 !" REG_PC|count [0] $end
$var wire 1 "" REG_RDM|q [7] $end
$var wire 1 #" REG_RDM|q [6] $end
$var wire 1 $" REG_RDM|q [5] $end
$var wire 1 %" REG_RDM|q [4] $end
$var wire 1 &" REG_RDM|q [3] $end
$var wire 1 '" REG_RDM|q [2] $end
$var wire 1 (" REG_RDM|q [1] $end
$var wire 1 )" REG_RDM|q [0] $end
$var wire 1 *" REG_REM|q [7] $end
$var wire 1 +" REG_REM|q [6] $end
$var wire 1 ," REG_REM|q [5] $end
$var wire 1 -" REG_REM|q [4] $end
$var wire 1 ." REG_REM|q [3] $end
$var wire 1 /" REG_REM|q [2] $end
$var wire 1 0" REG_REM|q [1] $end
$var wire 1 1" REG_REM|q [0] $end
$var wire 1 2" REG_AC|q [7] $end
$var wire 1 3" REG_AC|q [6] $end
$var wire 1 4" REG_AC|q [5] $end
$var wire 1 5" REG_AC|q [4] $end
$var wire 1 6" REG_AC|q [3] $end
$var wire 1 7" REG_AC|q [2] $end
$var wire 1 8" REG_AC|q [1] $end
$var wire 1 9" REG_AC|q [0] $end
$var wire 1 :" TIMER|qs [2] $end
$var wire 1 ;" TIMER|qs [1] $end
$var wire 1 <" TIMER|qs [0] $end
$var wire 1 =" REG_RI|q [7] $end
$var wire 1 >" REG_RI|q [6] $end
$var wire 1 ?" REG_RI|q [5] $end
$var wire 1 @" REG_RI|q [4] $end
$var wire 1 A" REG_RI|q [3] $end
$var wire 1 B" REG_RI|q [2] $end
$var wire 1 C" REG_RI|q [1] $end
$var wire 1 D" REG_RI|q [0] $end
$upscope $end
$upscope $end
$enddefinitions $end
#0
$dumpvars
0!
x)
x(
x'
x&
x%
x$
x#
x"
x*
x+
x.
x-
x,
x6
x5
x4
x3
x2
x1
x0
x/
x>
x=
x<
x;
x:
x9
x8
07
xF
xE
xD
xC
0B
0A
0@
0?
xN
xM
xL
xK
xJ
xI
xH
0G
xO
0P
1Q
xR
1S
1T
1U
xV
xW
xX
xY
xZ
x[
x\
x]
x^
x_
x`
xa
xb
xc
xd
xe
xf
xg
xh
xi
xj
xk
xl
0m
0n
0o
0p
xq
xr
xs
xt
xu
xv
xw
0x
xy
xz
x{
x|
x}
x~
x!!
0"!
x#!
x$!
0%!
x&!
x'!
x(!
x)!
x*!
x+!
x,!
x-!
x.!
x/!
x0!
x1!
x2!
x3!
x4!
x5!
x6!
x7!
x8!
x9!
x:!
x;!
x<!
x=!
x>!
x?!
x@!
xA!
xB!
xC!
0D!
xE!
xF!
xG!
xH!
xI!
xJ!
xK!
xL!
0M!
xN!
xO!
xP!
xQ!
xR!
xS!
xT!
xU!
xV!
xW!
xX!
xY!
xZ!
x[!
x\!
x]!
x^!
x_!
x`!
xa!
xb!
xc!
xd!
xe!
xf!
xg!
xh!
xi!
xj!
xk!
xl!
xm!
xn!
xo!
xp!
xq!
0r!
xs!
xt!
xu!
xv!
xw!
0!"
0~!
0}!
0|!
0{!
0z!
0y!
0x!
0)"
0("
z'"
z&"
0%"
0$"
0#"
z""
01"
00"
0/"
0."
z-"
z,"
z+"
z*"
09"
08"
07"
06"
05"
04"
03"
02"
0<"
0;"
0:"
0D"
0C"
0B"
0A"
0@"
0?"
0>"
z="
$end
#480
0)!
#481
0-!
0N!
#561
0*!
#575
02!
#585
0+!
#586
0J!
#592
0I!
#598
0<!
#623
0Q!
#659
0p!
#660
0l!
05!
#679
09!
#680
0S!
#697
10!
#733
0,!
#735
0C!
#736
0;!
#737
0E!
#743
0(!
#750
0B!
#763
0>!
1H!
#768
0K!
#771
01!
#784
1n!
1j!
#807
17!
#845
0U!
#857
0=!
#894
1@!
#904
1T!
#960
0Z!
#1047
0g!
#1051
0[!
#1067
0?!
#1083
0a!
#1087
0L!
#1088
0P!
#1096
0q!
#1097
06!
0m!
#1116
0:!
#1167
1d!
#1179
1^!
1X!
#1206
0W!
0i!
#1207
0f!
#1210
0R!
0]!
0`!
0c!
#1221
0k!
0o!
#1240
0.!
#1244
08!
#1282
0V!
#1343
0F!
#1476
0t!
#1484
0h!
#1488
0\!
#1520
0b!
#1594
0O!
#1604
0e!
#1616
0Y!
0_!
#1647
1&!
#1766
0v!
#1772
0w!
#1773
0u!
#1965
1A!
#2089
0s!
#2138
03!
#2331
0/!
#2405
0'!
#2414
0G!
#2580
04!
#3043
0y
0N
#3190
0|
0K
#3213
0z
0M
#3266
0{
0L
#3428
0i
0F
#3460
0w
08
#3644
0l
0C
#3659
0W
0-
#3681
0k
0D
#3684
0g
00
#3686
0!!
0H
#3702
0v
09
#3712
0~
0I
#3722
0V
0.
#3751
0[
0'
#3758
0^
0$
#3803
0u
0:
#3856
0Y
0)
#3860
0q
0>
#3960
0X
0,
#3985
0h
0/
#4021
0s
0<
#4072
0Z
0(
#4123
0\
0&
#4143
0`
0"
#4150
0]
0%
#4174
0t
0;
#4259
0}
0J
#4377
0e
02
#4380
0c
04
#4386
0f
01
#4727
0d
03
#4732
0a
06
#4734
0b
05
#4919
0r
0=
#4982
0_
0#
#5325
0j
0E
#5513
0$!
0*
#6610
0#!
0+
#10000
1!
0O
#10545
1%!
#13209
1<"
#13736
0@!
#13852
1E!
#14413
1F!
#14789
0&!
#14811
0A!
#15253
13!
#15481
1G!
#15539
1'!
#15670
14!
#16974
1V
1.
#17311
1$"
#18340
1c!
#18354
1b!
#19756
1#!
1+
#20000
0!
1O
#20718
0%!
#21076
1v
19
#30000
1!
0O
#30545
1%!
#33209
1;"
0<"
#33605
0E!
#33606
0'!
#33860
1(!
#33862
1K!
#33866
03!
#33868
1Q!
#33881
1)!
#34003
04!
#34167
1L!
#34211
0F!
#34356
14!
#34612
1.!
#34807
1?"
#34856
1&!
#35033
0K!
#35139
0;"
#35222
0Q!
#35282
0G!
#35319
1J!
#35352
0L!
#35430
1S!
#35461
1+!
#35489
1s!
#35613
0(!
#35619
0)!
#35696
1/!
#35936
1?!
#36002
1@!
#36091
04!
#36379
0.!
#36931
0V
0.
#37073
1A!
#37228
0s!
#37470
0/!
#37533
1z!
#38160
1m!
#38577
1~
1I
#40000
0!
1O
#40121
0#!
0+
#40718
0%!
#41932
1f
11
#50000
1!
0O
#50545
1%!
#53209
1<"
#53736
0@!
#53852
1E!
#54413
1F!
#54789
0&!
#54811
0A!
#55253
13!
#55481
1G!
#55539
1'!
#55670
14!
#56974
1V
1.
#59756
1#!
1+
#60000
0!
1O
#60718
0%!
#70000
1!
0O
#70545
1%!
#73209
1;"
0<"
#73605
0E!
#73606
0'!
#73860
1(!
#73862
1K!
#73868
1Q!
#73881
1)!
#74003
04!
#74211
0F!
#74356
14!
#74612
1.!
#74856
1&!
#75033
0K!
#75222
0Q!
#75282
0G!
#75489
1s!
#75613
0(!
#75616
1'!
#75696
1/!
#76931
0V
0.
#76934
1W
1-
#77533
1!"
#78170
00!
#78247
15!
#78266
11!
#78702
16!
#78947
1$!
1*
#80000
0!
1O
#80718
0%!
#82315
1a
16
#90000
1!
0O
#90545
1%!
#93209
1<"
#93746
1@!
#93803
0)!
#94275
04!
#94563
0.!
#94789
0&!
#94817
1A!
#94927
1K!
#95174
1Q!
#95412
0s!
#95537
0'!
#95538
1(!
#95654
0/!
#96647
11"
#96974
1V
1.
#97155
0H!
#97161
1<!
#98305
0#!
0+
#98836
0$!
0*
#100000
0!
1O
#100140
1i
1F
#100718
0%!
#110000
1!
0O
#110545
1%!
#113209
0;"
1:"
0<"
#113631
1F!
#113702
1'!
#113758
0Q!
#113835
1,!
#114046
0@!
#114699
1G!
#114856
1&!
#114931
01!
#115033
0K!
#115121
0A!
#115246
1Q!
#115347
03!
#115614
0'!
#116529
1("
0$"
#116868
0W
0-
#116931
0V
0.
#117045
1B!
#117046
1=!
#117047
1;!
#117230
1X
1,
#117431
1W!
#117558
1]!
#117559
1Y!
#117560
1Z!
#117585
1V!
1\!
#117630
0c!
#117636
0b!
#118239
1v!
#118244
1w!
#118245
1u!
#120000
0!
1O
#120231
0v
09
#120608
1s
1<
#120718
0%!
#120769
1t
1;
#121451
1r
1=
#130000
1!
0O
#130545
1%!
#133209
1<"
#133578
0F!
#133746
1@!
#134649
0G!
#134789
0&!
#134817
1A!
#134927
1K!
#135150
0Q!
#135253
13!
#135539
1'!
#136647
01"
1."
1/"
10"
#136974
1V
1.
#137031
0<!
#140000
0!
1O
#140075
0i
0F
#140357
1l
1C
#140391
1k
1D
#140718
0%!
#142007
1j
1E
#150000
1!
0O
#150545
1%!
#153209
1;"
0<"
#153562
1F!
#153606
0'!
#153615
1-!
#153860
0(!
#153887
0K!
#153993
14!
#154022
0@!
#154630
1G!
#154856
1&!
#154895
11!
#154908
0;!
0=!
0B!
#155097
0A!
#155615
1(!
#155616
1'!
#156460
0("
#156931
0V
0.
#156934
1W
1-
#157414
0W!
#157542
0Y!
#157561
0]!
#157563
0Z!
#157573
0V!
0\!
#158079
1#!
1+
#158226
0v!
#158232
0w!
#158233
0u!
#160000
0!
1O
#160481
0s
0<
#160634
0t
0;
#160718
0%!
#161379
0r
0=
#170000
1!
0O
#170545
1%!
#173209
1<"
#173578
0F!
#173746
1.!
#173855
1N!
#174649
0G!
#174789
0&!
#174830
1/!
#174962
1O!
#175536
0(!
#175537
0'!
#176667
0!"
1~!
#176974
1V
1.
#177272
07!
#177327
05!
06!
#177364
10!
#177381
1B!
#177385
17!
#177438
01!
#177782
16!
#178081
1$!
1*
#180000
0!
1O
#180718
0%!
#181399
0a
06
#181418
1b
15
#190000
1!
0O
#190545
1%!
#193209
0;"
0:"
0<"
#193562
1F!
#193690
0-!
0N!
#193702
1'!
#193714
0F!
#193799
0.!
#193942
0,!
#194103
1@!
#194803
0O!
#194856
1&!
#194890
0/!
#195174
1A!
#195347
03!
#195614
0'!
#195789
04!
#196868
0W
0-
#196931
0V
0.
#197004
0."
0/"
#197169
0X
0,
#197767
1H!
#197768
1>!
#198072
0$!
0*
#199819
0#!
0+
#200000
0!
1O
#200648
0l
0C
#200685
0k
0D
#200718
0%!
#210000
1!
0O
#210545
1%!
#213209
1<"
#213736
0@!
#213852
1E!
#214413
1F!
#214789
0&!
#214811
0A!
#215253
13!
#215481
1G!
#215539
1'!
#215670
14!
#216974
1V
1.
#217311
1%"
1$"
#218340
1c!
#218354
1b!
#218367
1_!
#218389
1`!
#219756
1#!
1+
#220000
0!
1O
#220718
0%!
#221076
1v
19
#221202
1u
1:
#230000
1!
0O
#230545
1%!
#233209
1;"
0<"
#233605
0E!
#233606
0'!
#233860
1(!
#233862
1K!
#233868
1Q!
#233881
1)!
#234003
04!
#234211
0F!
#234356
14!
#234612
1.!
#234807
1@"
#234856
1&!
#235033
0K!
#235222
0Q!
#235282
0G!
#235489
1s!
#235613
0(!
#235616
1'!
#235696
1/!
#236931
0V
0.
#236934
1W
1-
#237533
1!"
#238170
00!
#238247
15!
#238266
11!
#238305
07!
#238684
06!
#238760
18!
#238947
1$!
1*
#239131
1}
1J
#240000
0!
1O
#240718
0%!
#242315
1a
16
#250000
1!
0O
#250545
1%!
#253209
1<"
#253746
1@!
#253803
0)!
#254275
04!
#254563
0.!
#254789
0&!
#254817
1A!
#255412
0s!
#255537
0'!
#255538
1(!
#255654
0/!
#256647
11"
#256974
1V
1.
#257155
0H!
#257158
0>!
#257161
1<!
#257291
12!
#258305
0#!
0+
#258836
0$!
0*
#260000
0!
1O
#260140
1i
1F
#260718
0%!
#270000
1!
0O
#270545
1%!
#273209
0;"
1:"
0<"
#273631
1F!
#273702
1'!
#273835
1,!
#274046
0@!
#274699
1G!
#274856
1&!
#274931
01!
#274934
0B!
#275121
0A!
#275347
03!
#275614
0'!
#276529
1)"
1("
0%"
0$"
#276868
0W
0-
#276931
0V
0.
#277045
1B!
#277046
1=!
#277047
1;!
#277230
1X
1,
#277342
11!
#277395
1R!
#277431
1W!
#277540
1P!
#277558
1]!
#277559
1Y!
#277560
1Z!
#277585
1V!
1\!
#277630
0c!
#277636
0b!
#277643
0_!
#277658
0`!
#277974
1t!
#278239
1v!
#278244
1w!
#278245
1u!
#280000
0!
1O
#280231
0v
09
#280332
0u
0:
#280456
1q
1>
#280608
1s
1<
#280718
0%!
#280769
1t
1;
#281451
1r
1=
#290000
1!
0O
#290545
1%!
#293209
1<"
#293578
0F!
#293746
1@!
#294649
0G!
#294789
0&!
#294817
1A!
#295253
13!
#295539
1'!
#296647
1."
1/"
#296974
1V
1.
#297031
02!
0<!
#300000
0!
1O
#300357
1l
1C
#300391
1k
1D
#300718
0%!
#310000
1!
0O
#310545
1%!
#313209
1;"
0<"
#313562
1F!
#313606
0'!
#313615
1-!
#313860
0(!
#313952
0T!
#313993
14!
#314022
0@!
#314630
1G!
#314856
1&!
#314908
0;!
0=!
#315005
1K!
#315097
0A!
#315615
1(!
#315616
1'!
#316460
0)"
0("
#316931
0V
0.
#316934
1W
1-
#317381
0R!
#317414
0W!
#317542
0Y!
#317548
0P!
#317561
0]!
#317563
0Z!
#317573
0V!
0\!
#317936
0t!
#318079
1#!
1+
#318226
0v!
#318232
0w!
#318233
0u!
#320000
0!
1O
#320320
0q
0>
#320481
0s
0<
#320634
0t
0;
#320718
0%!
#321379
0r
0=
#330000
1!
0O
#330545
1%!
#333209
1<"
#333578
0F!
#333746
1.!
#333855
1N!
#334649
0G!
#334789
0&!
#334830
1/!
#334955
0K!
#334962
1O!
#335536
0(!
#335537
0'!
#336667
0!"
0~!
1}!
#336974
1V
1.
#337323
08!
#337327
05!
#337364
10!
#337400
19!
#337417
0B!
#337438
01!
#337469
1=!
#337474
17!
#337532
09!
#337929
18!
#338081
1$!
1*
#340000
0!
1O
#340718
0%!
#341071
1c
14
#341399
0a
06
#341401
0b
05
#350000
1!
0O
#350545
1%!
#353209
0;"
0:"
0<"
#353562
1F!
#353690
0-!
0N!
#353702
1'!
#353714
0F!
#353799
0.!
#353942
0,!
#354103
1@!
#354113
1T!
#354803
0O!
#354856
1&!
#354890
0/!
#355174
1A!
#355347
03!
#355614
0'!
#355789
04!
#356868
0W
0-
#356931
0V
0.
#357004
01"
0."
00"
#357169
0X
0,
#357749
1>!
#357753
1C!
#358072
0$!
0*
#359819
0#!
0+
#360000
0!
1O
#360432
0i
0F
#360648
0l
0C
#360718
0%!
#362329
0j
0E
#370000
1!
0O
#370545
1%!
#373209
1<"
#373736
0@!
#373852
1E!
#374413
1F!
#374789
0&!
#374811
0A!
#375253
13!
#375481
1G!
#375539
1'!
#375670
14!
#376974
1V
1.
#377311
1%"
1#"
#378327
1f!
#378329
1e!
#378367
1_!
#378389
1`!
#379756
1#!
1+
#380000
0!
1O
#380718
0%!
#380830
1w
18
#381202
1u
1:
#390000
1!
0O
#390545
1%!
#393209
1;"
0<"
#393605
0E!
#393606
0'!
#393860
1(!
#393881
1)!
#394003
04!
#394211
0F!
#394356
14!
#394612
1.!
#394807
1>"
0?"
#394856
1&!
#395282
0G!
#395487
0S!
#395489
1s!
#395531
1*!
#395565
0+!
#395613
0(!
#395616
1'!
#395696
1/!
#396047
0?!
#396182
1+!
#396311
03!
#396657
1?!
#396909
13!
#396931
0V
0.
#396934
1W
1-
#397533
1!"
#398170
00!
#398247
15!
#398266
11!
#398519
0~
0I
#398558
1!!
1H
#398702
16!
#398947
1$!
1*
#400000
0!
1O
#400718
0%!
#402315
1a
16
#410000
1!
0O
#410545
1%!
#413209
1<"
#413746
1@!
#413803
0)!
#414275
04!
#414563
0.!
#414789
0&!
#414817
1A!
#415412
0s!
#415537
0'!
#415538
1(!
#415654
0/!
#416647
11"
#416974
1V
1.
#417154
0C!
#418305
0#!
0+
#418836
0$!
0*
#420000
0!
1O
#420140
1i
1F
#420718
0%!
#430000
1!
0O
#430545
1%!
#433209
0;"
1:"
0<"
#433631
1F!
1M!
#433702
1'!
#433835
1,!
#434046
0@!
#434051
1N!
#434699
1G!
#434856
1&!
#434931
01!
#434933
0=!
#435121
0A!
#435158
1O!
#435347
03!
#435614
0'!
#436529
0#"
#436868
0W
0-
#436931
0V
0.
#437002
15"
13"
#437230
1X
1,
#437625
0f!
#437826
0_!
#437913
1a!
#438368
1b!
#439989
0w
08
#440000
0!
1O
#440718
0%!
#441175
1]
1%
#442002
1_
1#
#450000
1!
0O
#450545
1%!
#453209
1<"
#453578
0F!
#453746
1@!
#453867
0N!
#454649
0G!
#454789
0&!
#454817
1A!
#454980
0O!
#455253
13!
#455539
1'!
#456647
01"
0/"
#456974
1V
1.
#457241
1H!
#457410
0>!
#460000
0!
1O
#460075
0i
0F
#460328
0k
0D
#460718
0%!
#470000
1!
0O
#470545
1%!
#473209
1;"
0<"
#473562
1F!
#473606
0'!
#473615
1-!
#473860
0(!
#473993
14!
#474022
0@!
#474630
1G!
#474856
1&!
#474895
11!
#474896
1=!
#475005
1K!
#475097
0A!
#475615
1(!
#475616
1'!
#476460
0%"
1$"
#476931
0V
0.
#476934
1W
1-
#477447
0d!
#477489
1c!
#477505
1g!
#477508
0b!
#477543
0a!
#477580
1_!
#477589
0`!
#477601
1d!
#477659
0g!
#477998
1b!
#478079
1#!
1+
#480000
0!
1O
#480225
1v
19
#480263
0u
0:
#480718
0%!
#490000
1!
0O
#490545
1%!
#493209
1<"
#493578
0F!
#493746
1.!
#493855
1N!
#494649
0G!
#494789
0&!
#494830
1/!
#494955
0K!
#494962
1O!
#495536
0(!
#495537
0'!
#496667
0!"
1~!
#496806
05"
14"
03"
#496974
1V
1.
#497272
07!
#497327
05!
06!
#497330
19!
#497364
10!
#497381
1B!
#497385
17!
#497400
0d!
#497438
01!
#497443
09!
#497462
0b!
#497695
0_!
#497782
16!
#498081
1$!
1*
#500000
0!
1O
#500612
1^
1$
#500718
0%!
#500956
0]
0%
#501399
0a
06
#501418
1b
15
#501788
0_
0#
#510000
1!
0O
#510545
1%!
#513209
0;"
0:"
0<"
#513562
1F!
#513690
0-!
#513702
1'!
#513714
0F!
0M!
#513799
0.!
#513942
0,!
#514103
1@!
#514160
0N!
#514856
1&!
#514890
0/!
#515174
1A!
#515273
0O!
#515347
03!
#515614
0'!
#515789
04!
#516868
0W
0-
#516931
0V
0.
#517004
1/"
10"
#517169
0X
0,
#517390
0H!
#518072
0$!
0*
#519819
0#!
0+
#520000
0!
1O
#520718
0%!
#520748
1k
1D
#522364
1j
1E
#530000
1!
0O
#530545
1%!
#533209
1<"
#533736
0@!
#533852
1E!
#534413
1F!
#534789
0&!
#534811
0A!
#535253
13!
#535481
1G!
#535539
1'!
#535670
14!
#536974
1V
1.
#537311
0$"
#538412
0c!
#538413
1b!
#538478
1d!
#538915
0e!
#539756
1#!
1+
#540000
0!
1O
#540718
0%!
#541013
0v
09
#550000
1!
0O
#550545
1%!
#553209
1;"
0<"
#553605
0E!
#553606
0'!
#553860
1(!
#553881
1)!
#554003
04!
#554211
0F!
#554356
14!
#554612
1.!
#554807
0@"
0>"
#554856
1&!
#555282
0G!
#555368
0*!
#555392
0+!
#555393
0J!
#555489
1s!
#555613
0(!
#555616
1'!
#555696
1/!
#555874
0?!
#556138
03!
#556931
0V
0.
#556934
1W
1-
#557533
1!"
#558170
00!
#558247
15!
#558266
11!
#558305
07!
#558363
19!
#558493
0!!
0H
#558684
06!
#558742
08!
#558818
1:!
#558947
1$!
1*
#559066
0}
0J
#560000
0!
1O
#560718
0%!
#562315
1a
16
#570000
1!
0O
#570545
1%!
#573209
1<"
#573803
0)!
#574275
04!
#574563
0.!
#574789
0&!
#574927
1K!
#575174
1Q!
#575232
1L!
#575412
0s!
#575537
0'!
#575538
1(!
#575654
0/!
#576204
0<"
0;"
#576697
1'!
#576920
0Q!
#576921
13!
#576947
0(!
#576972
0K!
#576974
1V
1.
#577067
1@!
#577291
0L!
#577338
14!
#577851
1&!
#578138
1A!
#578305
0#!
0+
#578342
03!
#578609
0'!
#578784
04!
#578836
0$!
0*
#579863
0W
0-
#579926
0V
0.
#579968
11"
#580000
0!
1O
#580718
0%!
#583461
1i
1F
#590000
1!
0O
#590545
1%!
#593209
1<"
#593736
0@!
#593852
1E!
#594413
1F!
#594789
0&!
#594811
0A!
#595253
13!
#595481
1G!
#595539
1'!
#595670
14!
#596974
1V
1.
#599756
1#!
1+
#600000
0!
1O
#600718
0%!
#610000
1!
0O
#610545
1%!
#613209
1;"
0<"
#613605
0E!
#613606
0'!
#613860
1(!
#613862
1K!
#613866
03!
#613868
1Q!
#613881
1)!
#614003
04!
#614167
1L!
#614211
0F!
#614356
14!
#614612
1.!
#614856
1&!
#615033
0K!
#615139
0;"
#615222
0Q!
#615282
0G!
#615352
0L!
#615489
1s!
#615613
0(!
#615619
0)!
#615696
1/!
#616002
1@!
#616091
04!
#616379
0.!
#616931
0V
0.
#617073
1A!
#617228
0s!
#617470
0/!
#617533
0!"
0~!
0}!
0z!
#618193
05!
#618212
09!
#618230
10!
#618249
0m!
18!
#618283
0B!
#618304
01!
#618340
17!
#618390
0=!
#618649
0:!
#618777
08!
#618903
01"
0/"
00"
#619497
1H!
#620000
0!
1O
#620121
0#!
0+
