simulation/qsim/neander_top.msim.vcd
$comment
	File created using the following command:
		vcd file neander_top.msim.vcd -direction
$end
$date
	Fri Oct 13 17:06:48 2023
$end
$version
	ModelSim Version 10.5b
$end
$timescale
	1ps
$end

$scope module neander_top_vlg_vec_tst $end
$var reg 1 ! mclk $end
$var wire 1 " AC_out [7] $end
$var wire 1 # AC_out [6] $end
$var wire 1 $ AC_out [5] $end
$var wire 1 % AC_out [4] $end
$var wire 1 & AC_out [3] $end
$var wire 1 ' AC_out [2] $end
$var wire 1 ( AC_out [1] $end
$var wire 1 ) AC_out [0] $end
$var wire 1 * cargaPC $end
$var wire 1 + incPC $end
$var wire 1 , INSTR_time [2] $end
$var wire 1 - INSTR_time [1] $end
$var wire 1 . INSTR_time [0] $end
$var wire 1 / PC_out [7] $end
$var wire 1 0 PC_out [6] $end
$var wire 1 1 PC_out [5] $end
$var wire 1 2 PC_out [4] $end
$var wire 1 3 PC_out [3] $end
$var wire 1 4 PC_out [2] $end
$var wire 1 5 PC_out [1] $end
$var wire 1 6 PC_out [0] $end
$var wire 1 7 RDM_out [7] $end
$var wire 1 8 RDM_out [6] $end
$var wire 1 9 RDM_out [5] $end
$var wire 1 : RDM_out [4] $end
$var wire 1 ; RDM_out [3] $end
$var wire 1 < RDM_out [2] $end
$var wire 1 = RDM_out [1] $end
$var wire 1 > RDM_out [0] $end
$var wire 1 ? REM_out [7] $end
$var wire 1 @ REM_out [6] $end
$var wire 1 A REM_out [5] $end
$var wire 1 B REM_out [4] $end
$var wire 1 C REM_out [3] $end
$var wire 1 D REM_out [2] $end
$var wire 1 E REM_out [1] $end
$var wire 1 F REM_out [0] $end
$var wire 1 G RI_out [7] $end
$var wire 1 H RI_out [6] $end
$var wire 1 I RI_out [5] $end
$var wire 1 J RI_out [4] $end
$var wire 1 K RI_out [3] $end
$var wire 1 L RI_out [2] $end
$var wire 1 M RI_out [1] $end
$var wire 1 N RI_out [0] $end
$var wire 1 O sampler $end

$scope module i1 $end
$var wire 1 P gnd $end
$var wire 1 Q vcc $end
$var wire 1 R unknown $end
$var tri1 1 S devclrn $end
$var tri1 1 T devpor $end
$var tri1 1 U devoe $end
$var wire 1 V INSTR_time[0]~output_o $end
$var wire 1 W INSTR_time[1]~output_o $end
$var wire 1 X INSTR_time[2]~output_o $end
$var wire 1 Y AC_out[0]~output_o $end
$var wire 1 Z AC_out[1]~output_o $end
$var wire 1 [ AC_out[2]~output_o $end
$var wire 1 \ AC_out[3]~output_o $end
$var wire 1 ] AC_out[4]~output_o $end
$var wire 1 ^ AC_out[5]~output_o $end
$var wire 1 _ AC_out[6]~output_o $end
$var wire 1 ` AC_out[7]~output_o $end
$var wire 1 a PC_out[0]~output_o $end
$var wire 1 b PC_out[1]~output_o $end
$var wire 1 c PC_out[2]~output_o $end
$var wire 1 d PC_out[3]~output_o $end
$var wire 1 e PC_out[4]~output_o $end
$var wire 1 f PC_out[5]~output_o $end
$var wire 1 g PC_out[6]~output_o $end
$var wire 1 h PC_out[7]~output_o $end
$var wire 1 i REM_out[0]~output_o $end
$var wire 1 j REM_out[1]~output_o $end
$var wire 1 k REM_out[2]~output_o $end
$var wire 1 l REM_out[3]~output_o $end
$var wire 1 m REM_out[4]~output_o $end
$var wire 1 n REM_out[5]~output_o $end
$var wire 1 o REM_out[6]~output_o $end
$var wire 1 p REM_out[7]~output_o $end
$var wire 1 q RDM_out[0]~output_o $end
$var wire 1 r RDM_out[1]~output_o $end
$var wire 1 s RDM_out[2]~output_o $end
$var wire 1 t RDM_out[3]~output_o $end
$var wire 1 u RDM_out[4]~output_o $end
$var wire 1 v RDM_out[5]~output_o $end
$var wire 1 w RDM_out[6]~output_o $end
$var wire 1 x RDM_out[7]~output_o $end
$var wire 1 y RI_out[0]~output_o $end
$var wire 1 z RI_out[1]~output_o $end
$var wire 1 { RI_out[2]~output_o $end
$var wire 1 | RI_out[3]~output_o $end
$var wire 1 } RI_out[4]~output_o $end
$var wire 1 ~ RI_out[5]~output_o $end
$var wire 1 !! RI_out[6]~output_o $end
$var wire 1 "! RI_out[7]~output_o $end
$var wire 1 #! incPC~output_o $end
$var wire 1 $! cargaPC~output_o $end
$var wire 1 %! mclk~input_o $end
$var wire 1 &! TIMER|qs[0]~2_combout $end
$var wire 1 '! TIMER|qs[1]~0_combout $end
$var wire 1 (! TIMER|qs[2]~1_combout $end
$var wire 1 )! TIMER_DECODER|Mux5~combout $end
$var wire 1 *! CU|carga_PC~combout $end
$var wire 1 +! CU|carga_PC~clkctrl_outclk $end
$var wire 1 ,! REG_PC|count[0]~8_combout $end
$var wire 1 -! MULTIPLEX|y[0]~0_combout $end
$var wire 1 .! MEM|Mux6~0_combout $end
$var wire 1 /! TIMER_DECODER|Mux6~0_combout $end
$var wire 1 0! CU|inc_PC~combout $end
$var wire 1 1! REG_PC|count[0]~9 $end
$var wire 1 2! REG_PC|count[1]~10_combout $end
$var wire 1 3! MEM|Mux5~0_combout $end
$var wire 1 4! REG_PC|count[1]~11 $end
$var wire 1 5! REG_PC|count[2]~12_combout $end
$var wire 1 6! MULTIPLEX|y[2]~2_combout $end
$var wire 1 7! MEM|Mux4~0_combout $end
$var wire 1 8! REG_PC|count[2]~13 $end
$var wire 1 9! REG_PC|count[3]~14_combout $end
$var wire 1 :! MULTIPLEX|y[3]~3_combout $end
$var wire 1 ;! MEM|Mux1~0_combout $end
$var wire 1 <! CU|carga_REM~0_combout $end
$var wire 1 =! CU|carga_REM~combout $end
$var wire 1 >! CU|carga_REM~clkctrl_outclk $end
$var wire 1 ?! MULTIPLEX|y[1]~1_combout $end
$var wire 1 @! MEM|Mux0~0_combout $end
$var wire 1 A! CU|carga_RDM~2_combout $end
$var wire 1 B! CU|carga_RDM~combout $end
$var wire 1 C! CU|carga_RDM~clkctrl_outclk $end
$var wire 1 D! MEM|Mux2~0_combout $end
$var wire 1 E! CU|goto_t0~0_combout $end
$var wire 1 F! CU|goto_t0~1_combout $end
$var wire 1 G! CU|carga_AC~0_combout $end
$var wire 1 H! CU|carga_AC~combout $end
$var wire 1 I! CU|carga_AC~clkctrl_outclk $end
$var wire 1 J! REG_AC|q[0]~8_combout $end
$var wire 1 K! REG_AC|q[0]~feeder_combout $end
$var wire 1 L! CU|s[2]~1_combout $end
$var wire 1 M! CU|s[2]~0_combout $end
$var wire 1 N! ULA|Mux7~0_combout $end
$var wire 1 O! CU|s[1]~2_combout $end
$var wire 1 P! REG_AC|q[0]~9 $end
$var wire 1 Q! REG_AC|q[1]~10_combout $end
$var wire 1 R! ULA|Mux6~0_combout $end
$var wire 1 S! REG_AC|q[1]~11 $end
$var wire 1 T! REG_AC|q[2]~12_combout $end
$var wire 1 U! ULA|Mux5~0_combout $end
$var wire 1 V! REG_AC|q[2]~13 $end
$var wire 1 W! REG_AC|q[3]~14_combout $end
$var wire 1 X! ULA|Mux4~0_combout $end
$var wire 1 Y! REG_AC|q[3]~15 $end
$var wire 1 Z! REG_AC|q[4]~16_combout $end
$var wire 1 [! ULA|Mux3~0_combout $end
$var wire 1 \! REG_AC|q[4]~17 $end
$var wire 1 ]! REG_AC|q[5]~18_combout $end
$var wire 1 ^! ULA|Mux2~0_combout $end
$var wire 1 _! REG_AC|q[5]~19 $end
$var wire 1 `! REG_AC|q[6]~20_combout $end
$var wire 1 a! ULA|Mux1~0_combout $end
$var wire 1 b! REG_AC|q[6]~21 $end
$var wire 1 c! REG_AC|q[7]~22_combout $end
$var wire 1 d! ULA|Mux0~2_combout $end
$var wire 1 e! REG_PC|count[3]~15 $end
$var wire 1 f! REG_PC|count[4]~16_combout $end
$var wire 1 g! REG_PC|count[4]~17 $end
$var wire 1 h! REG_PC|count[5]~18_combout $end
$var wire 1 i! REG_PC|count[5]~19 $end
$var wire 1 j! REG_PC|count[6]~20_combout $end
$var wire 1 k! REG_PC|count[6]~21 $end
$var wire 1 l! REG_PC|count[7]~22_combout $end
$var wire 1 m! ~GND~combout $end
$var wire 1 n! TIMER_DECODER|Mux5~clkctrl_outclk $end
$var wire 1 o! REG_RI|q[0]~feeder_combout $end
$var wire 1 p! REG_RI|q[1]~feeder_combout $end
$var wire 1 q! REG_RI|q[2]~feeder_combout $end
$var wire 1 r! REG_RI|q[3]~feeder_combout $end
$var wire 1 s! REG_AC|q [7] $end
$var wire 1 t! REG_AC|q [6] $end
$var wire 1 u! REG_AC|q [5] $end
$var wire 1 v! REG_AC|q [4] $end
$var wire 1 w! REG_AC|q [3] $end
$var wire 1 x! REG_AC|q [2] $end
$var wire 1 y! REG_AC|q [1] $end
$var wire 1 z! REG_AC|q [0] $end
$var wire 1 {! REG_REM|q [7] $end
$var wire 1 |! REG_REM|q [6] $end
$var wire 1 }! REG_REM|q [5] $end
$var wire 1 ~! REG_REM|q [4] $end
$var wire 1 !" REG_REM|q [3] $end
$var wire 1 "" REG_REM|q [2] $end
$var wire 1 #" REG_REM|q [1] $end
$var wire 1 $" REG_REM|q [0] $end
$var wire 1 %" REG_PC|count [7] $end
$var wire 1 &" REG_PC|count [6] $end
$var wire 1 '" REG_PC|count [5] $end
$var wire 1 (" REG_PC|count [4] $end
$var wire 1 )" REG_PC|count [3] $end
$var wire 1 *" REG_PC|count [2] $end
$var wire 1 +" REG_PC|count [1] $end
$var wire 1 ," REG_PC|count [0] $end
$var wire 1 -" REG_RI|q [7] $end
$var wire 1 ." REG_RI|q [6] $end
$var wire 1 /" REG_RI|q [5] $end
$var wire 1 0" REG_RI|q [4] $end
$var wire 1 1" REG_RI|q [3] $end
$var wire 1 2" REG_RI|q [2] $end
$var wire 1 3" REG_RI|q [1] $end
$var wire 1 4" REG_RI|q [0] $end
$var wire 1 5" TIMER|qs [2] $end
$var wire 1 6" TIMER|qs [1] $end
$var wire 1 7" TIMER|qs [0] $end
$var wire 1 8" REG_RDM|q [7] $end
$var wire 1 9" REG_RDM|q [6] $end
$var wire 1 :" REG_RDM|q [5] $end
$var wire 1 ;" REG_RDM|q [4] $end
$var wire 1 <" REG_RDM|q [3] $end
$var wire 1 =" REG_RDM|q [2] $end
$var wire 1 >" REG_RDM|q [1] $end
$var wire 1 ?" REG_RDM|q [0] $end
$upscope $end
$upscope $end
$enddefinitions $end
#0
$dumpvars
0!
x)
x(
x'
x&
x%
x$
x#
x"
x*
x+
x.
x-
x,
x6
x5
x4
x3
x2
x1
x0
x/
x>
x=
x<
x;
x:
x9
x8
07
xF
xE
xD
xC
0B
0A
0@
0?
xN
xM
xL
xK
xJ
xI
xH
0G
xO
0P
1Q
xR
1S
1T
1U
xV
xW
xX
xY
xZ
x[
x\
x]
x^
x_
x`
xa
xb
xc
xd
xe
xf
xg
xh
xi
xj
xk
xl
0m
0n
0o
0p
xq
xr
xs
xt
xu
xv
xw
0x
xy
xz
x{
x|
x}
x~
x!!
0"!
x#!
x$!
0%!
x&!
x'!
x(!
x)!
x*!
x+!
x,!
x-!
x.!
x/!
x0!
x1!
x2!
x3!
x4!
x5!
x6!
x7!
x8!
x9!
x:!
x;!
x<!
x=!
x>!
x?!
x@!
xA!
xB!
xC!
xD!
xE!
xF!
xG!
xH!
xI!
xJ!
xK!
0L!
0M!
xN!
xO!
xP!
xQ!
xR!
xS!
xT!
xU!
xV!
xW!
xX!
xY!
xZ!
x[!
x\!
x]!
x^!
x_!
x`!
xa!
xb!
xc!
xd!
xe!
xf!
xg!
xh!
xi!
xj!
xk!
xl!
0m!
xn!
xo!
xp!
xq!
xr!
0z!
0y!
0x!
0w!
0v!
0u!
0t!
0s!
0$"
0#"
0""
0!"
z~!
z}!
z|!
z{!
0,"
0+"
0*"
0)"
0("
0'"
0&"
0%"
04"
03"
02"
01"
00"
0/"
0."
z-"
07"
06"
05"
0?"
0>"
0="
z<"
0;"
0:"
09"
z8"
$end
#425
0o!
#435
0q!
#436
0r!
#446
0H!
#502
0(!
#553
0p!
#562
0A!
#606
0)!
#616
1=!
#659
0k!
#660
0g!
0P!
#671
08!
01!
#676
0<!
#708
1,!
#714
0E!
#717
0G!
#718
1S!
#726
0d!
#776
0V!
#784
1i!
#794
1e!
#799
14!
#827
07!
#828
0.!
#829
03!
#899
0^!
0[!
#932
0@!
#944
06!
#949
0-!
#970
0?!
#975
1O!
#1031
0F!
#1073
0J!
#1082
0b!
#1096
0l!
#1097
0h!
#1105
0:!
#1108
0\!
02!
09!
#1113
0T!
#1114
0N!
#1116
0D!
#1123
1;!
#1129
0a!
#1133
0X!
#1134
0U!
#1143
0R!
#1156
0Q!
#1210
1Y!
#1213
0W!
#1221
0j!
#1231
0f!
#1236
05!
#1261
1_!
#1519
0c!
#1545
0]!
#1553
0*!
#1589
0B!
#1608
1&!
#1647
0Z!
#1678
0K!
#1698
0`!
#2102
0I!
#2260
1>!
#2262
0n!
#2507
0/!
#2517
0'!
#3066
00!
#3196
0+!
#3231
0C!
#3714
0i
0F
#3721
0b
05
#3756
0e
02
#3773
0d
03
#3889
0q
0>
#3989
0w
08
#4025
0h
0/
#4031
0Y
0)
#4064
0r
0=
#4066
0g
00
#4076
0u
0:
#4082
0{
0L
#4099
0v
09
#4120
0[
0'
#4137
0Z
0(
#4141
0z
0M
#4174
0\
0&
#4181
0]
0%
#4197
0^
0$
#4223
0_
0#
#4224
0l
0C
#4253
0W
0-
#4261
0k
0D
#4351
0j
0E
#4352
0c
04
#4367
0X
0,
#4377
0f
01
#4416
0`
0"
#4582
0|
0K
#4676
0t
0;
#4706
0s
0<
#4732
0a
06
#4782
0V
0.
#4820
0~
0I
#4931
0y
0N
#5523
0!!
0H
#5670
0$!
0*
#6074
0}
0J
#7623
0#!
0+
#10000
1!
0O
#10545
1%!
#13127
17"
#13518
1B!
#13786
0=!
#14685
0&!
#15149
1C!
#15445
0>!
#15536
1/!
#15563
1'!
#16089
10!
#16990
1:"
#17825
1^!
#17962
1V
1.
#18108
1]!
#20000
0!
1O
#20718
0%!
#20748
1#!
1+
#21126
1v
19
#30000
1!
0O
#30545
1%!
#33127
16"
07"
#33496
0B!
#33627
0/!
#33631
0'!
#33632
1E!
#33633
1(!
#33684
1)!
#33935
1F!
#34607
1*!
#34735
1&!
#34906
06"
#34952
1/"
#35138
0C!
#35290
0F!
#35325
1n!
#35492
0(!
#35493
1'!
#35512
0)!
#35522
1=!
#35585
0E!
#35644
0'!
#36234
1+!
#36240
00!
#36459
0*!
#37166
1>!
#37168
0n!
#37909
0V
0.
#38074
1'"
#38102
0+!
#38701
1h!
#39761
1~
1I
#40000
0!
1O
#40718
0%!
#40797
0#!
0+
#42529
1f
11
#50000
1!
0O
#50545
1%!
#53127
17"
#53518
1B!
#53786
0=!
#54685
0&!
#55149
1C!
#55445
0>!
#55536
1/!
#55563
1'!
#56089
10!
#57962
1V
1.
#60000
0!
1O
#60718
0%!
#60748
1#!
1+
#70000
1!
0O
#70545
1%!
#73127
16"
07"
#73496
0B!
#73627
0/!
#73631
0'!
#73633
1(!
#73684
1)!
1<!
#73685
1L!
#74607
1*!
#74735
1&!
#75138
0C!
#75325
1n!
#75640
0L!
#75654
1'!
#75774
0(!
#76234
1+!
#77439
1W
1-
#77909
0V
0.
#78074
1,"
#78707
1-!
#78719
0,!
#78796
11!
#78815
1$!
1*
#79251
12!
#80000
0!
1O
#80718
0%!
#82806
1a
16
#90000
1!
0O
#90545
1%!
#93127
17"
#93496
0)!
#93757
1G!
#93770
1=!
#94224
00!
#94443
0*!
#94685
0&!
#95152
0n!
#95414
1>!
#95541
1L!
#95553
0'!
#95646
1(!
#96086
0+!
#97255
1$"
#97962
1V
1.
#98010
0;!
#98019
17!
#98020
13!
#98560
0$!
0*
#98781
0#!
0+
#100000
0!
1O
#100718
0%!
#101004
1i
1F
#110000
1!
0O
#110545
1%!
#113127
06"
15"
07"
#113496
0<!
#113644
1A!
#113714
1'!
#113744
1<!
#113748
1H!
#113771
0L!
#113844
0G!
#113872
0=!
#114287
0H!
#114573
0-!
#114635
1B!
#114735
1&!
#115531
0>!
#115628
1L!
#115644
0'!
#116266
1C!
#117380
0W
0-
#117585
1X
1,
#117909
0V
0.
#118107
1>"
1="
0:"
#118482
1q!
#118483
1r!
#118591
1p!
#118993
16!
#119006
0^!
#119017
1?!
#119124
1:!
#119154
1R!
#119178
1T!
1U!
1X!
#119182
1Q!
#119204
1W!
#119308
0]!
#120000
0!
1O
#120718
0%!
#122206
0v
09
#122207
1r
1=
#122853
1t
1;
#122883
1s
1<
#130000
1!
0O
#130545
1%!
#133127
17"
#133508
0B!
#133770
1=!
#134685
0&!
#135150
0C!
#135414
1>!
#135553
0L!
#135563
1'!
#137255
0$"
1""
1!"
1#"
#137962
1V
1.
#138093
1.!
#138144
07!
#140000
0!
1O
#140718
0%!
#140969
0i
0F
#141535
1l
1C
#141564
1k
1D
#141662
1j
1E
#150000
1!
0O
#150545
1%!
#153127
16"
07"
#153597
1B!
#153631
0'!
0(!
#153674
0<!
#153872
0=!
#154144
10!
#154525
06!
0:!
0?!
#154536
1-!
#154735
1&!
#155228
1C!
#155531
0>!
#155654
1'!
#155768
1(!
#157069
1?"
0="
#157437
1o!
#157439
1W
1-
#157504
0q!
#157505
0r!
#157909
0V
0.
#158069
1J!
#158122
1N!
#158182
0T!
#158202
0X!
#158203
0U!
#158213
0W!
#158628
1K!
#158803
1#!
1+
#160000
0!
1O
#160718
0%!
#160977
1q
1>
#161745
0t
0;
#161775
0s
0<
#170000
1!
0O
#170545
1%!
#173127
17"
#173508
0B!
#173726
1*!
#173757
1G!
#174173
1H!
#174685
0&!
#175150
0C!
#175353
1+!
#175553
0'!
#175652
0(!
#175816
1I!
#177193
0,"
1+"
#177656
1z!
1y!
#177786
04!
#177826
1?!
#177841
02!
#177864
01!
#177897
0-!
#177901
1,!
#177922
14!
#177934
1$!
1*
#177962
1V
1.
#178248
0S!
#178292
0J!
#178309
0Q!
#178319
12!
#178369
1P!
#178703
1T!
#178824
1Q!
#178897
0K!
#180000
0!
1O
#180718
0%!
#180970
1b
15
#181677
1Y
1)
#181870
1Z
1(
#181925
0a
06
#190000
1!
0O
#190545
1%!
#193127
06"
05"
07"
#193480
1<!
#193597
1B!
#193633
1/!
#193689
0A!
#193714
1'!
#193734
0<!
#193743
1=!
#193808
0*!
#193844
0G!
#193850
0H!
#194716
0B!
#194735
1&!
#195387
1>!
#195451
0+!
#195506
0I!
#195634
0/!
#195644
0'!
#196193
00!
#197228
0""
0!"
#197380
0W
0-
#197494
0X
0,
#197909
0V
0.
#197925
0$!
0*
#198166
0.!
#198168
03!
#198342
1D!
#198351
1;!
#200000
0!
1O
#200718
0%!
#200750
0#!
0+
#201452
0l
0C
#201489
0k
0D
#210000
1!
0O
#210545
1%!
#213127
17"
#213518
1B!
#213786
0=!
#214685
0&!
#215149
1C!
#215445
0>!
#215536
1/!
#215563
1'!
#216089
10!
#216990
0?"
0>"
1:"
1;"
#217415
0o!
#217543
0p!
#217825
1^!
#217826
1[!
#217962
1V
1.
#218011
0P!
#218035
1J!
#218062
1Z!
#218069
1S!
#218104
0N!
#218108
1]!
#218133
0R!
#218506
0T!
#218594
1K!
#220000
0!
1O
#220718
0%!
#220748
1#!
1+
#220879
0q
0>
#221054
0r
0=
#221104
1u
1:
#221126
1v
19
#230000
1!
0O
#230545
1%!
#233127
16"
07"
#233496
0B!
#233627
0/!
#233631
0'!
#233633
1(!
#233684
1)!
1<!
#233685
1L!
#234607
1*!
#234735
1&!
#234952
10"
#235138
0C!
#235325
1n!
#235640
0L!
#235654
1'!
#235774
0(!
#236234
1+!
#237439
1W
1-
#237909
0V
0.
#238074
1,"
#238707
1-!
#238719
0,!
#238796
11!
#238815
1$!
1*
#238854
04!
#239233
02!
#239309
15!
#240000
0!
1O
#240718
0%!
#240897
1}
1J
#242806
1a
16
#250000
1!
0O
#250545
1%!
#253127
17"
#253496
0)!
#253757
1G!
#253770
1=!
#254224
00!
#254443
0*!
#254685
0&!
#255152
0n!
#255414
1>!
#255541
1L!
#255553
0'!
#255646
1(!
#256086
0+!
#257255
1$"
#257962
1V
1.
#258010
0;!
#258011
0D!
#258019
17!
#258020
1.!
13!
#258560
0$!
0*
#258781
0#!
0+
#260000
0!
1O
#260718
0%!
#261004
1i
1F
#270000
1!
0O
#270545
1%!
#273127
06"
15"
07"
#273496
0<!
#273644
1A!
#273714
1'!
#273744
1<!
#273748
1H!
#273771
0L!
#273844
0G!
#273872
0=!
#274287
0H!
#274572
0?!
#274573
0-!
#274635
1B!
#274735
1&!
#275531
0>!
#275628
1L!
#275644
0'!
#276266
1C!
#277380
0W
0-
#277585
1X
1,
#277909
0V
0.
#278107
1?"
1>"
1="
0:"
0;"
#278475
1o!
#278482
1q!
#278483
1r!
#278591
1p!
#278993
16!
#279006
0[!
0^!
#279016
1-!
#279017
1?!
#279119
0S!
#279124
1:!
#279135
0J!
#279154
1R!
#279160
1N!
#279177
1V!
#279178
1U!
1X!
#279181
0Q!
#279204
1P!
#279235
0Y!
#279308
0]!
#279659
1Q!
#279740
0K!
#280000
0!
1O
#280718
0%!
#282015
1q
1>
#282183
0u
0:
#282206
0v
09
#282207
1r
1=
#282853
1t
1;
#282883
1s
1<
#290000
1!
0O
#290545
1%!
#293127
17"
#293508
0B!
#293770
1=!
#294685
0&!
#295150
0C!
#295414
1>!
#295553
0L!
#295563
1'!
#297255
1""
1!"
#297962
1V
1.
#298132
0.!
#298144
07!
#300000
0!
1O
#300718
0%!
#301535
1l
1C
#301564
1k
1D
#310000
1!
0O
#310545
1%!
#313127
16"
07"
#313597
1B!
#313631
0'!
0(!
#313674
0<!
#313872
0=!
#314036
0O!
#314144
10!
#314525
06!
0:!
#314735
1&!
#315228
1C!
#315531
0>!
#315654
1'!
#315768
1(!
#317069
0?"
0="
#317439
1W
1-
#317494
0o!
#317504
0q!
#317505
0r!
#317909
0V
0.
#318090
0P!
#318114
1J!
#318151
0V!
#318183
0N!
#318188
1T!
#318202
0X!
#318203
0U!
#318279
1Y!
#318527
0Q!
#318673
1K!
#318716
0Z!
#318803
1#!
1+
#320000
0!
1O
#320718
0%!
#320958
0q
0>
#321745
0t
0;
#321775
0s
0<
#330000
1!
0O
#330545
1%!
#333127
17"
#333508
0B!
#333726
1*!
#333757
1G!
#334173
1H!
#334685
0&!
#335150
0C!
#335353
1+!
#335553
0'!
#335652
0(!
#335816
1I!
#337193
0,"
0+"
1*"
#337656
0y!
1x!
#337827
16!
#337837
05!
#337864
01!
#337897
0-!
#337899
0?!
#337901
1,!
#337914
18!
#337934
1$!
1*
#337962
1V
1.
#337992
14!
#338050
08!
#338283
0T!
#338370
1V!
#338383
1Q!
#338447
15!
#338448
1S!
#338506
0V!
#338903
1T!
#340000
0!
1O
#340718
0%!
#340914
0b
05
#341580
1c
14
#341793
0Z
0(
#341838
1[
1'
#341925
0a
06
#350000
1!
0O
#350545
1%!
#353127
06"
05"
07"
#353480
1<!
#353597
1B!
#353633
1/!
#353689
0A!
#353714
1'!
#353734
0<!
#353743
1=!
#353808
0*!
#353844
0G!
#353850
0H!
#354102
1O!
#354716
0B!
#354735
1&!
#355387
1>!
#355451
0+!
#355506
0I!
#355634
0/!
#355644
0'!
#356193
00!
#357228
0$"
0!"
0#"
#357380
0W
0-
#357494
0X
0,
#357909
0V
0.
#357925
0$!
0*
#358314
03!
#358323
1@!
#358328
1;!
#360000
0!
1O
#360718
0%!
#360750
0#!
0+
#360942
0i
0F
#361452
0l
0C
#361579
0j
0E
#370000
1!
0O
#370545
1%!
#373127
17"
#373518
1B!
#373786
0=!
#374685
0&!
#375149
1C!
#375445
0>!
#375536
1/!
#375563
1'!
#376089
10!
#376990
0>"
1:"
19"
#377543
0p!
#377825
1^!
#377962
1V
1.
#378040
1a!
#378045
1`!
#378108
1]!
#378133
0R!
#378146
0Q!
#380000
0!
1O
#380718
0%!
#380748
1#!
1+
#381031
1w
18
#381054
0r
0=
#381126
1v
19
#390000
1!
0O
#390545
1%!
#393127
16"
07"
#393496
0B!
#393627
0/!
#393631
0'!
#393633
1(!
#393684
1)!
1<!
#393685
1L!
#394607
1*!
#394735
1&!
#394952
1."
00"
#395138
0C!
#395325
1n!
#395531
1M!
#395640
0L!
#395654
1'!
#395744
0<!
#395774
0(!
#396234
1+!
#397439
1W
1-
#397909
0V
0.
#398074
1,"
#398707
1-!
#398719
0,!
#398796
11!
#398815
1$!
1*
#399251
12!
#400000
0!
1O
#400386
1!!
1H
#400718
0%!
#401026
0}
0J
#402806
1a
16
#410000
1!
0O
#410545
1%!
#413127
17"
#413496
0)!
#414224
00!
#414443
0*!
#414685
0&!
#415152
0n!
#415541
1L!
#415553
0'!
#415646
1(!
#416086
0+!
#416263
1d!
#416430
1[!
#416431
1X!
#416438
1R!
#417962
1V
1.
#418560
0$!
0*
#418781
0#!
0+
#420000
0!
1O
#420718
0%!
#430000
1!
0O
#430545
1%!
#433127
06"
15"
07"
#433713
1E!
#433714
1'!
#433743
1G!
#433771
0L!
#434016
1F!
#434159
1H!
#434497
0d!
#434675
0[!
#434676
0X!
#434685
0R!
#434735
1&!
#434987
05"
#435290
0F!
#435487
0E!
#435489
0(!
#435644
0'!
#435710
0H!
#435751
1=!
#437380
0W
0-
#437395
1>!
#437909
0V
0.
#439236
1$"
#439989
0@!
#439991
0;!
#440000
0!
1O
#440718
0%!
#442985
1i
1F
#450000
1!
0O
#450545
1%!
#453127
17"
#453518
1B!
#453758
0G!
#453786
0=!
#454685
0&!
#455149
1C!
#455445
0>!
#455536
1/!
#455563
1'!
#456089
10!
#456990
0:"
09"
#457889
0^!
#457962
1V
1.
#458106
0`!
#458119
0a!
#458191
0]!
#460000
0!
1O
#460718
0%!
#460748
1#!
1+
#460979
0w
08
#461089
0v
09
#470000
1!
0O
#470545
1%!
#473127
16"
07"
#473496
0B!
#473627
0/!
#473631
0'!
#473633
1(!
#473684
1)!
#473685
1L!
#474407
1d!
#474574
1[!
#474575
1X!
#474581
1^!
#474582
1R!
#474583
1a!
#474607
1*!
#474735
1&!
#474952
0/"
0."
#475138
0C!
#475321
0M!
0L!
#475325
1n!
#475654
1'!
#475774
0(!
#475792
1E!
#476047
0d!
#476225
0[!
#476226
0X!
#476233
0^!
#476234
1+!
#476235
0R!
0a!
#477439
1W
1-
#477909
0V
0.
#478074
0,"
1+"
#478667
04!
#478707
1?!
#478722
02!
#478725
18!
#478745
01!
#478778
0-!
#478782
1,!
#478803
14!
#478815
1$!
1*
#478861
08!
#479200
12!
#479772
0~
0I
#480000
0!
1O
#480475
0!!
0H
#480718
0%!
#481851
1b
15
#482806
0a
06
#490000
1!
0O
#490545
1%!
#493127
17"
#493496
0)!
#493757
1G!
#494224
00!
#494443
0*!
#494685
0&!
#495152
0n!
#495211
1F!
#495553
0'!
#495646
1(!
#496086
0+!
#496182
07"
06"
#496535
1)!
#496762
1/!
#496766
0E!
#496768
0(!
#496769
1'!
#496788
0)!
#496798
1=!
#496899
0G!
#497083
0F!
#497315
10!
#497790
1&!
#497962
1V
1.
#498442
1>!
#498560
0$!
0*
#498689
0/!
#498699
0'!
#498781
0#!
0+
#499248
00!
#500000
0!
1O
#500283
0$"
1#"
#500435
0W
0-
#500718
0%!
#500964
0V
0.
#503997
0i
0F
#504690
1j
1E
#510000
1!
0O
#510545
1%!
#513127
17"
#513518
1B!
#513786
0=!
#514685
0&!
#515149
1C!
#515445
0>!
#515536
1/!
#515563
1'!
#516089
10!
#517962
1V
1.
#520000
0!
1O
#520718
0%!
#520748
1#!
1+
#530000
1!
0O
#530545
1%!
#533127
16"
07"
#533496
0B!
#533627
0/!
#533631
0'!
#533632
1E!
#533633
1(!
#533684
1)!
#533935
1F!
#534607
1*!
#534735
1&!
#534906
06"
#535138
0C!
#535290
0F!
#535325
1n!
#535490
0E!
#535492
0(!
#535493
1'!
#535512
0)!
#535522
1=!
#535644
0'!
#536234
1+!
#536240
00!
#536459
0*!
#537166
1>!
#537168
0n!
#537909
0V
0.
#538074
0+"
0*"
0'"
#538102
0+!
#538780
0?!
#538781
06!
#538790
0h!
#538796
05!
#538800
02!
#539007
x#"
x""
#539883
x;!
#540000
0!
1O
#540029
x@!
#540058
xD!
#540718
0%!
#540797
0#!
0+
#541795
0b
05
#542426
0c
04
#542451
0f
01
#543214
xk
xD
#543312
xj
xE
#550000
1!
0O
#550545
1%!
#553127
17"
#553518
1B!
#553786
0=!
#554685
0&!
#555149
1C!
#555445
0>!
#555536
1/!
#555563
1'!
#556089
10!
#556990
x:"
x9"
x;"
#557825
x^!
#557826
x[!
#557962
1V
1.
#558040
xa!
#558045
x`!
#558062
xZ!
#558108
x]!
#560000
0!
1O
#560718
0%!
#560748
1#!
1+
#561031
xw
x8
#561104
xu
x:
#561126
xv
x9
#570000
1!
0O
#570545
1%!
#573127
16"
07"
#573496
0B!
#573627
0/!
#573631
0'!
#573632
1E!
#573633
1(!
#573684
1)!
#573935
1F!
#574607
1*!
#574735
1&!
#574906
06"
#574952
x/"
x."
x0"
#575138
0C!
#575290
0F!
#575305
xM!
#575325
1n!
#575490
0E!
#575492
0(!
#575493
1'!
#575512
0)!
#575522
1=!
xG!
#575644
0'!
#576234
1+!
#576240
00!
#576459
0*!
#577166
1>!
#577168
0n!
#577909
0V
0.
#578074
x("
x'"
x&"
#578102
0+!
#578696
xj!
#578697
xf!
#578701
xh!
#579007
0""
0#"
#579761
x~
xI
#579939
0@!
#579944
1;!
#580000
0!
1O
#580123
0D!
#580386
x!!
xH
#580718
0%!
#580797
0#!
0+
#580897
x}
xJ
#581881
xe
x2
#582195
xg
x0
#582529
xf
x1
#583268
0k
0D
#583358
0j
0E
#590000
1!
0O
#590545
1%!
#593127
17"
#593518
1B!
#593758
0G!
#593786
0=!
#594685
0&!
#595149
1C!
#595445
0>!
#595536
1/!
#595563
1'!
#596089
10!
