simulation/qsim/neander_top.msim.vcd
$comment
	File created using the following command:
		vcd file neander_top.msim.vcd -direction
$end
$date
	Sat Oct 14 10:16:07 2023
$end
$version
	ModelSim Version 10.5b
$end
$timescale
	1ps
$end

$scope module neander_top_vlg_vec_tst $end
$var reg 1 ! mclk $end
$var wire 1 " AC_out [7] $end
$var wire 1 # AC_out [6] $end
$var wire 1 $ AC_out [5] $end
$var wire 1 % AC_out [4] $end
$var wire 1 & AC_out [3] $end
$var wire 1 ' AC_out [2] $end
$var wire 1 ( AC_out [1] $end
$var wire 1 ) AC_out [0] $end
$var wire 1 * cargaPC $end
$var wire 1 + incPC $end
$var wire 1 , INSTR_time [2] $end
$var wire 1 - INSTR_time [1] $end
$var wire 1 . INSTR_time [0] $end
$var wire 1 / PC_out [7] $end
$var wire 1 0 PC_out [6] $end
$var wire 1 1 PC_out [5] $end
$var wire 1 2 PC_out [4] $end
$var wire 1 3 PC_out [3] $end
$var wire 1 4 PC_out [2] $end
$var wire 1 5 PC_out [1] $end
$var wire 1 6 PC_out [0] $end
$var wire 1 7 RDM_out [7] $end
$var wire 1 8 RDM_out [6] $end
$var wire 1 9 RDM_out [5] $end
$var wire 1 : RDM_out [4] $end
$var wire 1 ; RDM_out [3] $end
$var wire 1 < RDM_out [2] $end
$var wire 1 = RDM_out [1] $end
$var wire 1 > RDM_out [0] $end
$var wire 1 ? REM_out [7] $end
$var wire 1 @ REM_out [6] $end
$var wire 1 A REM_out [5] $end
$var wire 1 B REM_out [4] $end
$var wire 1 C REM_out [3] $end
$var wire 1 D REM_out [2] $end
$var wire 1 E REM_out [1] $end
$var wire 1 F REM_out [0] $end
$var wire 1 G RI_out [7] $end
$var wire 1 H RI_out [6] $end
$var wire 1 I RI_out [5] $end
$var wire 1 J RI_out [4] $end
$var wire 1 K RI_out [3] $end
$var wire 1 L RI_out [2] $end
$var wire 1 M RI_out [1] $end
$var wire 1 N RI_out [0] $end
$var wire 1 O sampler $end

$scope module i1 $end
$var wire 1 P gnd $end
$var wire 1 Q vcc $end
$var wire 1 R unknown $end
$var tri1 1 S devclrn $end
$var tri1 1 T devpor $end
$var tri1 1 U devoe $end
$var wire 1 V INSTR_time[0]~output_o $end
$var wire 1 W INSTR_time[1]~output_o $end
$var wire 1 X INSTR_time[2]~output_o $end
$var wire 1 Y AC_out[0]~output_o $end
$var wire 1 Z AC_out[1]~output_o $end
$var wire 1 [ AC_out[2]~output_o $end
$var wire 1 \ AC_out[3]~output_o $end
$var wire 1 ] AC_out[4]~output_o $end
$var wire 1 ^ AC_out[5]~output_o $end
$var wire 1 _ AC_out[6]~output_o $end
$var wire 1 ` AC_out[7]~output_o $end
$var wire 1 a PC_out[0]~output_o $end
$var wire 1 b PC_out[1]~output_o $end
$var wire 1 c PC_out[2]~output_o $end
$var wire 1 d PC_out[3]~output_o $end
$var wire 1 e PC_out[4]~output_o $end
$var wire 1 f PC_out[5]~output_o $end
$var wire 1 g PC_out[6]~output_o $end
$var wire 1 h PC_out[7]~output_o $end
$var wire 1 i REM_out[0]~output_o $end
$var wire 1 j REM_out[1]~output_o $end
$var wire 1 k REM_out[2]~output_o $end
$var wire 1 l REM_out[3]~output_o $end
$var wire 1 m REM_out[4]~output_o $end
$var wire 1 n REM_out[5]~output_o $end
$var wire 1 o REM_out[6]~output_o $end
$var wire 1 p REM_out[7]~output_o $end
$var wire 1 q RDM_out[0]~output_o $end
$var wire 1 r RDM_out[1]~output_o $end
$var wire 1 s RDM_out[2]~output_o $end
$var wire 1 t RDM_out[3]~output_o $end
$var wire 1 u RDM_out[4]~output_o $end
$var wire 1 v RDM_out[5]~output_o $end
$var wire 1 w RDM_out[6]~output_o $end
$var wire 1 x RDM_out[7]~output_o $end
$var wire 1 y RI_out[0]~output_o $end
$var wire 1 z RI_out[1]~output_o $end
$var wire 1 { RI_out[2]~output_o $end
$var wire 1 | RI_out[3]~output_o $end
$var wire 1 } RI_out[4]~output_o $end
$var wire 1 ~ RI_out[5]~output_o $end
$var wire 1 !! RI_out[6]~output_o $end
$var wire 1 "! RI_out[7]~output_o $end
$var wire 1 #! incPC~output_o $end
$var wire 1 $! cargaPC~output_o $end
$var wire 1 %! mclk~input_o $end
$var wire 1 &! TIMER|qs[0]~2_combout $end
$var wire 1 '! TIMER|qs[1]~0_combout $end
$var wire 1 (! TIMER|qs[2]~1_combout $end
$var wire 1 )! TIMER_DECODER|Mux5~combout $end
$var wire 1 *! CU|goto_t0~0_combout $end
$var wire 1 +! CU|inc_PC~0_combout $end
$var wire 1 ,! CU|sel~0_combout $end
$var wire 1 -! CU|carga_PC~2_combout $end
$var wire 1 .! CU|carga_PC~combout $end
$var wire 1 /! CU|carga_PC~clkctrl_outclk $end
$var wire 1 0! REG_PC|count[0]~8_combout $end
$var wire 1 1! MEM|Mux6~0_combout $end
$var wire 1 2! CU|carga_AC~1_combout $end
$var wire 1 3! TIMER_DECODER|Mux6~0_combout $end
$var wire 1 4! CU|inc_PC~combout $end
$var wire 1 5! MULTIPLEX|y[0]~0_combout $end
$var wire 1 6! MEM|Mux4~0_combout $end
$var wire 1 7! REG_PC|count[0]~9 $end
$var wire 1 8! REG_PC|count[1]~10_combout $end
$var wire 1 9! REG_PC|count[1]~11 $end
$var wire 1 :! REG_PC|count[2]~12_combout $end
$var wire 1 ;! REG_PC|count[2]~13 $end
$var wire 1 <! REG_PC|count[3]~14_combout $end
$var wire 1 =! MULTIPLEX|y[3]~3_combout $end
$var wire 1 >! MEM|Mux5~0_combout $end
$var wire 1 ?! MULTIPLEX|y[1]~1_combout $end
$var wire 1 @! MEM|Mux1~0_combout $end
$var wire 1 A! CU|carga_REM~1_combout $end
$var wire 1 B! CU|carga_REM~2_combout $end
$var wire 1 C! CU|carga_REM~combout $end
$var wire 1 D! CU|carga_REM~clkctrl_outclk $end
$var wire 1 E! MULTIPLEX|y[2]~2_combout $end
$var wire 1 F! MEM|Mux2~0_combout $end
$var wire 1 G! CU|carga_RDM~2_combout $end
$var wire 1 H! CU|carga_RDM~combout $end
$var wire 1 I! CU|carga_RDM~clkctrl_outclk $end
$var wire 1 J! MEM|Mux0~0_combout $end
$var wire 1 K! CU|goto_t0~2_combout $end
$var wire 1 L! CU|goto_t0~1_combout $end
$var wire 1 M! CU|goto_t0~3_combout $end
$var wire 1 N! CU|carga_AC~2_combout $end
$var wire 1 O! CU|carga_AC~0_combout $end
$var wire 1 P! CU|carga_AC~combout $end
$var wire 1 Q! CU|carga_AC~clkctrl_outclk $end
$var wire 1 R! REG_AC|q[0]~8_combout $end
$var wire 1 S! REG_AC|q[0]~feeder_combout $end
$var wire 1 T! CU|s[2]~0_combout $end
$var wire 1 U! CU|carga_REM~0_combout $end
$var wire 1 V! ULA|Mux7~0_combout $end
$var wire 1 W! CU|s[1]~1_combout $end
$var wire 1 X! CU|s[1]~2_combout $end
$var wire 1 Y! REG_AC|q[0]~9 $end
$var wire 1 Z! REG_AC|q[1]~10_combout $end
$var wire 1 [! ULA|Mux6~0_combout $end
$var wire 1 \! REG_AC|q[1]~11 $end
$var wire 1 ]! REG_AC|q[2]~12_combout $end
$var wire 1 ^! ULA|Mux5~0_combout $end
$var wire 1 _! REG_AC|q[2]~13 $end
$var wire 1 `! REG_AC|q[3]~14_combout $end
$var wire 1 a! ULA|Mux4~0_combout $end
$var wire 1 b! REG_AC|q[3]~15 $end
$var wire 1 c! REG_AC|q[4]~16_combout $end
$var wire 1 d! ULA|Mux3~0_combout $end
$var wire 1 e! REG_AC|q[4]~17 $end
$var wire 1 f! REG_AC|q[5]~18_combout $end
$var wire 1 g! ULA|Mux2~0_combout $end
$var wire 1 h! REG_AC|q[5]~19 $end
$var wire 1 i! REG_AC|q[6]~20_combout $end
$var wire 1 j! ULA|Mux1~0_combout $end
$var wire 1 k! REG_AC|q[6]~21 $end
$var wire 1 l! REG_AC|q[7]~22_combout $end
$var wire 1 m! ULA|Mux0~2_combout $end
$var wire 1 n! REG_PC|count[3]~15 $end
$var wire 1 o! REG_PC|count[4]~16_combout $end
$var wire 1 p! REG_PC|count[4]~17 $end
$var wire 1 q! REG_PC|count[5]~18_combout $end
$var wire 1 r! REG_PC|count[5]~19 $end
$var wire 1 s! REG_PC|count[6]~20_combout $end
$var wire 1 t! REG_PC|count[6]~21 $end
$var wire 1 u! REG_PC|count[7]~22_combout $end
$var wire 1 v! ~GND~combout $end
$var wire 1 w! TIMER_DECODER|Mux5~clkctrl_outclk $end
$var wire 1 x! REG_RI|q[0]~feeder_combout $end
$var wire 1 y! REG_RI|q[1]~feeder_combout $end
$var wire 1 z! REG_RI|q[2]~feeder_combout $end
$var wire 1 {! REG_RI|q[3]~feeder_combout $end
$var wire 1 |! TIMER|qs [2] $end
$var wire 1 }! TIMER|qs [1] $end
$var wire 1 ~! TIMER|qs [0] $end
$var wire 1 !" REG_PC|count [7] $end
$var wire 1 "" REG_PC|count [6] $end
$var wire 1 #" REG_PC|count [5] $end
$var wire 1 $" REG_PC|count [4] $end
$var wire 1 %" REG_PC|count [3] $end
$var wire 1 &" REG_PC|count [2] $end
$var wire 1 '" REG_PC|count [1] $end
$var wire 1 (" REG_PC|count [0] $end
$var wire 1 )" REG_RDM|q [7] $end
$var wire 1 *" REG_RDM|q [6] $end
$var wire 1 +" REG_RDM|q [5] $end
$var wire 1 ," REG_RDM|q [4] $end
$var wire 1 -" REG_RDM|q [3] $end
$var wire 1 ." REG_RDM|q [2] $end
$var wire 1 /" REG_RDM|q [1] $end
$var wire 1 0" REG_RDM|q [0] $end
$var wire 1 1" REG_AC|q [7] $end
$var wire 1 2" REG_AC|q [6] $end
$var wire 1 3" REG_AC|q [5] $end
$var wire 1 4" REG_AC|q [4] $end
$var wire 1 5" REG_AC|q [3] $end
$var wire 1 6" REG_AC|q [2] $end
$var wire 1 7" REG_AC|q [1] $end
$var wire 1 8" REG_AC|q [0] $end
$var wire 1 9" REG_RI|q [7] $end
$var wire 1 :" REG_RI|q [6] $end
$var wire 1 ;" REG_RI|q [5] $end
$var wire 1 <" REG_RI|q [4] $end
$var wire 1 =" REG_RI|q [3] $end
$var wire 1 >" REG_RI|q [2] $end
$var wire 1 ?" REG_RI|q [1] $end
$var wire 1 @" REG_RI|q [0] $end
$var wire 1 A" REG_REM|q [7] $end
$var wire 1 B" REG_REM|q [6] $end
$var wire 1 C" REG_REM|q [5] $end
$var wire 1 D" REG_REM|q [4] $end
$var wire 1 E" REG_REM|q [3] $end
$var wire 1 F" REG_REM|q [2] $end
$var wire 1 G" REG_REM|q [1] $end
$var wire 1 H" REG_REM|q [0] $end
$upscope $end
$upscope $end
$enddefinitions $end
#0
$dumpvars
0!
x)
x(
x'
x&
x%
x$
x#
x"
x*
x+
x.
x-
x,
x6
x5
x4
x3
x2
x1
x0
x/
x>
x=
x<
x;
x:
x9
x8
07
xF
xE
xD
xC
0B
0A
0@
0?
xN
xM
xL
xK
xJ
xI
xH
0G
xO
0P
1Q
xR
1S
1T
1U
xV
xW
xX
xY
xZ
x[
x\
x]
x^
x_
x`
xa
xb
xc
xd
xe
xf
xg
xh
xi
xj
xk
xl
0m
0n
0o
0p
xq
xr
xs
xt
xu
xv
xw
0x
xy
xz
x{
x|
x}
x~
x!!
0"!
x#!
x$!
0%!
x&!
x'!
x(!
x)!
x*!
x+!
x,!
x-!
x.!
x/!
x0!
x1!
x2!
x3!
x4!
x5!
x6!
x7!
x8!
x9!
x:!
x;!
x<!
x=!
x>!
x?!
x@!
xA!
xB!
xC!
xD!
xE!
xF!
xG!
xH!
xI!
xJ!
xK!
xL!
xM!
xN!
xO!
xP!
xQ!
xR!
xS!
xT!
xU!
xV!
xW!
xX!
xY!
xZ!
x[!
x\!
x]!
x^!
x_!
x`!
xa!
xb!
xc!
xd!
xe!
xf!
xg!
xh!
xi!
xj!
xk!
xl!
xm!
xn!
xo!
xp!
xq!
xr!
xs!
xt!
xu!
0v!
xw!
xx!
xy!
xz!
x{!
0~!
0}!
0|!
0("
0'"
0&"
0%"
0$"
0#"
0""
0!"
00"
0/"
0."
z-"
0,"
0+"
0*"
z)"
08"
07"
06"
05"
04"
03"
02"
01"
0@"
0?"
0>"
0="
0<"
0;"
0:"
z9"
0H"
0G"
0F"
0E"
zD"
zC"
zB"
zA"
$end
#495
0*!
#496
0)!
#499
0L!
#594
0W!
#595
0,!
#603
02!
#614
1K!
#659
0t!
#660
0p!
0Y!
0;!
#671
07!
#687
01!
#703
0A!
#708
10!
#718
0E!
#724
0B!
#737
1N!
#767
0+!
#775
0=!
#779
0J!
#783
0-!
#784
1r!
#785
0?!
#787
0(!
#788
19!
#792
0F!
#794
0>!
#801
06!
#803
1n!
#812
0_!
#813
1@!
#851
0G!
#868
0U!
#875
0R!
#885
0P!
#886
0T!
#891
05!
#933
1\!
#952
0M!
#957
0e!
#962
0k!
#1006
1X!
#1029
0O!
#1037
0H!
#1069
1b!
#1083
1h!
#1096
0u!
#1097
0<!
0Z!
0q!
#1108
08!
#1133
0.!
#1186
1C!
#1221
0s!
#1225
0:!
#1240
0o!
#1249
0`!
#1370
0]!
#1394
0f!
#1399
0l!
#1480
0S!
#1484
0V!
#1485
0j!
#1502
0y!
#1506
0c!
#1520
0i!
#1521
1&!
#1551
0[!
0^!
0a!
0d!
0g!
#1552
0m!
#1700
0x!
#1749
0{!
#1751
0z!
#2427
0w!
#2465
0'!
#2505
0Q!
#2586
03!
#2658
0I!
#2742
1D!
#2849
0/!
#2901
04!
#3064
0|
0K
#3076
0z
0M
#3161
0{
0L
#3269
0V
0.
#3389
0`
0"
#3481
0i
0F
#3500
0u
0:
#3502
0_
0#
#3517
0v
09
#3518
0w
08
#3543
0Z
0(
#3583
0!!
0H
#3638
0j
0E
#3645
0[
0'
#3662
0^
0$
#3670
0\
0&
#3683
0]
0%
#3743
0W
0-
#3751
0k
0D
#3820
0a
06
#3852
0X
0,
#3878
0Y
0)
#3929
0e
0c
02
04
#3931
0r
0=
#3947
0h
0/
#3955
0f
01
#3981
0d
03
#3991
0b
05
#4050
0y
0N
#4077
0~
0I
#4094
0g
00
#4162
0l
0C
#4331
0s
0t
0<
0;
#4371
0q
0>
#4561
0}
0J
#5230
0$!
0*
#7720
0#!
0+
#10000
1!
0O
#10545
1%!
#12924
1~!
#13589
1B!
#13742
1H!
#14025
0C!
#14383
0&!
#15281
1'!
#15355
1I!
#15439
13!
#15585
0D!
#15741
14!
#16234
1V
1.
#17191
1+"
#17955
1g!
#18154
1f!
#20000
0!
1O
#20602
1#!
1+
#20718
0%!
#20758
1v
19
#30000
1!
0O
#30545
1%!
#32924
1}!
0~!
#33332
0H!
#33335
0'!
#33341
1*!
#33585
1-!
#33588
1(!
#33648
1)!
#33652
0*!
#33756
03!
#33766
1T!
#33768
1M!
#34109
0M!
#34205
0-!
#34237
1.!
#34445
1&!
#34579
1;"
#34932
1+!
#34953
0I!
#35227
0K!
#35342
0T!
#35368
1G!
#35376
1'!
#35395
0(!
#35519
12!
#35573
1w!
#35942
1/!
#36193
0V
0.
#36719
1W
1-
#37784
1("
#38400
1$!
1*
#38417
15!
#38429
00!
#38506
17!
#38681
1~
1I
#38961
18!
#40000
0!
1O
#40718
0%!
#41636
1a
16
#50000
1!
0O
#50545
1%!
#52924
1~!
#53587
0)!
0B!
#53589
1*!
#53737
1O!
#54049
1C!
#54123
1-!
#54224
0.!
#54382
04!
#54383
0&!
#55272
1(!
#55292
1T!
#55294
0'!
#55518
0w!
#55605
1D!
#55940
0/!
#56234
1V
1.
#57438
1H"
#58186
0@!
#58188
1>!
#58194
16!
#58321
0$!
0*
#59201
0#!
0+
#60000
0!
1O
#60718
0%!
#60963
1i
1F
#70000
1!
0O
#70545
1%!
#72924
0}!
1|!
0~!
#73312
0(!
#73330
1.!
#73430
1H!
#73434
1'!
#73458
0T!
#73467
1W!
#73527
02!
#73556
0*!
#73650
1B!
#73686
1(!
#73707
0-!
#73761
1P!
#73782
0O!
#73810
1,!
#74086
0C!
#74097
0P!
#74378
0.!
#74445
1&!
#74868
05!
#75043
1I!
#75366
1T!
#75389
0'!
#75646
0D!
#76193
0V
0.
#76667
0W
0-
#76843
1X
1,
#76879
1."
1/"
0+"
#77410
1a!
#77634
1?!
#77647
1=!
1E!
#77660
1[!
#77663
1^!
#77664
1]!
#77681
1Z!
#77716
0g!
#77835
1`!
#77902
0f!
#78281
1y!
#78545
1{!
#78546
1z!
#80000
0!
1O
#80396
0v
09
#80718
0%!
#80801
1r
1=
#81231
1s
1t
1<
1;
#90000
1!
0O
#90545
1%!
#92924
1~!
#93277
1L!
#93587
0B!
#93750
0H!
#94049
1C!
#94383
0&!
#95268
0T!
#95281
1'!
#95371
0I!
#95605
1D!
#96234
1V
1.
#97438
0H"
#97440
1E"
1G"
1F"
#97958
06!
#98080
11!
#98232
0>!
#98234
01!
#100000
0!
1O
#100718
0%!
#100919
0i
0F
#101132
1j
1E
#101239
1k
1D
#101661
1l
1C
#110000
1!
0O
#110545
1%!
#112924
1}!
0~!
#113293
0L!
#113335
0'!
#113343
1B!
#113467
12!
#113585
1-!
#113613
0(!
#113765
0,!
#113779
0C!
#113806
1H!
#113891
14!
#114205
0-!
#114232
1.!
#114445
1&!
#114691
0=!
#114692
0E!
#114694
0?!
#114820
15!
#114876
0.!
#115339
0D!
#115367
1(!
#115376
1'!
#115419
1I!
#116193
0V
0.
#116719
1W
1-
#117255
0."
0/"
#117835
0a!
#118098
0]!
#118116
0[!
#118117
0^!
#118122
0Z!
#118264
0`!
#118752
1#!
1+
#118757
0y!
#119004
0{!
#119006
0z!
#120000
0!
1O
#120718
0%!
#121186
0r
0=
#121586
0s
0t
0<
0;
#130000
1!
0O
#130545
1%!
#132924
1~!
#133737
1O!
#133750
0H!
#134040
1P!
#134123
1-!
#134383
0&!
#134770
1.!
#135294
0'!
#135300
0(!
#135371
0I!
#135649
1Q!
#136234
1V
1.
#136475
1/!
#138317
0("
1'"
#138903
09!
#138933
1$!
1*
#138958
08!
#138988
07!
#139025
10!
#139043
05!
#139046
19!
#139064
1?!
#139443
18!
#140000
0!
1O
#140718
0%!
#142137
0a
06
#142365
1b
15
#150000
1!
0O
#150545
1%!
#152924
0}!
0|!
0~!
#153407
0.!
#153434
1'!
#153518
0W!
#153527
02!
#153530
1T!
#153648
0B!
#153707
0-!
#153709
13!
#153782
0O!
#153809
0P!
#153810
0T!
#154110
1C!
#154445
1&!
#155123
0/!
#155389
0'!
#155429
0Q!
#155510
03!
#155666
1D!
#155825
04!
#156193
0V
0.
#156667
0W
0-
#156776
0X
0,
#157501
0E"
0F"
#157504
0$!
0*
#158110
1@!
#158288
1F!
#160000
0!
1O
#160644
0#!
0+
#160718
0%!
#161252
0k
0D
#161663
0l
0C
#170000
1!
0O
#170545
1%!
#172924
1~!
#173589
1B!
#173742
1H!
#174025
0C!
#174383
0&!
#175281
1'!
#175355
1I!
#175439
13!
#175585
0D!
#175741
14!
#176234
1V
1.
#177191
1+"
1,"
#177883
1d!
#177955
1g!
#178138
1c!
#178154
1f!
#180000
0!
1O
#180602
1#!
1+
#180718
0%!
#180730
1u
1:
#180758
1v
19
#190000
1!
0O
#190545
1%!
#192924
1}!
0~!
#193332
0H!
#193333
0B!
#193335
0'!
#193341
1*!
#193467
12!
#193585
1-!
#193588
1(!
#193648
1)!
#193650
1B!
#193652
0*!
#193756
03!
#193766
1T!
#194205
0-!
#194237
1.!
#194445
1&!
#194579
1<"
#194953
0I!
#195342
0T!
#195376
1'!
#195395
0(!
#195573
1w!
#195942
1/!
#196193
0V
0.
#196719
1W
1-
#197784
1("
#198400
1$!
1*
#198417
15!
#198429
00!
#198506
17!
#198564
09!
#198943
08!
#199019
1:!
#199142
1}
1J
#200000
0!
1O
#200718
0%!
#201636
1a
16
#210000
1!
0O
#210545
1%!
#212924
1~!
#213587
0)!
0B!
#213589
1*!
#213737
1O!
#214049
1C!
#214123
1-!
#214224
0.!
#214382
04!
#214383
0&!
#215272
1(!
#215294
0'!
#215518
0w!
#215605
1D!
#215940
0/!
#216234
1V
1.
#217438
1H"
#218184
0F!
#218186
0@!
#218188
1>!
#218190
11!
#218194
16!
#218321
0$!
0*
#219201
0#!
0+
#220000
0!
1O
#220718
0%!
#220963
1i
1F
#230000
1!
0O
#230545
1%!
#232924
0}!
1|!
0~!
#233312
0(!
#233330
1.!
#233430
1H!
#233434
1'!
#233467
1W!
#233527
02!
#233556
0*!
#233650
1B!
#233686
1(!
#233707
0-!
#233761
1P!
#233782
0O!
#233810
1,!
#234086
0C!
#234097
0P!
#234378
0.!
#234445
1&!
#234730
0?!
#234868
05!
#235043
1I!
#235389
0'!
#235646
0D!
#236193
0V
0.
#236667
0W
0-
#236843
1X
1,
#236879
10"
1."
1/"
0+"
0,"
#237410
1a!
#237506
1V!
#237601
0d!
#237634
1?!
#237647
1=!
1E!
#237660
1[!
#237661
1R!
#237663
1^!
#237664
1]!
#237681
1Z!
#237716
0g!
#237727
15!
#237835
1`!
#237870
0c!
#237902
0f!
#238220
1S!
#238281
1y!
#238503
1x!
#238545
1{!
#238546
1z!
#240000
0!
1O
#240379
0u
0:
#240396
0v
09
#240718
0%!
#240801
1r
1=
#241231
1s
1t
1<
1;
#241276
1q
1>
#250000
1!
0O
#250545
1%!
#252924
1~!
#253587
0B!
#253750
0H!
#254049
1C!
#254383
0&!
#255281
1'!
#255371
0I!
#255605
1D!
#256234
1V
1.
#257440
1E"
1F"
#257958
06!
#260000
0!
1O
#260718
0%!
#261239
1k
1D
#261661
1l
1C
#270000
1!
0O
#270545
1%!
#272924
1}!
0~!
#273335
0'!
#273343
1B!
#273344
1L!
#273467
12!
#273585
1-!
#273613
0(!
#273765
0,!
#273779
0C!
#273806
1H!
#273878
0X!
#273891
14!
#274205
0-!
#274232
1.!
#274445
1&!
#274691
0=!
#274692
0E!
#274876
0.!
#275339
0D!
#275367
1(!
#275376
1'!
#275419
1I!
#276193
0V
0.
#276719
1W
1-
#277255
0."
#277835
0a!
#278098
0]!
#278117
0^!
#278264
0`!
#278752
1#!
1+
#279004
0{!
#279006
0z!
#280000
0!
1O
#280718
0%!
#281586
0s
0t
0<
0;
#290000
1!
0O
#290545
1%!
#292924
1~!
#293293
0L!
#293737
1O!
#293750
0H!
#294040
1P!
#294123
1-!
#294383
0&!
#294770
1.!
#295294
0'!
#295300
0(!
#295371
0I!
#295649
1Q!
#296234
1V
1.
#296475
1/!
#297491
18"
17"
#298083
0\!
#298127
0R!
#298144
0Z!
#298204
1Y!
#298317
0("
0'"
1&"
#298538
1]!
#298659
1Z!
#298732
0S!
#298933
1$!
1*
#298954
0:!
#298988
07!
#299005
1E!
#299025
10!
#299031
1;!
#299043
05!
#299102
0?!
#299105
19!
#299163
0;!
#299560
1:!
#300000
0!
1O
#300718
0%!
#301072
1Z
1(
#301426
1Y
1)
#302137
0a
06
#302306
1c
14
#302308
0b
05
#310000
1!
0O
#310545
1%!
#312924
0}!
0|!
0~!
#313277
1L!
#313407
0.!
#313423
0L!
#313434
1'!
#313518
0W!
#313527
02!
#313648
0B!
#313707
0-!
#313709
13!
#313782
0O!
#313809
0P!
#313930
1X!
#314110
1C!
#314445
1&!
#315123
0/!
#315389
0'!
#315429
0Q!
#315510
03!
#315666
1D!
#315825
04!
#316193
0V
0.
#316667
0W
0-
#316776
0X
0,
#317499
0H"
#317501
0E"
0G"
#317504
0$!
0*
#318105
01!
0>!
#318306
1J!
#320000
0!
1O
#320644
0#!
0+
#320718
0%!
#320980
0i
0F
#321139
0j
0E
#321663
0l
0C
#330000
1!
0O
#330545
1%!
#332924
1~!
#333589
1B!
#333742
1H!
#334025
0C!
#334383
0&!
#335281
1'!
#335355
1I!
#335439
13!
#335585
0D!
#335741
14!
#336234
1V
1.
#337191
00"
0/"
1*"
#337838
1j!
#337908
0V!
#338014
0Y!
#338038
1R!
#338052
0[!
#338072
1\!
#338149
1i!
#338509
0]!
#338597
1S!
#338693
0y!
#338891
0x!
#340000
0!
1O
#340602
1#!
1+
#340718
0%!
#340762
1w
18
#341122
0r
0=
#341562
0q
0>
#350000
1!
0O
#350545
1%!
#352924
1}!
0~!
#353332
0H!
#353333
0B!
#353335
0'!
#353341
1*!
#353467
12!
#353585
1-!
#353588
1(!
#353648
1)!
#353650
1B!
#353652
0*!
#353756
03!
#354205
0-!
#354237
1.!
#354445
1&!
#354579
0;"
0<"
1:"
#354948
0G!
#354953
0I!
#355245
02!
#355346
0+!
#355376
1'!
#355395
0(!
#355573
1w!
#355942
1/!
#356193
0V
0.
#356719
1W
1-
#357784
1("
#358197
1!!
1H
#358400
1$!
1*
#358417
15!
#358429
00!
#358506
17!
#358656
0~
0I
#358961
18!
#359140
0}
0J
#360000
0!
1O
#360718
0%!
#361636
1a
16
#370000
1!
0O
#370545
1%!
#372924
1~!
#373587
0)!
#373589
1*!
#374224
0.!
#374382
04!
#374383
0&!
#375272
1(!
#375292
1T!
#375294
0'!
#375518
0w!
#375940
0/!
#376234
1V
1.
#378321
0$!
0*
#379201
0#!
0+
#380000
0!
1O
#380718
0%!
#390000
1!
0O
#390545
1%!
#392924
0}!
1|!
0~!
#393312
0(!
#393430
1H!
#393434
1'!
#393458
0T!
#393556
0*!
#393686
1(!
#393814
0H!
#394097
0N!
#394424
1O!
#394445
1&!
#394727
1P!
#395366
1T!
#395389
0'!
#396193
0V
0.
#396336
1Q!
#396667
0W
0-
#396843
1X
1,
#398178
08"
07"
12"
#398815
0i!
#398889
0R!
#398910
0Z!
#398912
1k!
#399367
1l!
#399494
0S!
#400000
0!
1O
#400718
0%!
#401721
0Z
0(
#401775
1_
1#
#402056
0Y
0)
#410000
1!
0O
#410545
1%!
#412924
1~!
#413277
1L!
#413738
0O!
#414053
0P!
#414383
0&!
#415268
0T!
#415281
1'!
#415673
0Q!
#416234
1V
1.
#420000
0!
1O
#420718
0%!
#430000
1!
0O
#430545
1%!
#432924
1}!
0~!
#433293
0L!
#433335
0'!
#433613
0(!
#433781
1O!
#434077
1N!
#434084
1P!
#434369
0O!
#434445
1&!
#434684
0P!
#435367
1(!
#435376
1'!
#436193
0V
0.
#436719
1W
1-
#440000
0!
1O
#440718
0%!
#450000
1!
0O
#450545
1%!
#452924
1~!
#454383
0&!
#455294
0'!
#455300
0(!
#456234
1V
1.
#460000
0!
1O
#460718
0%!
#470000
1!
0O
#470545
1%!
#472924
0}!
0|!
0~!
#473434
1'!
#473530
1T!
#473648
0B!
#473709
13!
#473810
0T!
#474011
14!
#474097
0N!
#474110
1C!
#474424
1O!
#474445
1&!
#475389
0'!
#475510
03!
#475666
1D!
#475825
04!
#476193
0V
0.
#476667
0W
0-
#476776
0X
0,
#477499
1H"
#478242
0J!
#478255
1F!
#480000
0!
1O
#480718
0%!
#481024
1i
1F
#490000
1!
0O
#490545
1%!
#492924
1~!
#493589
1B!
#493738
0O!
#493742
1H!
#494025
0C!
#494383
0&!
#495281
1'!
#495355
1I!
#495439
13!
#495585
0D!
#495741
14!
#496234
1V
1.
#497191
1,"
0*"
#497883
1d!
#497928
0j!
#498138
1c!
#498153
0k!
#498192
1i!
#498590
0l!
#500000
0!
1O
#500602
1#!
1+
#500709
0w
08
#500718
0%!
#500730
1u
1:
#510000
1!
0O
#510545
1%!
#512924
1}!
0~!
#513332
0H!
#513335
0'!
#513341
1*!
#513588
1(!
#513648
1)!
#513652
0*!
#513756
03!
#513766
1T!
#513781
1O!
#514077
1N!
#514237
1.!
#514369
0O!
#514445
1&!
#514579
1<"
0:"
#514953
0I!
#515193
1+!
#515238
1G!
#515315
12!
#515342
0T!
#515376
1'!
#515395
0(!
#515573
1w!
#515942
1/!
#516193
0V
0.
#516719
1W
1-
#517784
0("
1'"
#518162
0!!
0H
#518370
09!
#518400
1$!
1*
#518425
08!
#518428
1;!
#518455
07!
#518492
10!
#518510
05!
#518513
19!
#518531
1?!
#518571
0;!
#518910
18!
#519142
1}
1J
#520000
0!
1O
#520718
0%!
#521604
0a
06
#521832
1b
15
#530000
1!
0O
#530545
1%!
#532924
1~!
#533587
0)!
0B!
#533589
1*!
#533737
1O!
#534049
1C!
#534123
1-!
#534224
0.!
#534382
04!
#534383
0&!
#535272
1(!
#535294
0'!
#535518
0w!
#535605
1D!
#535940
0/!
#536234
1V
1.
#537438
0H"
#537440
1G"
#538084
0F!
#538245
1J!
#538251
1@!
#538321
0$!
0*
#539201
0#!
0+
#540000
0!
1O
#540718
0%!
#540919
0i
0F
#541132
1j
1E
#550000
1!
0O
#550545
1%!
#552924
0}!
1|!
0~!
#553312
0(!
#553430
1H!
#553434
1'!
#553527
02!
#553556
0*!
#553650
1B!
#553686
1(!
#553707
0-!
#553761
1P!
#553782
0O!
#553810
1,!
#554086
0C!
#554097
0P!
#554445
1&!
#554728
0E!
#554730
0?!
#555043
1I!
#555389
0'!
#555646
0D!
#556193
0V
0.
#556667
0W
0-
#556843
1X
1,
#556879
1+"
0,"
1*"
#557526
1j!
#557601
0d!
#557643
1g!
#557832
0i!
#557842
1f!
#557870
0c!
#557919
1k!
#558374
1l!
#560000
0!
1O
#560379
0u
0:
#560446
1v
19
#560450
1w
18
#560718
0%!
#570000
1!
0O
#570545
1%!
#572924
1~!
#573587
0B!
#573750
0H!
#574049
1C!
#574383
0&!
#575281
1'!
#575371
0I!
#575605
1D!
#576234
1V
1.
#577440
0G"
0F"
#578219
0J!
#580000
0!
1O
#580718
0%!
#581078
0j
0E
#581191
0k
0D
#590000
1!
0O
#590545
1%!
#592924
1}!
0~!
#593335
0'!
#593343
1B!
#593344
1L!
#593467
12!
#593585
1-!
#593613
0(!
#593765
0,!
#593779
0C!
#593806
1H!
#593891
14!
#594205
0-!
#594445
1&!
#594664
1E!
#594666
1?!
#595339
0D!
#595367
1(!
